BME 393L/Lab 3/multiplier/simulation/qsim/multiplier.msim.vcd
$comment
	File created using the following command:
		vcd file multiplier.msim.vcd -direction
$end
$date
	Fri Feb 11 10:53:02 2022
$end
$version
	ModelSim Version 10.5b
$end
$timescale
	1ps
$end

$scope module multiplier_vhd_vec_tst $end
$var wire 1 ! LEDG [7] $end
$var wire 1 " LEDG [6] $end
$var wire 1 # LEDG [5] $end
$var wire 1 $ LEDG [4] $end
$var wire 1 % LEDG [3] $end
$var wire 1 & LEDG [2] $end
$var wire 1 ' LEDG [1] $end
$var wire 1 ( LEDG [0] $end
$var wire 1 ) SW [9] $end
$var wire 1 * SW [8] $end
$var wire 1 + SW [7] $end
$var wire 1 , SW [6] $end
$var wire 1 - SW [5] $end
$var wire 1 . SW [4] $end
$var wire 1 / SW [3] $end
$var wire 1 0 SW [2] $end
$var wire 1 1 SW [1] $end
$var wire 1 2 SW [0] $end

$scope module i1 $end
$var wire 1 3 gnd $end
$var wire 1 4 vcc $end
$var wire 1 5 unknown $end
$var wire 1 6 devoe $end
$var wire 1 7 devclrn $end
$var wire 1 8 devpor $end
$var wire 1 9 ww_devoe $end
$var wire 1 : ww_devclrn $end
$var wire 1 ; ww_devpor $end
$var wire 1 < ww_SW [9] $end
$var wire 1 = ww_SW [8] $end
$var wire 1 > ww_SW [7] $end
$var wire 1 ? ww_SW [6] $end
$var wire 1 @ ww_SW [5] $end
$var wire 1 A ww_SW [4] $end
$var wire 1 B ww_SW [3] $end
$var wire 1 C ww_SW [2] $end
$var wire 1 D ww_SW [1] $end
$var wire 1 E ww_SW [0] $end
$var wire 1 F ww_LEDG [7] $end
$var wire 1 G ww_LEDG [6] $end
$var wire 1 H ww_LEDG [5] $end
$var wire 1 I ww_LEDG [4] $end
$var wire 1 J ww_LEDG [3] $end
$var wire 1 K ww_LEDG [2] $end
$var wire 1 L ww_LEDG [1] $end
$var wire 1 M ww_LEDG [0] $end
$var wire 1 N \SW[4]~input_o\ $end
$var wire 1 O \SW[5]~input_o\ $end
$var wire 1 P \~QUARTUS_CREATED_GND~I_combout\ $end
$var wire 1 Q \SW[6]~input_o\ $end
$var wire 1 R \SW[0]~input_o\ $end
$var wire 1 S \out1~0_combout\ $end
$var wire 1 T \SW[7]~input_o\ $end
$var wire 1 U \SW[1]~input_o\ $end
$var wire 1 V \adder2|Add0~1_sumout\ $end
$var wire 1 W \SW[8]~input_o\ $end
$var wire 1 X \SW[2]~input_o\ $end
$var wire 1 Y \adder2|Add0~29_sumout\ $end
$var wire 1 Z \adder2|Add0~2\ $end
$var wire 1 [ \adder2|Add0~5_sumout\ $end
$var wire 1 \ \adder2|Add0~30\ $end
$var wire 1 ] \adder2|Add0~33_sumout\ $end
$var wire 1 ^ \SW[3]~input_o\ $end
$var wire 1 _ \SW[9]~input_o\ $end
$var wire 1 ` \adder1|Add0~1_sumout\ $end
$var wire 1 a \adder2|Add0~6\ $end
$var wire 1 b \adder2|Add0~9_sumout\ $end
$var wire 1 c \adder1|Add0~2\ $end
$var wire 1 d \adder1|Add0~5_sumout\ $end
$var wire 1 e \adder2|Add0~34\ $end
$var wire 1 f \adder2|Add0~37_sumout\ $end
$var wire 1 g \adder2|Add0~10\ $end
$var wire 1 h \adder2|Add0~13_sumout\ $end
$var wire 1 i \adder2|Add0~38\ $end
$var wire 1 j \adder2|Add0~41_sumout\ $end
$var wire 1 k \adder1|Add0~6\ $end
$var wire 1 l \adder1|Add0~9_sumout\ $end
$var wire 1 m \adder2|Add0~14\ $end
$var wire 1 n \adder2|Add0~17_sumout\ $end
$var wire 1 o \adder1|Add0~10\ $end
$var wire 1 p \adder1|Add0~13_sumout\ $end
$var wire 1 q \adder2|Add0~42\ $end
$var wire 1 r \adder2|Add0~45_sumout\ $end
$var wire 1 s \adder2|Add0~18\ $end
$var wire 1 t \adder2|Add0~21_sumout\ $end
$var wire 1 u \adder1|Add0~14\ $end
$var wire 1 v \adder1|Add0~17_sumout\ $end
$var wire 1 w \adder2|Add0~22\ $end
$var wire 1 x \adder2|Add0~25_sumout\ $end
$var wire 1 y \ALT_INV_SW[9]~input_o\ $end
$var wire 1 z \ALT_INV_SW[3]~input_o\ $end
$var wire 1 { \ALT_INV_SW[2]~input_o\ $end
$var wire 1 | \ALT_INV_SW[8]~input_o\ $end
$var wire 1 } \ALT_INV_SW[7]~input_o\ $end
$var wire 1 ~ \ALT_INV_SW[1]~input_o\ $end
$var wire 1 !! \ALT_INV_SW[6]~input_o\ $end
$var wire 1 "! \ALT_INV_SW[0]~input_o\ $end
$var wire 1 #! \adder1|ALT_INV_Add0~17_sumout\ $end
$var wire 1 $! \adder1|ALT_INV_Add0~13_sumout\ $end
$var wire 1 %! \adder2|ALT_INV_Add0~45_sumout\ $end
$var wire 1 &! \adder1|ALT_INV_Add0~9_sumout\ $end
$var wire 1 '! \adder2|ALT_INV_Add0~41_sumout\ $end
$var wire 1 (! \adder1|ALT_INV_Add0~5_sumout\ $end
$var wire 1 )! \adder2|ALT_INV_Add0~37_sumout\ $end
$var wire 1 *! \adder1|ALT_INV_Add0~1_sumout\ $end
$var wire 1 +! \adder2|ALT_INV_Add0~33_sumout\ $end
$var wire 1 ,! \adder2|ALT_INV_Add0~29_sumout\ $end
$upscope $end
$upscope $end
$enddefinitions $end
#0
$dumpvars
03
14
x5
16
17
18
19
1:
1;
xN
xO
xP
0Q
0R
0S
0T
0U
0V
0W
0X
0Y
0Z
0[
0\
0]
0^
0_
0`
0a
0b
0c
0d
0e
0f
0g
0h
0i
0j
0k
0l
0m
0n
0o
0p
0q
0r
0s
0t
0u
0v
0w
0x
1y
1z
1{
1|
1}
1~
1!!
1"!
1#!
1$!
1%!
1&!
1'!
1(!
1)!
1*!
1+!
1,!
0)
0*
0+
0,
x-
x.
0/
00
01
02
0<
0=
0>
0?
x@
xA
0B
0C
0D
0E
0F
0G
0H
0I
0J
0K
0L
0M
0!
0"
0#
0$
0%
0&
0'
0(
$end
#2500
12
1E
1R
0"!
#5000
02
11
0E
1D
1U
0R
1"!
0~
#7500
12
1E
1R
0"!
#10000
02
01
10
0E
0D
1C
1X
0U
0R
1"!
1~
0{
#12500
12
1E
1R
0"!
#15000
02
11
0E
1D
1U
0R
1"!
0~
#17500
12
1E
1R
0"!
#20000
02
01
00
1/
0E
0D
0C
1B
1^
0X
0U
0R
1"!
1~
1{
0z
#22500
12
1E
1R
0"!
#25000
02
11
0E
1D
1U
0R
1"!
0~
#27500
12
1E
1R
0"!
#30000
02
01
10
0E
0D
1C
1X
0U
0R
1"!
1~
0{
#32500
12
1E
1R
0"!
#35000
02
11
0E
1D
1U
0R
1"!
0~
#37500
12
1E
1R
0"!
#40000
02
01
00
0/
1,
0E
0D
0C
0B
1?
1Q
0^
0X
0U
0R
1"!
1~
1{
1z
0!!
#42500
12
1E
1R
0"!
1S
1M
1(
#45000
02
11
0E
1D
1U
0R
1"!
0~
0S
1V
1L
0M
0(
1'
#47500
12
1E
1R
0"!
1S
1M
1(
#50000
02
01
10
0E
0D
1C
1X
0U
0R
1"!
1~
0{
1Y
0S
0V
0,!
1[
0L
0M
0(
0'
1K
1&
#52500
12
1E
1R
0"!
1S
1M
1(
#55000
02
11
0E
1D
1U
0R
1"!
0~
0S
1V
1L
0M
0(
1'
#57500
12
1E
1R
0"!
1S
1M
1(
#60000
02
01
00
1/
0E
0D
0C
1B
1^
0X
0U
0R
1"!
1~
1{
0z
0Y
0S
0V
1`
0*!
1,!
0[
1b
0L
0M
0(
0'
1J
0K
0&
1%
#62500
12
1E
1R
0"!
1S
1M
1(
#65000
02
11
0E
1D
1U
0R
1"!
0~
0S
1V
1L
0M
0(
1'
#67500
12
1E
1R
0"!
1S
1M
1(
#70000
02
01
10
0E
0D
1C
1X
0U
0R
1"!
1~
0{
1Y
0S
0V
0,!
1[
0L
0M
0(
0'
1K
1&
#72500
12
1E
1R
0"!
1S
1M
1(
#75000
02
11
0E
1D
1U
0R
1"!
0~
0S
1V
1L
0M
0(
1'
#77500
12
1E
1R
0"!
1S
1M
1(
#80000
02
01
00
0/
0,
1+
0E
0D
0C
0B
0?
1>
1T
0Q
0^
0X
0U
0R
1"!
1~
1{
1z
1!!
0}
0Y
0S
0V
0`
1*!
1,!
0[
0b
0L
0M
0(
0'
0J
0K
0&
0%
#82500
12
1E
1R
0"!
1V
1L
1'
#85000
02
11
0E
1D
1U
0R
1"!
0~
1Y
0V
0,!
1[
0L
0'
1K
1&
#87500
12
1E
1R
0"!
1V
1L
1'
#90000
02
01
10
0E
0D
1C
1X
0U
0R
1"!
1~
0{
0Y
1]
0V
0+!
1,!
0[
1b
0L
0'
1J
0K
0&
1%
#92500
12
1E
1R
0"!
1V
1L
1'
#95000
02
11
0E
1D
1U
0R
1"!
0~
1Y
0V
0,!
1[
0L
0'
1K
1&
#97500
12
1E
1R
0"!
1V
1L
1'
#100000
02
01
00
1/
0E
0D
0C
1B
1^
0X
0U
0R
1"!
1~
1{
0z
1d
0Y
0]
0V
1+!
1,!
0(!
1h
0[
0b
0L
0'
0J
0K
1I
0&
0%
1$
#102500
12
1E
1R
0"!
1V
1L
1'
#105000
02
11
0E
1D
1U
0R
1"!
0~
1Y
0V
0,!
1[
0L
0'
1K
1&
#107500
12
1E
1R
0"!
1V
1L
1'
#110000
02
01
10
0E
0D
1C
1X
0U
0R
1"!
1~
0{
0Y
1]
0V
0+!
1,!
0[
1b
0L
0'
1J
0K
0&
1%
#112500
12
1E
1R
0"!
1V
1L
1'
#115000
02
11
0E
1D
1U
0R
1"!
0~
1Y
0V
0,!
1[
0L
0'
1K
1&
#117500
12
1E
1R
0"!
1V
1L
1'
#120000
02
01
00
0/
1,
0E
0D
0C
0B
1?
1Q
0^
0X
0U
0R
1"!
1~
1{
1z
0!!
0d
0Y
0]
0V
1+!
1,!
1(!
0h
0[
0b
0L
0'
0J
0K
0I
0&
0%
0$
#122500
12
1E
1R
0"!
1S
1V
1L
1M
1(
1'
#125000
02
11
0E
1D
1U
0R
1"!
0~
1Y
0S
0,!
1[
0M
0(
1K
1&
#127500
12
1E
1R
0"!
1S
0V
1Z
0[
1a
1b
0L
1M
1(
0'
0K
0&
1J
1%
#130000
02
01
10
0E
0D
1C
1X
0U
0R
1"!
1~
0{
1]
0S
0Z
0+!
1[
0a
0b
1g
1b
0g
0M
1h
0h
0(
1K
0J
1&
1J
0%
1I
1%
0I
1$
0$
#132500
12
1E
1R
0"!
1S
1V
1L
1M
1(
1'
#135000
02
11
0E
1D
1U
0R
1"!
0~
0Y
1\
0S
1,!
0]
1e
0[
1+!
1f
0M
0b
0)!
0(
1h
0K
0&
0J
0%
1I
1$
#137500
12
1E
1R
0"!
1S
0V
1Z
1[
0L
1M
1(
0'
1K
1&
#140000
02
01
00
1/
0E
0D
0C
1B
1^
0X
0U
0R
1"!
1~
1{
0z
1d
0\
1]
0e
0S
0Z
1`
0*!
0+!
0(!
0[
0f
0]
0h
1m
1g
1+!
1)!
0M
1b
0g
1n
0(
0K
1h
0m
0I
0&
0n
0$
1H
1J
1%
1#
1I
1$
0H
0#
#142500
12
1E
1R
0"!
1S
1V
1L
1M
1(
1'
#145000
02
11
0E
1D
1U
0R
1"!
0~
1Y
0S
0,!
1[
0M
0(
1K
1&
#147500
12
1E
1R
0"!
1S
0V
1Z
0[
1a
0b
1g
0L
1M
0h
1m
1(
0'
0K
1n
0&
0J
0%
0I
0$
1H
1#
#150000
02
01
10
0E
0D
1C
1X
0U
0R
1"!
1~
0{
1]
0S
0Z
0+!
1[
0a
1b
0b
0M
0(
1K
1J
1&
0J
1%
0%
#152500
12
1E
1R
0"!
1S
1V
1L
1M
1(
1'
#155000
02
11
0E
1D
1U
0R
1"!
0~
0Y
1\
0S
1,!
0]
1e
0[
1+!
1f
0M
1b
0g
0)!
0(
0K
0&
1J
1%
#157500
12
1E
1R
0"!
1S
0V
1Z
1[
0L
1M
1(
0'
1K
1&
#160000
02
01
00
0/
0,
0+
1*
0E
0D
0C
0B
0?
0>
1=
1W
0T
0Q
0^
0X
0U
0R
1"!
1~
1{
1z
1!!
1}
0|
0d
0\
1]
0e
0S
0Z
0`
1*!
0+!
1(!
0[
0f
0]
1h
0m
1+!
1)!
0M
0h
0b
0n
0(
0K
1I
0&
1$
0H
0J
0I
0%
0$
0#
#162500
12
1E
1R
0"!
1[
1K
1&
#165000
02
11
0E
1D
1U
0R
1"!
0~
1]
0[
0+!
1b
0K
0&
1J
1%
#167500
12
1E
1R
0"!
1[
1K
1&
#170000
02
01
10
0E
0D
1C
1X
0U
0R
1"!
1~
0{
0]
1f
0[
0)!
1+!
0b
1h
0K
0&
1I
0J
0%
1$
#172500
12
1E
1R
0"!
1[
1K
1&
#175000
02
11
0E
1D
1U
0R
1"!
0~
1]
0[
0+!
1b
0K
0&
1J
1%
#177500
12
1E
1R
0"!
1[
1K
1&
#180000
02
01
00
1/
0E
0D
0C
1B
1^
0X
0U
0R
1"!
1~
1{
0z
1l
0]
0f
0[
1)!
1+!
0&!
1n
0b
0h
0K
0&
0I
0J
1H
0%
0$
1#
#182500
12
1E
1R
0"!
1[
1K
1&
#185000
02
11
0E
1D
1U
0R
1"!
0~
1]
0[
0+!
1b
0K
0&
1J
1%
#187500
12
1E
1R
0"!
1[
1K
1&
#190000
02
01
10
0E
0D
1C
1X
0U
0R
1"!
1~
0{
0]
1f
0[
0)!
1+!
0b
1h
0K
0&
1I
0J
0%
1$
#192500
12
1E
1R
0"!
1[
1K
1&
#195000
02
11
0E
1D
1U
0R
1"!
0~
1]
0[
0+!
1b
0K
0&
1J
1%
#197500
12
1E
1R
0"!
1[
1K
1&
#200000
02
01
00
0/
1,
0E
0D
0C
0B
1?
1Q
0^
0X
0U
0R
1"!
1~
1{
1z
0!!
0l
0]
0f
0[
1)!
1+!
1&!
0n
0b
0h
0K
0&
0I
0J
0H
0%
0$
0#
#202500
12
1E
1R
0"!
1S
1[
1K
1M
1(
1&
#205000
02
11
0E
1D
1U
0R
1"!
0~
1]
0S
1V
0[
0+!
1b
0K
1L
0M
0(
1'
0&
1J
1%
#207500
12
1E
1R
0"!
1S
1[
1K
1M
1(
1&
#210000
02
01
10
0E
0D
1C
1X
0U
0R
1"!
1~
0{
1Y
0]
1f
0S
0V
0[
0)!
1+!
0,!
1[
0b
1h
0K
0L
0M
0(
0'
0&
1I
0J
1K
1&
0%
1$
#212500
12
1E
1R
0"!
1S
0[
1a
1b
0K
1M
1(
0&
1J
1%
#215000
02
11
0E
1D
1U
0R
1"!
0~
1]
0S
1V
1[
0a
0+!
0b
1b
1K
1L
0M
0(
1'
1&
0J
1J
0%
1%
#217500
12
1E
1R
0"!
1S
0[
1a
0b
1g
0h
1m
0K
1M
1n
1(
0&
0J
0%
0I
0$
1H
1#
#220000
02
01
00
1/
0E
0D
0C
1B
1^
0X
0U
0R
1"!
1~
1{
0z
1l
0Y
0]
0f
0S
0V
1[
0a
1`
0*!
1)!
1+!
1,!
0&!
1b
0g
0n
1s
0[
1h
0m
0h
1K
0L
0M
1n
0s
1t
0(
0'
1&
1J
0t
1I
0K
0H
1%
0I
0&
1$
0#
1G
1H
0$
1#
1"
0G
0"
#222500
12
1E
1R
0"!
1S
1[
1K
1M
1(
1&
#225000
02
11
0E
1D
1U
0R
1"!
0~
1]
0S
1V
0[
0+!
0b
1g
0K
1L
0M
1h
0(
1'
0&
0J
0%
1I
1$
#227500
12
1E
1R
0"!
1S
1[
1K
1M
1(
1&
#230000
02
01
10
0E
0D
1C
1X
0U
0R
1"!
1~
0{
1Y
0]
1f
0S
0V
0[
0)!
1+!
0,!
1[
1b
0g
0h
1m
0K
0L
0M
0n
1s
1h
0m
0(
0'
0&
1n
0s
1t
0I
1J
1K
0t
1&
1%
0$
1I
0H
1$
0#
1G
1H
1#
1"
0G
0"
#232500
12
1E
1R
0"!
1S
0[
1a
0b
1g
0h
1m
0K
1M
0n
1s
1(
0&
0J
1t
0%
0I
0$
0H
0#
1G
1"
#235000
02
11
0E
1D
1U
0R
1"!
0~
1]
0S
1V
1[
0a
0+!
1b
0g
0b
1g
1h
0m
1K
1L
0M
0h
1m
1n
0s
0(
1'
1&
1J
0n
1s
0J
0t
1%
1I
1t
0%
0I
1$
1H
0$
0H
1#
0G
0#
1G
0"
1"
#237500
12
1E
1R
0"!
1S
0[
1a
1b
0K
1M
1(
0&
1J
1%
#240000
02
01
00
0/
0,
1+
0E
0D
0C
0B
0?
1>
1T
0Q
0^
0X
0U
0R
1"!
1~
1{
1z
1!!
0}
0l
0Y
0]
0f
0S
0V
1[
0a
0`
1*!
1)!
1+!
1,!
1&!
0b
1n
0s
0[
1h
0m
0g
1K
0L
0M
0h
0n
0t
0(
0'
1&
0J
1I
0K
1H
0%
0&
1$
1#
0G
0H
0I
0$
0#
0"
#242500
12
1E
1R
0"!
1V
1[
1K
1L
1'
1&
#245000
02
11
0E
1D
1U
0R
1"!
0~
1Y
1]
0V
0[
0+!
0,!
1[
1b
0K
0L
0'
0&
1J
1K
1&
1%
#247500
12
1E
1R
0"!
1V
0[
1a
0b
1g
1h
0K
1L
1'
0&
0J
0%
1I
1$
#250000
02
01
10
0E
0D
1C
1X
0U
0R
1"!
1~
0{
0Y
1f
0V
1[
0a
0)!
1,!
1b
0g
0[
0h
1m
1h
0m
1K
0L
1n
0n
0'
1&
1J
0I
0K
1%
1I
0&
0$
1H
1$
0H
1#
0#
#252500
12
1E
1R
0"!
1V
1[
1K
1L
1'
1&
#255000
02
11
0E
1D
1U
0R
1"!
0~
1Y
0]
1e
0V
0[
1+!
0,!
0f
1i
1[
0b
1)!
1j
0K
0L
0h
0'!
0'
0&
1n
0J
1K
1&
0%
0I
0$
1H
1#
#257500
12
1E
1R
0"!
1V
0[
1a
1b
0K
1L
1'
0&
1J
1%
#260000
02
01
00
1/
0E
0D
0C
1B
1^
0X
0U
0R
1"!
1~
1{
0z
1d
1l
0Y
0e
1f
0i
0V
1[
0a
0)!
1,!
0&!
0(!
0b
0j
0f
0n
1s
0[
1m
1)!
1'!
1K
0L
1h
0m
1t
0'
1&
0J
1n
0s
0K
0H
0%
0t
0&
0#
1G
1I
1$
1"
1H
1#
0G
0"
#262500
12
1E
1R
0"!
1V
1[
1K
1L
1'
1&
#265000
02
11
0E
1D
1U
0R
1"!
0~
1Y
1]
0V
0[
0+!
0,!
1[
1b
0K
0L
0'
0&
1J
1K
1&
1%
#267500
12
1E
1R
0"!
1V
0[
1a
0b
1g
0h
1m
0K
1L
0n
1s
1'
0&
0J
1t
0%
0I
0$
0H
0#
1G
1"
#270000
02
01
10
0E
0D
1C
1X
0U
0R
1"!
1~
0{
0Y
1f
0V
1[
0a
0)!
1,!
1b
0g
0[
1h
0h
1K
0L
0'
1&
1J
1I
0K
1%
0I
0&
1$
0$
#272500
12
1E
1R
0"!
1V
1[
1K
1L
1'
1&
#275000
02
11
0E
1D
1U
0R
1"!
0~
1Y
0]
1e
0V
0[
1+!
0,!
0f
1i
1[
0b
1)!
1j
0K
0L
1h
0m
0'!
0'
0&
0J
1K
1&
0%
1I
1$
#277500
12
1E
1R
0"!
1V
0[
1a
1b
0K
1L
1'
0&
1J
1%
#280000
02
01
00
0/
1,
0E
0D
0C
0B
1?
1Q
0^
0X
0U
0R
1"!
1~
1{
1z
0!!
0d
0l
0Y
0e
1f
0i
0V
1[
0a
0)!
1,!
1&!
1(!
0b
0j
0f
1n
0s
0[
1)!
1'!
1K
0L
0n
0h
0t
0'
1&
0J
0K
1H
0%
0&
1#
0G
0I
0H
0$
0#
0"
#282500
12
1E
1R
0"!
1S
1V
1[
1K
1L
1M
1(
1'
1&
#285000
02
11
0E
1D
1U
0R
1"!
0~
1Y
1]
0S
0[
0+!
0,!
1[
1b
0K
0M
0(
0&
1J
1K
1&
1%
#287500
12
1E
1R
0"!
1S
0V
1Z
0[
1a
0b
1g
1[
1h
0K
0L
1M
1(
0'
0&
1K
0J
1&
0%
1I
1$
#290000
02
01
10
0E
0D
1C
1X
0U
0R
1"!
1~
0{
1f
0S
0Z
0[
0)!
1[
0a
0h
1m
1b
0g
0K
0M
1n
1h
0m
0(
0&
1K
0I
0n
1&
1J
0$
1H
1%
1I
1#
1$
0H
0#
#292500
12
1E
1R
0"!
1S
1V
0[
1a
0b
1g
0h
1m
0K
1L
1M
1n
1(
1'
0&
0J
0%
0I
0$
1H
1#
#295000
02
11
0E
1D
1U
0R
1"!
0~
0Y
1\
0]
1e
0S
1[
0a
1+!
1,!
1b
0g
0f
1i
1]
0[
0b
0+!
1)!
1j
1h
0m
1K
0M
0h
1b
0'!
0n
0(
1&
1J
1n
0J
0K
1%
1I
0&
0%
1J
0I
1$
0H
1%
0$
1H
0#
1#
#297500
12
1E
1R
0"!
1S
0V
1Z
1[
0[
1a
0b
1g
1K
0L
1M
1h
1(
0'
1&
0K
0&
0J
0%
1I
1$
#300000
02
01
00
1/
0E
0D
0C
1B
1^
0X
0U
0R
1"!
1~
1{
0z
1d
1l
0\
0e
1f
0i
0S
0Z
1[
0a
1`
0*!
0)!
0&!
0(!
1b
0g
0[
0j
0f
0]
0n
1s
1m
0b
1g
1+!
1)!
1'!
0h
1K
0M
1b
0g
1t
0(
1&
0K
1J
1h
0m
0J
0H
0&
1%
0I
1n
0s
0%
0#
1G
1J
0$
0t
1%
1"
1I
1$
1H
1#
0G
0"
#302500
12
1E
1R
0"!
1S
1V
1[
1K
1L
1M
1(
1'
1&
#305000
02
11
0E
1D
1U
0R
1"!
0~
1Y
1]
0S
0[
0+!
0,!
1[
0b
1g
0K
0M
0h
1m
0(
0&
0n
1s
0J
1K
1t
1&
0%
0I
0$
0H
0#
1G
1"
#307500
12
1E
1R
0"!
1S
0V
1Z
0[
1a
1b
1[
0K
0L
1M
1(
0'
0&
1K
1J
1&
1%
#310000
02
01
10
0E
0D
1C
1X
0U
0R
1"!
1~
0{
1f
0S
0Z
0[
0)!
1[
0a
1h
0b
0K
0M
0(
0&
1K
1I
1&
0J
1$
0%
#312500
12
1E
1R
0"!
1S
1V
0[
1a
1b
0K
1L
1M
1(
1'
0&
1J
1%
#315000
02
11
0E
1D
1U
0R
1"!
0~
0Y
1\
0]
1e
0S
1[
0a
1+!
1,!
0b
0f
1i
1]
0[
1b
0g
0+!
1)!
1j
1K
0M
0b
1g
0m
0'!
0(
1&
0J
0h
1m
1J
0K
0%
1n
0&
1%
0J
0%
0I
0$
1H
1#
#317500
12
1E
1R
0"!
1S
0V
1Z
1[
0[
1a
1b
1K
0L
1M
1(
0'
1&
0K
0&
1J
1%
#320000
02
01
00
0/
0,
0+
0*
1)
0E
0D
0C
0B
0?
0>
0=
1<
1_
0W
0T
0Q
0^
0X
0U
0R
1"!
1~
1{
1z
1!!
1}
1|
0y
0d
0l
0\
0e
1f
0i
0S
0Z
1[
0a
0`
1*!
0)!
1&!
1(!
0b
0[
0j
0f
0]
0n
1b
0g
1+!
1)!
1'!
1K
0M
1n
0s
0b
0m
0(
1&
0K
0J
0n
0t
1J
0H
0&
0%
1%
0#
0J
1H
0%
1#
0G
0H
0#
0"
#322500
12
1E
1R
0"!
1`
0*!
1b
1J
1%
#325000
02
11
0E
1D
1U
0R
1"!
0~
1f
0`
1*!
0)!
1h
0b
0J
1I
0%
1$
#327500
12
1E
1R
0"!
1`
0*!
1b
1J
1%
#330000
02
01
10
0E
0D
1C
1X
0U
0R
1"!
1~
0{
1j
0f
0`
1*!
1)!
0'!
1n
0h
0b
0J
0I
1H
0%
0$
1#
#332500
12
1E
1R
0"!
1`
0*!
1b
1J
1%
#335000
02
11
0E
1D
1U
0R
1"!
0~
1f
0`
1*!
0)!
1h
0b
0J
1I
0%
1$
#337500
12
1E
1R
0"!
1`
0*!
1b
1J
1%
#340000
02
01
00
1/
0E
0D
0C
1B
1^
0X
0U
0R
1"!
1~
1{
0z
1p
0j
0f
0`
1*!
1)!
1'!
0$!
1t
0n
0h
0b
0J
0I
0H
1G
0%
0$
0#
1"
#342500
12
1E
1R
0"!
1`
0*!
1b
1J
1%
#345000
02
11
0E
1D
1U
0R
1"!
0~
1f
0`
1*!
0)!
1h
0b
0J
1I
0%
1$
#347500
12
1E
1R
0"!
1`
0*!
1b
1J
1%
#350000
02
01
10
0E
0D
1C
1X
0U
0R
1"!
1~
0{
1j
0f
0`
1*!
1)!
0'!
1n
0h
0b
0J
0I
1H
0%
0$
1#
#352500
12
1E
1R
0"!
1`
0*!
1b
1J
1%
#355000
02
11
0E
1D
1U
0R
1"!
0~
1f
0`
1*!
0)!
1h
0b
0J
1I
0%
1$
#357500
12
1E
1R
0"!
1`
0*!
1b
1J
1%
#360000
02
01
00
0/
1,
0E
0D
0C
0B
1?
1Q
0^
0X
0U
0R
1"!
1~
1{
1z
0!!
0p
0j
0f
0`
1*!
1)!
1'!
1$!
0t
0n
0h
0b
0J
0I
0H
0G
0%
0$
0#
0"
#362500
12
1E
1R
0"!
1S
1`
0*!
1b
1M
1(
1J
1%
#365000
02
11
0E
1D
1U
0R
1"!
0~
1f
0S
1V
0`
1*!
0)!
1h
0b
1L
0M
0(
1'
0J
1I
0%
1$
#367500
12
1E
1R
0"!
1S
1`
0*!
1b
1M
1(
1J
1%
#370000
02
01
10
0E
0D
1C
1X
0U
0R
1"!
1~
0{
1j
1Y
0f
0S
0V
0`
1*!
1)!
0,!
0'!
1n
1[
0h
0b
0L
0M
0(
0'
0J
0I
1K
1H
1&
0%
0$
1#
#372500
12
1E
1R
0"!
1S
1`
0*!
1b
1M
1(
1J
1%
#375000
02
11
0E
1D
1U
0R
1"!
0~
1f
0S
1V
0`
1*!
0)!
1h
0b
1L
0M
0(
1'
0J
1I
0%
1$
#377500
12
1E
1R
0"!
1S
1`
0*!
1b
1M
1(
1J
1%
#380000
02
01
00
1/
0E
0D
0C
1B
1^
0X
0U
0R
1"!
1~
1{
0z
1p
0j
0Y
0f
0S
0V
1)!
1,!
1'!
0$!
1t
0n
0[
0h
0L
0M
0(
0'
0I
0K
0H
1G
0&
0$
0#
1"
#382500
12
1E
1R
0"!
1S
0`
1c
1*!
1d
0b
0(!
1M
1h
1(
0J
0%
1I
1$
#385000
02
11
0E
1D
1U
0R
1"!
0~
1f
0S
1V
1`
0c
0*!
0)!
0d
0h
1m
1b
1(!
1L
0M
1h
0m
1n
0(
1'
0n
1J
0I
1%
0$
1H
1I
1$
1#
0H
0#
#387500
12
1E
1R
0"!
1S
0`
1c
1*!
1d
0b
0(!
1M
0h
1m
1(
1n
0J
0%
0I
0$
1H
1#
#390000
02
01
10
0E
0D
1C
1X
0U
0R
1"!
1~
0{
1j
1Y
0f
0S
0V
1`
0c
0*!
1)!
0,!
0'!
0d
0n
1s
1[
1h
0m
1b
1(!
0L
0M
0h
1n
0s
0t
1w
0(
0'
1x
1t
0w
1J
1I
1K
0H
0x
1&
1%
1$
0#
0G
1H
0I
0$
1#
0"
1G
1F
1"
1!
0F
0!
#392500
12
1E
1R
0"!
1S
0`
1c
1*!
1d
0b
0(!
1M
1h
1(
0J
0%
1I
1$
#395000
02
11
0E
1D
1U
0R
1"!
0~
1f
0S
1V
1`
0c
0*!
0)!
0d
0h
1m
1b
1(!
1L
0M
1h
0m
0n
1s
0(
1'
0t
1w
1n
0s
1J
0I
1t
0w
1x
1%
0$
0H
1I
0x
1$
0#
1H
0G
1#
0"
1F
1G
1"
1!
0F
0!
#397500
12
1E
1R
0"!
1S
0`
1c
1*!
1d
0b
0(!
1M
0h
1m
1(
0n
1s
0J
0t
1w
0%
0I
1x
0$
0H
0#
0G
0"
1F
1!
#400000
02
01
00
0/
0,
1+
0E
0D
0C
0B
0?
1>
1T
0Q
0^
0X
0U
0R
1"!
1~
1{
1z
1!!
0}
0p
0j
0Y
0f
0S
0V
0c
1)!
1,!
1'!
1$!
0d
1t
0w
1n
0s
0[
1h
0m
1(!
0L
0M
0h
0n
0t
0x
0(
0'
1I
0K
1H
1G
0&
1$
1#
1"
0F
0G
0H
0I
0$
0#
0"
0!
#402500
12
1E
1R
0"!
1V
1`
0*!
1b
1L
1'
1J
1%
#405000
02
11
0E
1D
1U
0R
1"!
0~
1Y
1f
0V
0`
1*!
0)!
0,!
1[
1h
0b
0L
0'
0J
1I
1K
1&
0%
1$
#407500
12
1E
1R
0"!
1V
1`
0*!
1b
1L
1'
1J
1%
#410000
02
01
10
0E
0D
1C
1X
0U
0R
1"!
1~
0{
1j
0Y
1]
0f
0V
0`
1*!
1)!
0+!
1,!
0'!
1n
0[
0h
0L
0'
0I
0K
1H
0&
0$
1#
#412500
12
1E
1R
0"!
1V
1`
0*!
0b
1g
1L
1h
1'
0J
0%
1I
1$
#415000
02
11
0E
1D
1U
0R
1"!
0~
1Y
1f
0V
0`
1*!
0)!
0,!
1[
0h
1m
1b
0g
0L
1h
0m
0n
1s
0'
1t
1n
0s
1J
0I
1K
0t
1&
1%
0$
0H
1I
1$
0#
1H
1G
1#
1"
0G
0"
#417500
12
1E
1R
0"!
1V
1`
0*!
0b
1g
1L
0h
1m
1'
0n
1s
0J
1t
0%
0I
0$
0H
0#
1G
1"
#420000
02
01
00
1/
0E
0D
0C
1B
1^
0X
0U
0R
1"!
1~
1{
0z
1d
1p
0j
0Y
0]
0f
0V
0`
1*!
1)!
1+!
1,!
1'!
0$!
0(!
0t
1w
1n
0s
0[
0g
0L
1h
0m
1t
0w
1x
0'
0x
0n
0K
1H
0G
0&
1#
0"
1F
1G
1I
1$
1"
1!
0H
0F
0#
0!
#422500
12
1E
1R
0"!
1V
1`
0*!
1b
1L
1'
1J
1%
#425000
02
11
0E
1D
1U
0R
1"!
0~
1Y
1f
0V
0`
1*!
0)!
0,!
1[
0h
1m
0b
0L
1n
0'
0J
0I
1K
1&
0%
0$
1H
1#
