BME 393L/Lab 4/5_1_time_diff/simulation/qsim/time_diff.msim.vcd
$comment
	File created using the following command:
		vcd file time_diff.msim.vcd -direction
$end
$date
	Sat Feb 26 01:25:59 2022
$end
$version
	ModelSim Version 10.5b
$end
$timescale
	1ps
$end

$scope module time_diff_vhd_vec_tst $end
$var wire 1 ! CLOCK_50_B5B $end
$var wire 1 " hex0 [6] $end
$var wire 1 # hex0 [5] $end
$var wire 1 $ hex0 [4] $end
$var wire 1 % hex0 [3] $end
$var wire 1 & hex0 [2] $end
$var wire 1 ' hex0 [1] $end
$var wire 1 ( hex0 [0] $end
$var wire 1 ) hex1 [6] $end
$var wire 1 * hex1 [5] $end
$var wire 1 + hex1 [4] $end
$var wire 1 , hex1 [3] $end
$var wire 1 - hex1 [2] $end
$var wire 1 . hex1 [1] $end
$var wire 1 / hex1 [0] $end
$var wire 1 0 hex2 [6] $end
$var wire 1 1 hex2 [5] $end
$var wire 1 2 hex2 [4] $end
$var wire 1 3 hex2 [3] $end
$var wire 1 4 hex2 [2] $end
$var wire 1 5 hex2 [1] $end
$var wire 1 6 hex2 [0] $end
$var wire 1 7 hex3 [6] $end
$var wire 1 8 hex3 [5] $end
$var wire 1 9 hex3 [4] $end
$var wire 1 : hex3 [3] $end
$var wire 1 ; hex3 [2] $end
$var wire 1 < hex3 [1] $end
$var wire 1 = hex3 [0] $end
$var wire 1 > KEY [1] $end
$var wire 1 ? KEY [0] $end

$scope module i1 $end
$var wire 1 @ gnd $end
$var wire 1 A vcc $end
$var wire 1 B unknown $end
$var wire 1 C devoe $end
$var wire 1 D devclrn $end
$var wire 1 E devpor $end
$var wire 1 F ww_devoe $end
$var wire 1 G ww_devclrn $end
$var wire 1 H ww_devpor $end
$var wire 1 I ww_CLOCK_50_B5B $end
$var wire 1 J ww_KEY [1] $end
$var wire 1 K ww_KEY [0] $end
$var wire 1 L ww_hex3 [6] $end
$var wire 1 M ww_hex3 [5] $end
$var wire 1 N ww_hex3 [4] $end
$var wire 1 O ww_hex3 [3] $end
$var wire 1 P ww_hex3 [2] $end
$var wire 1 Q ww_hex3 [1] $end
$var wire 1 R ww_hex3 [0] $end
$var wire 1 S ww_hex2 [6] $end
$var wire 1 T ww_hex2 [5] $end
$var wire 1 U ww_hex2 [4] $end
$var wire 1 V ww_hex2 [3] $end
$var wire 1 W ww_hex2 [2] $end
$var wire 1 X ww_hex2 [1] $end
$var wire 1 Y ww_hex2 [0] $end
$var wire 1 Z ww_hex1 [6] $end
$var wire 1 [ ww_hex1 [5] $end
$var wire 1 \ ww_hex1 [4] $end
$var wire 1 ] ww_hex1 [3] $end
$var wire 1 ^ ww_hex1 [2] $end
$var wire 1 _ ww_hex1 [1] $end
$var wire 1 ` ww_hex1 [0] $end
$var wire 1 a ww_hex0 [6] $end
$var wire 1 b ww_hex0 [5] $end
$var wire 1 c ww_hex0 [4] $end
$var wire 1 d ww_hex0 [3] $end
$var wire 1 e ww_hex0 [2] $end
$var wire 1 f ww_hex0 [1] $end
$var wire 1 g ww_hex0 [0] $end
$var wire 1 h \~QUARTUS_CREATED_GND~I_combout\ $end
$var wire 1 i \CLOCK_50_B5B~input_o\ $end
$var wire 1 j \CLOCK_50_B5B~inputCLKENA0_outclk\ $end
$var wire 1 k \Add0~49_sumout\ $end
$var wire 1 l \KEY[0]~input_o\ $end
$var wire 1 m \KEY[1]~input_o\ $end
$var wire 1 n \divider~0_combout\ $end
$var wire 1 o \Add0~50\ $end
$var wire 1 p \Add0~53_sumout\ $end
$var wire 1 q \Add0~54\ $end
$var wire 1 r \Add0~57_sumout\ $end
$var wire 1 s \Add0~58\ $end
$var wire 1 t \Add0~61_sumout\ $end
$var wire 1 u \Add0~62\ $end
$var wire 1 v \Add0~33_sumout\ $end
$var wire 1 w \Add0~34\ $end
$var wire 1 x \Add0~37_sumout\ $end
$var wire 1 y \Add0~38\ $end
$var wire 1 z \Add0~41_sumout\ $end
$var wire 1 { \Add0~42\ $end
$var wire 1 | \Add0~45_sumout\ $end
$var wire 1 } \Add0~46\ $end
$var wire 1 ~ \Add0~17_sumout\ $end
$var wire 1 !! \Add0~18\ $end
$var wire 1 "! \Add0~21_sumout\ $end
$var wire 1 #! \Add0~22\ $end
$var wire 1 $! \Add0~25_sumout\ $end
$var wire 1 %! \Add0~26\ $end
$var wire 1 &! \Add0~29_sumout\ $end
$var wire 1 '! \Add0~30\ $end
$var wire 1 (! \Add0~1_sumout\ $end
$var wire 1 )! \Add0~2\ $end
$var wire 1 *! \Add0~5_sumout\ $end
$var wire 1 +! \Add0~6\ $end
$var wire 1 ,! \Add0~9_sumout\ $end
$var wire 1 -! \Add0~10\ $end
$var wire 1 .! \Add0~13_sumout\ $end
$var wire 1 /! \hex3_inst|Mux6~0_combout\ $end
$var wire 1 0! \hex3_inst|Mux5~0_combout\ $end
$var wire 1 1! \hex3_inst|Mux4~0_combout\ $end
$var wire 1 2! \hex3_inst|Mux3~0_combout\ $end
$var wire 1 3! \hex3_inst|Mux2~0_combout\ $end
$var wire 1 4! \hex3_inst|Mux1~0_combout\ $end
$var wire 1 5! \hex3_inst|Mux0~0_combout\ $end
$var wire 1 6! \hex2_inst|Mux6~0_combout\ $end
$var wire 1 7! \hex2_inst|Mux5~0_combout\ $end
$var wire 1 8! \hex2_inst|Mux4~0_combout\ $end
$var wire 1 9! \hex2_inst|Mux3~0_combout\ $end
$var wire 1 :! \hex2_inst|Mux2~0_combout\ $end
$var wire 1 ;! \hex2_inst|Mux1~0_combout\ $end
$var wire 1 <! \hex2_inst|Mux0~0_combout\ $end
$var wire 1 =! \hex1_inst|Mux6~0_combout\ $end
$var wire 1 >! \hex1_inst|Mux5~0_combout\ $end
$var wire 1 ?! \hex1_inst|Mux4~0_combout\ $end
$var wire 1 @! \hex1_inst|Mux3~0_combout\ $end
$var wire 1 A! \hex1_inst|Mux2~0_combout\ $end
$var wire 1 B! \hex1_inst|Mux1~0_combout\ $end
$var wire 1 C! \hex1_inst|Mux0~0_combout\ $end
$var wire 1 D! \hex0_inst|Mux6~0_combout\ $end
$var wire 1 E! \hex0_inst|Mux5~0_combout\ $end
$var wire 1 F! \hex0_inst|Mux4~0_combout\ $end
$var wire 1 G! \hex0_inst|Mux3~0_combout\ $end
$var wire 1 H! \hex0_inst|Mux2~0_combout\ $end
$var wire 1 I! \hex0_inst|Mux1~0_combout\ $end
$var wire 1 J! \hex0_inst|Mux0~0_combout\ $end
$var wire 1 K! clock [30] $end
$var wire 1 L! clock [29] $end
$var wire 1 M! clock [28] $end
$var wire 1 N! clock [27] $end
$var wire 1 O! clock [26] $end
$var wire 1 P! clock [25] $end
$var wire 1 Q! clock [24] $end
$var wire 1 R! clock [23] $end
$var wire 1 S! clock [22] $end
$var wire 1 T! clock [21] $end
$var wire 1 U! clock [20] $end
$var wire 1 V! clock [19] $end
$var wire 1 W! clock [18] $end
$var wire 1 X! clock [17] $end
$var wire 1 Y! clock [16] $end
$var wire 1 Z! clock [15] $end
$var wire 1 [! clock [14] $end
$var wire 1 \! clock [13] $end
$var wire 1 ]! clock [12] $end
$var wire 1 ^! clock [11] $end
$var wire 1 _! clock [10] $end
$var wire 1 `! clock [9] $end
$var wire 1 a! clock [8] $end
$var wire 1 b! clock [7] $end
$var wire 1 c! clock [6] $end
$var wire 1 d! clock [5] $end
$var wire 1 e! clock [4] $end
$var wire 1 f! clock [3] $end
$var wire 1 g! clock [2] $end
$var wire 1 h! clock [1] $end
$var wire 1 i! clock [0] $end
$var wire 1 j! diff [15] $end
$var wire 1 k! diff [14] $end
$var wire 1 l! diff [13] $end
$var wire 1 m! diff [12] $end
$var wire 1 n! diff [11] $end
$var wire 1 o! diff [10] $end
$var wire 1 p! diff [9] $end
$var wire 1 q! diff [8] $end
$var wire 1 r! diff [7] $end
$var wire 1 s! diff [6] $end
$var wire 1 t! diff [5] $end
$var wire 1 u! diff [4] $end
$var wire 1 v! diff [3] $end
$var wire 1 w! diff [2] $end
$var wire 1 x! diff [1] $end
$var wire 1 y! diff [0] $end
$var wire 1 z! \ALT_INV_KEY[1]~input_o\ $end
$var wire 1 {! \ALT_INV_KEY[0]~input_o\ $end
$var wire 1 |! \hex0_inst|ALT_INV_Mux0~0_combout\ $end
$var wire 1 }! ALT_INV_diff [15] $end
$var wire 1 ~! ALT_INV_diff [14] $end
$var wire 1 !" ALT_INV_diff [13] $end
$var wire 1 "" ALT_INV_diff [12] $end
$var wire 1 #" ALT_INV_diff [11] $end
$var wire 1 $" ALT_INV_diff [10] $end
$var wire 1 %" ALT_INV_diff [9] $end
$var wire 1 &" ALT_INV_diff [8] $end
$var wire 1 '" ALT_INV_diff [7] $end
$var wire 1 (" ALT_INV_diff [6] $end
$var wire 1 )" ALT_INV_diff [5] $end
$var wire 1 *" ALT_INV_diff [4] $end
$var wire 1 +" ALT_INV_diff [3] $end
$var wire 1 ," ALT_INV_diff [2] $end
$var wire 1 -" ALT_INV_diff [1] $end
$var wire 1 ." ALT_INV_diff [0] $end
$var wire 1 /" \hex1_inst|ALT_INV_Mux0~0_combout\ $end
$var wire 1 0" \hex2_inst|ALT_INV_Mux0~0_combout\ $end
$var wire 1 1" \hex3_inst|ALT_INV_Mux0~0_combout\ $end
$var wire 1 2" ALT_INV_clock [15] $end
$var wire 1 3" ALT_INV_clock [14] $end
$var wire 1 4" ALT_INV_clock [13] $end
$var wire 1 5" ALT_INV_clock [12] $end
$var wire 1 6" ALT_INV_clock [11] $end
$var wire 1 7" ALT_INV_clock [10] $end
$var wire 1 8" ALT_INV_clock [9] $end
$var wire 1 9" ALT_INV_clock [8] $end
$var wire 1 :" ALT_INV_clock [7] $end
$var wire 1 ;" ALT_INV_clock [6] $end
$var wire 1 <" ALT_INV_clock [5] $end
$var wire 1 =" ALT_INV_clock [4] $end
$var wire 1 >" ALT_INV_clock [3] $end
$var wire 1 ?" ALT_INV_clock [2] $end
$var wire 1 @" ALT_INV_clock [1] $end
$var wire 1 A" ALT_INV_clock [0] $end
$upscope $end
$upscope $end
$enddefinitions $end
#0
$dumpvars
0!
0@
1A
xB
1C
1D
1E
1F
1G
1H
0I
xh
0i
0j
1k
0l
0m
1n
0o
0p
0q
0r
0s
0t
0u
0v
0w
0x
0y
0z
0{
0|
0}
0~
0!!
0"!
0#!
0$!
0%!
0&!
0'!
0(!
0)!
0*!
0+!
0,!
0-!
0.!
0/!
00!
01!
02!
03!
04!
05!
06!
07!
08!
09!
0:!
0;!
0<!
0=!
0>!
0?!
0@!
0A!
0B!
0C!
0D!
0E!
0F!
0G!
0H!
0I!
0J!
1z!
1{!
1|!
1/"
10"
11"
0>
0?
0J
0K
1L
0M
0N
0O
0P
0Q
0R
1S
0T
0U
0V
0W
0X
0Y
1Z
0[
0\
0]
0^
0_
0`
1a
0b
0c
0d
0e
0f
0g
xK!
xL!
xM!
xN!
xO!
xP!
xQ!
xR!
xS!
xT!
xU!
xV!
xW!
xX!
xY!
0Z!
0[!
0\!
0]!
0^!
0_!
0`!
0a!
0b!
0c!
0d!
0e!
0f!
0g!
0h!
0i!
0j!
0k!
0l!
0m!
0n!
0o!
0p!
0q!
0r!
0s!
0t!
0u!
0v!
0w!
0x!
0y!
1}!
1~!
1!"
1""
1#"
1$"
1%"
1&"
1'"
1("
1)"
1*"
1+"
1,"
1-"
1."
12"
13"
14"
15"
16"
17"
18"
19"
1:"
1;"
1<"
1="
1>"
1?"
1@"
1A"
1"
0#
0$
0%
0&
0'
0(
1)
0*
0+
0,
0-
0.
0/
10
01
02
03
04
05
06
17
08
09
0:
0;
0<
0=
$end
#5000
1!
1I
1i
1j
#10000
0!
0I
0i
0j
#15000
1!
1I
1i
1j
#20000
0!
0I
0i
0j
#25000
1!
1I
1i
1j
#30000
0!
0I
0i
0j
#35000
1!
1I
1i
1j
#40000
0!
0I
0i
0j
#45000
1!
1I
1i
1j
#50000
0!
0I
0i
0j
#55000
1!
1I
1i
1j
#60000
0!
0I
0i
0j
#65000
1!
1I
1i
1j
#70000
0!
0I
0i
0j
#75000
1!
1?
1I
1K
1l
1i
1j
0{!
0n
#80000
0!
0I
0i
0j
#85000
1!
1I
1i
1j
1i!
0A"
0k
1o
1p
#90000
0!
0I
0i
0j
#95000
1!
1I
1i
1j
0i!
1h!
0@"
1A"
1k
0o
0p
1q
1r
1p
0q
0r
#100000
0!
0I
0i
0j
#105000
1!
1I
1i
1j
1i!
0A"
0k
1o
0p
1q
1r
#110000
0!
0I
0i
0j
#115000
1!
1I
1i
1j
0i!
0h!
1g!
0?"
1@"
1A"
1k
0o
1p
0q
0r
1s
1t
1r
0s
0p
0t
#120000
0!
0I
0i
0j
#125000
1!
1>
1I
1J
1m
1i
1j
0z!
1n
1i!
0A"
0k
1o
1p
#130000
0!
0I
0i
0j
#135000
1!
1I
1i
1j
0i!
0g!
1y!
1w!
0,"
0."
1?"
1A"
1k
0o
0r
1E!
1H!
1J!
0|!
0p
1c
1f
0a
1'
1$
0"
#140000
0!
0I
0i
0j
#145000
1!
1I
1i
1j
0y!
0w!
1,"
1."
0E!
0H!
0J!
1|!
0c
0f
1a
0'
0$
1"
#150000
0!
0?
0I
0K
0l
0i
0j
1{!
0n
#155000
1!
1I
1i
1j
1i!
0A"
0k
1o
1p
#160000
0!
0I
0i
0j
#165000
1!
1I
1i
1j
0i!
1h!
0@"
1A"
1k
0o
0p
1q
1r
1p
0q
0r
#170000
0!
0I
0i
0j
#175000
1!
1I
1i
1j
1i!
0A"
0k
1o
0p
1q
1r
#180000
0!
0I
0i
0j
#185000
1!
1I
1i
1j
0i!
0h!
1g!
0?"
1@"
1A"
1k
0o
1p
0q
0r
1s
1t
1r
0s
0p
0t
#190000
0!
0I
0i
0j
#195000
1!
1I
1i
1j
1i!
0A"
0k
1o
1p
#200000
0!
0I
0i
0j
#205000
1!
1I
1i
1j
0i!
1h!
0@"
1A"
1k
0o
0p
1q
0r
1s
1p
0q
1r
0s
1t
0t
#210000
0!
0I
0i
0j
#215000
1!
1I
1i
1j
1i!
0A"
0k
1o
0p
1q
0r
1s
1t
#220000
0!
0I
0i
0j
#225000
1!
1?
1I
1K
1l
1i
1j
0{!
1n
0i!
0h!
0g!
1f!
0>"
1?"
1@"
1A"
1k
0o
1p
0q
1r
0s
0t
1u
1v
1t
0u
0r
0p
0v
#230000
0!
0I
0i
0j
#235000
1!
1I
1i
1j
0f!
1v!
0+"
1>"
0t
1J!
0|!
0a
0"
#240000
0!
0I
0i
0j
#245000
1!
1I
1i
1j
0v!
1+"
0J!
1|!
1a
1"
#250000
0!
0>
0I
0J
0m
0i
0j
1z!
0n
#255000
1!
1I
1i
1j
1i!
0A"
0k
1o
1p
#260000
0!
0I
0i
0j
#265000
1!
1I
1i
1j
0i!
1h!
0@"
1A"
1k
0o
0p
1q
1r
1p
0q
0r
#270000
0!
0I
0i
0j
#275000
1!
1I
1i
1j
1i!
0A"
0k
1o
0p
1q
1r
#280000
0!
0I
0i
0j
#285000
1!
1I
1i
1j
0i!
0h!
1g!
0?"
1@"
1A"
1k
0o
1p
0q
0r
1s
1t
1r
0s
0p
0t
#290000
0!
0I
0i
0j
#295000
1!
1I
1i
1j
1i!
0A"
0k
1o
1p
#300000
0!
0?
0I
0K
0l
0i
0j
1{!
1n
#305000
1!
1I
1i
1j
0i!
0g!
1y!
1w!
0,"
0."
1?"
1A"
1k
0o
0r
1E!
1H!
1J!
0|!
0p
1c
1f
0a
1'
1$
0"
#310000
0!
0I
0i
0j
#315000
1!
1I
1i
1j
0y!
0w!
1,"
1."
0E!
0H!
0J!
1|!
0c
0f
1a
0'
0$
1"
#320000
0!
0I
0i
0j
#325000
1!
1I
1i
1j
#330000
0!
0I
0i
0j
#335000
1!
1I
1i
1j
#340000
0!
0I
0i
0j
#345000
1!
1I
1i
1j
#350000
0!
0I
0i
0j
#355000
1!
1I
1i
1j
#360000
0!
0I
0i
0j
#365000
1!
1I
1i
1j
#370000
0!
0I
0i
0j
#375000
1!
1?
1>
1I
1K
1J
1m
1l
1i
1j
0{!
0z!
#380000
0!
0I
0i
0j
#385000
1!
1I
1i
1j
#390000
0!
0I
0i
0j
#395000
1!
1I
1i
1j
#400000
0!
0I
0i
0j
#405000
1!
1I
1i
1j
#410000
0!
0I
0i
0j
#415000
1!
1I
1i
1j
#420000
0!
0I
0i
0j
#425000
1!
1I
1i
1j
#430000
0!
0I
0i
0j
#435000
1!
1I
1i
1j
#440000
0!
0I
0i
0j
#445000
1!
1I
1i
1j
#450000
0!
0?
0I
0K
0l
0i
0j
1{!
0n
#455000
1!
1I
1i
1j
1i!
0A"
0k
1o
1p
#460000
0!
0I
0i
0j
#465000
1!
1I
1i
1j
0i!
1h!
0@"
1A"
1k
0o
0p
1q
1r
1p
0q
0r
#470000
0!
0I
0i
0j
#475000
1!
1I
1i
1j
1i!
0A"
0k
1o
0p
1q
1r
#480000
0!
0I
0i
0j
#485000
1!
1I
1i
1j
0i!
0h!
1g!
0?"
1@"
1A"
1k
0o
1p
0q
0r
1s
1t
1r
0s
0p
0t
#490000
0!
0I
0i
0j
#495000
1!
1I
1i
1j
1i!
0A"
0k
1o
1p
#500000
0!
0>
0I
0J
0m
0i
0j
1z!
1n
#505000
1!
1I
1i
1j
0i!
0g!
1y!
1w!
0,"
0."
1?"
1A"
1k
0o
0r
1E!
1H!
1J!
0|!
0p
1c
1f
0a
1'
1$
0"
#510000
0!
0I
0i
0j
#515000
1!
1I
1i
1j
0y!
0w!
1,"
1."
0E!
0H!
0J!
1|!
0c
0f
1a
0'
0$
1"
#520000
0!
0I
0i
0j
#525000
1!
1?
1I
1K
1l
1i
1j
0{!
0n
#530000
0!
0I
0i
0j
#535000
1!
1I
1i
1j
1i!
0A"
0k
1o
1p
#540000
0!
0I
0i
0j
#545000
1!
1I
1i
1j
0i!
1h!
0@"
1A"
1k
0o
0p
1q
1r
1p
0q
0r
#550000
0!
0I
0i
0j
#555000
1!
1I
1i
1j
1i!
0A"
0k
1o
0p
1q
1r
#560000
0!
0I
0i
0j
#565000
1!
1I
1i
1j
0i!
0h!
1g!
0?"
1@"
1A"
1k
0o
1p
0q
0r
1s
1t
1r
0s
0p
0t
#570000
0!
0I
0i
0j
#575000
1!
1I
1i
1j
1i!
0A"
0k
1o
1p
#580000
0!
0I
0i
0j
#585000
1!
1I
1i
1j
0i!
1h!
0@"
1A"
1k
0o
0p
1q
0r
1s
1p
0q
1r
0s
1t
0t
#590000
0!
0I
0i
0j
#595000
1!
1I
1i
1j
1i!
0A"
0k
1o
0p
1q
0r
1s
1t
#600000
0!
0?
0I
0K
0l
0i
0j
1{!
1n
#605000
1!
1I
1i
1j
0i!
0h!
0g!
1y!
1x!
1w!
0,"
0-"
0."
1?"
1@"
1A"
1k
0o
1p
0q
1r
0s
1G!
1H!
1I!
0t
0r
0p
1b
1c
1d
1%
1$
1#
#610000
0!
0I
0i
0j
#615000
1!
1I
1i
1j
0y!
0x!
0w!
1,"
1-"
1."
0G!
0H!
0I!
0b
0c
0d
0%
0$
0#
#620000
0!
0I
0i
0j
#625000
1!
1>
1I
1J
1m
1i
1j
0z!
0n
#630000
0!
0I
0i
0j
#635000
1!
1I
1i
1j
1i!
0A"
0k
1o
1p
#640000
0!
0I
0i
0j
#645000
1!
1I
1i
1j
0i!
1h!
0@"
1A"
1k
0o
0p
1q
1r
1p
0q
0r
#650000
0!
0I
0i
0j
#655000
1!
1I
1i
1j
1i!
0A"
0k
1o
0p
1q
1r
#660000
0!
0I
0i
0j
#665000
1!
1I
1i
1j
0i!
0h!
1g!
0?"
1@"
1A"
1k
0o
1p
0q
0r
1s
1t
1r
0s
0p
0t
#670000
0!
0I
0i
0j
#675000
1!
1?
1I
1K
1l
1i
1j
0{!
1n
1i!
0A"
0k
1o
1p
#680000
0!
0I
0i
0j
#685000
1!
1I
1i
1j
0i!
0g!
1y!
1w!
0,"
0."
1?"
1A"
1k
0o
0r
1E!
1H!
1J!
0|!
0p
1c
1f
0a
1'
1$
0"
#690000
0!
0I
0i
0j
#695000
1!
1I
1i
1j
0y!
0w!
1,"
1."
0E!
0H!
0J!
1|!
0c
0f
1a
0'
0$
1"
#700000
0!
0I
0i
0j
#705000
1!
1I
1i
1j
#710000
0!
0I
0i
0j
#715000
1!
1I
1i
1j
#720000
0!
0I
0i
0j
#725000
1!
1I
1i
1j
#730000
0!
0I
0i
0j
#735000
1!
1I
1i
1j
#740000
0!
0I
0i
0j
#745000
1!
1I
1i
1j
#750000
0!
0?
0>
0I
0K
0J
0m
0l
0i
0j
1{!
1z!
#755000
1!
1I
1i
1j
#760000
0!
0I
0i
0j
#765000
1!
1I
1i
1j
#770000
0!
0I
0i
0j
#775000
1!
1I
1i
1j
#780000
0!
0I
0i
0j
#785000
1!
1I
1i
1j
#790000
0!
0I
0i
0j
#795000
1!
1I
1i
1j
#800000
0!
0I
0i
0j
#805000
1!
1I
1i
1j
#810000
0!
0I
0i
0j
#815000
1!
1I
1i
1j
#820000
0!
0I
0i
0j
#825000
1!
1?
1I
1K
1l
1i
1j
0{!
0n
#830000
0!
0I
0i
0j
#835000
1!
1I
1i
1j
1i!
0A"
0k
1o
1p
#840000
0!
0I
0i
0j
#845000
1!
1I
1i
1j
0i!
1h!
0@"
1A"
1k
0o
0p
1q
1r
1p
0q
0r
#850000
0!
0I
0i
0j
#855000
1!
1I
1i
1j
1i!
0A"
0k
1o
0p
1q
1r
#860000
0!
0I
0i
0j
#865000
1!
1I
1i
1j
0i!
0h!
1g!
0?"
1@"
1A"
1k
0o
1p
0q
0r
1s
1t
1r
0s
0p
0t
#870000
0!
0I
0i
0j
#875000
1!
1>
1I
1J
1m
1i
1j
0z!
1n
1i!
0A"
0k
1o
1p
#880000
0!
0I
0i
0j
#885000
1!
1I
1i
1j
0i!
0g!
1y!
1w!
0,"
0."
1?"
1A"
1k
0o
0r
1E!
1H!
1J!
0|!
0p
1c
1f
0a
1'
1$
0"
#890000
0!
0I
0i
0j
#895000
1!
1I
1i
1j
0y!
0w!
1,"
1."
0E!
0H!
0J!
1|!
0c
0f
1a
0'
0$
1"
#900000
0!
0?
0I
0K
0l
0i
0j
1{!
0n
#905000
1!
1I
1i
1j
1i!
0A"
0k
1o
1p
#910000
0!
0I
0i
0j
#915000
1!
1I
1i
1j
0i!
1h!
0@"
1A"
1k
0o
0p
1q
1r
1p
0q
0r
#920000
0!
0I
0i
0j
#925000
1!
1I
1i
1j
1i!
0A"
0k
1o
0p
1q
1r
#930000
0!
0I
0i
0j
#935000
1!
1I
1i
1j
0i!
0h!
1g!
0?"
1@"
1A"
1k
0o
1p
0q
0r
1s
1t
1r
0s
0p
0t
#940000
0!
0I
0i
0j
#945000
1!
1I
1i
1j
1i!
0A"
0k
1o
1p
#950000
0!
0I
0i
0j
#955000
1!
1I
1i
1j
0i!
1h!
0@"
1A"
1k
0o
0p
1q
0r
1s
1p
0q
1r
0s
1t
0t
#960000
0!
0I
0i
0j
#965000
1!
1I
1i
1j
1i!
0A"
0k
1o
0p
1q
0r
1s
1t
#970000
0!
0I
0i
0j
#975000
1!
1?
1I
1K
1l
1i
1j
0{!
1n
0i!
0h!
0g!
1f!
0>"
1?"
1@"
1A"
1k
0o
1p
0q
1r
0s
0t
1u
1v
1t
0u
0r
0p
0v
#980000
0!
0I
0i
0j
#985000
1!
1I
1i
1j
0f!
1v!
0+"
1>"
0t
1J!
0|!
0a
0"
#990000
0!
0I
0i
0j
#995000
1!
1I
1i
1j
0v!
1+"
0J!
1|!
1a
1"
