BME 393L/Lab 4/5_1_time_diff/simulation/qsim/time_diff.msim.vcd
$comment
	File created using the following command:
		vcd file time_diff.msim.vcd -direction
$end
$date
	Thu Mar 03 10:59:33 2022
$end
$version
	ModelSim Version 10.5b
$end
$timescale
	1ps
$end

$scope module time_diff_vhd_vec_tst $end
$var wire 1 ! CLOCK_50_B5B $end
$var wire 1 " hex0 [6] $end
$var wire 1 # hex0 [5] $end
$var wire 1 $ hex0 [4] $end
$var wire 1 % hex0 [3] $end
$var wire 1 & hex0 [2] $end
$var wire 1 ' hex0 [1] $end
$var wire 1 ( hex0 [0] $end
$var wire 1 ) hex1 [6] $end
$var wire 1 * hex1 [5] $end
$var wire 1 + hex1 [4] $end
$var wire 1 , hex1 [3] $end
$var wire 1 - hex1 [2] $end
$var wire 1 . hex1 [1] $end
$var wire 1 / hex1 [0] $end
$var wire 1 0 hex2 [6] $end
$var wire 1 1 hex2 [5] $end
$var wire 1 2 hex2 [4] $end
$var wire 1 3 hex2 [3] $end
$var wire 1 4 hex2 [2] $end
$var wire 1 5 hex2 [1] $end
$var wire 1 6 hex2 [0] $end
$var wire 1 7 hex3 [6] $end
$var wire 1 8 hex3 [5] $end
$var wire 1 9 hex3 [4] $end
$var wire 1 : hex3 [3] $end
$var wire 1 ; hex3 [2] $end
$var wire 1 < hex3 [1] $end
$var wire 1 = hex3 [0] $end
$var wire 1 > KEY [3] $end
$var wire 1 ? KEY [2] $end
$var wire 1 @ KEY [1] $end
$var wire 1 A KEY [0] $end

$scope module i1 $end
$var wire 1 B gnd $end
$var wire 1 C vcc $end
$var wire 1 D unknown $end
$var wire 1 E devoe $end
$var wire 1 F devclrn $end
$var wire 1 G devpor $end
$var wire 1 H ww_devoe $end
$var wire 1 I ww_devclrn $end
$var wire 1 J ww_devpor $end
$var wire 1 K ww_CLOCK_50_B5B $end
$var wire 1 L ww_KEY [3] $end
$var wire 1 M ww_KEY [2] $end
$var wire 1 N ww_KEY [1] $end
$var wire 1 O ww_KEY [0] $end
$var wire 1 P ww_hex3 [6] $end
$var wire 1 Q ww_hex3 [5] $end
$var wire 1 R ww_hex3 [4] $end
$var wire 1 S ww_hex3 [3] $end
$var wire 1 T ww_hex3 [2] $end
$var wire 1 U ww_hex3 [1] $end
$var wire 1 V ww_hex3 [0] $end
$var wire 1 W ww_hex2 [6] $end
$var wire 1 X ww_hex2 [5] $end
$var wire 1 Y ww_hex2 [4] $end
$var wire 1 Z ww_hex2 [3] $end
$var wire 1 [ ww_hex2 [2] $end
$var wire 1 \ ww_hex2 [1] $end
$var wire 1 ] ww_hex2 [0] $end
$var wire 1 ^ ww_hex1 [6] $end
$var wire 1 _ ww_hex1 [5] $end
$var wire 1 ` ww_hex1 [4] $end
$var wire 1 a ww_hex1 [3] $end
$var wire 1 b ww_hex1 [2] $end
$var wire 1 c ww_hex1 [1] $end
$var wire 1 d ww_hex1 [0] $end
$var wire 1 e ww_hex0 [6] $end
$var wire 1 f ww_hex0 [5] $end
$var wire 1 g ww_hex0 [4] $end
$var wire 1 h ww_hex0 [3] $end
$var wire 1 i ww_hex0 [2] $end
$var wire 1 j ww_hex0 [1] $end
$var wire 1 k ww_hex0 [0] $end
$var wire 1 l \KEY[2]~input_o\ $end
$var wire 1 m \~QUARTUS_CREATED_GND~I_combout\ $end
$var wire 1 n \CLOCK_50_B5B~input_o\ $end
$var wire 1 o \CLOCK_50_B5B~inputCLKENA0_outclk\ $end
$var wire 1 p \Add0~49_sumout\ $end
$var wire 1 q \KEY[0]~input_o\ $end
$var wire 1 r \KEY[1]~input_o\ $end
$var wire 1 s \process_0~0_combout\ $end
$var wire 1 t \Add0~50\ $end
$var wire 1 u \Add0~53_sumout\ $end
$var wire 1 v \Add0~54\ $end
$var wire 1 w \Add0~57_sumout\ $end
$var wire 1 x \Add0~58\ $end
$var wire 1 y \Add0~61_sumout\ $end
$var wire 1 z \Add0~62\ $end
$var wire 1 { \Add0~33_sumout\ $end
$var wire 1 | \Add0~34\ $end
$var wire 1 } \Add0~37_sumout\ $end
$var wire 1 ~ \Add0~38\ $end
$var wire 1 !! \Add0~41_sumout\ $end
$var wire 1 "! \Add0~42\ $end
$var wire 1 #! \Add0~45_sumout\ $end
$var wire 1 $! \Add0~46\ $end
$var wire 1 %! \Add0~17_sumout\ $end
$var wire 1 &! \Add0~18\ $end
$var wire 1 '! \Add0~21_sumout\ $end
$var wire 1 (! \Add0~22\ $end
$var wire 1 )! \Add0~25_sumout\ $end
$var wire 1 *! \Add0~26\ $end
$var wire 1 +! \Add0~29_sumout\ $end
$var wire 1 ,! \Add0~30\ $end
$var wire 1 -! \Add0~1_sumout\ $end
$var wire 1 .! \Add0~2\ $end
$var wire 1 /! \Add0~5_sumout\ $end
$var wire 1 0! \Add0~6\ $end
$var wire 1 1! \Add0~9_sumout\ $end
$var wire 1 2! \Add0~10\ $end
$var wire 1 3! \Add0~13_sumout\ $end
$var wire 1 4! \KEY[3]~input_o\ $end
$var wire 1 5! \diff[14]~feeder_combout\ $end
$var wire 1 6! \diff[13]~feeder_combout\ $end
$var wire 1 7! \hex3_inst|Mux6~0_combout\ $end
$var wire 1 8! \hex3_inst|Mux5~0_combout\ $end
$var wire 1 9! \hex3_inst|Mux4~0_combout\ $end
$var wire 1 :! \hex3_inst|Mux3~0_combout\ $end
$var wire 1 ;! \hex3_inst|Mux2~0_combout\ $end
$var wire 1 <! \hex3_inst|Mux1~0_combout\ $end
$var wire 1 =! \hex3_inst|Mux0~0_combout\ $end
$var wire 1 >! \hex2_inst|Mux6~0_combout\ $end
$var wire 1 ?! \hex2_inst|Mux5~0_combout\ $end
$var wire 1 @! \hex2_inst|Mux4~0_combout\ $end
$var wire 1 A! \hex2_inst|Mux3~0_combout\ $end
$var wire 1 B! \hex2_inst|Mux2~0_combout\ $end
$var wire 1 C! \hex2_inst|Mux1~0_combout\ $end
$var wire 1 D! \hex2_inst|Mux0~0_combout\ $end
$var wire 1 E! \hex1_inst|Mux6~0_combout\ $end
$var wire 1 F! \hex1_inst|Mux5~0_combout\ $end
$var wire 1 G! \hex1_inst|Mux4~0_combout\ $end
$var wire 1 H! \hex1_inst|Mux3~0_combout\ $end
$var wire 1 I! \hex1_inst|Mux2~0_combout\ $end
$var wire 1 J! \hex1_inst|Mux1~0_combout\ $end
$var wire 1 K! \hex1_inst|Mux0~0_combout\ $end
$var wire 1 L! \hex0_inst|Mux6~0_combout\ $end
$var wire 1 M! \hex0_inst|Mux5~0_combout\ $end
$var wire 1 N! \hex0_inst|Mux4~0_combout\ $end
$var wire 1 O! \hex0_inst|Mux3~0_combout\ $end
$var wire 1 P! \hex0_inst|Mux2~0_combout\ $end
$var wire 1 Q! \hex0_inst|Mux1~0_combout\ $end
$var wire 1 R! \hex0_inst|Mux0~0_combout\ $end
$var wire 1 S! diff [15] $end
$var wire 1 T! diff [14] $end
$var wire 1 U! diff [13] $end
$var wire 1 V! diff [12] $end
$var wire 1 W! diff [11] $end
$var wire 1 X! diff [10] $end
$var wire 1 Y! diff [9] $end
$var wire 1 Z! diff [8] $end
$var wire 1 [! diff [7] $end
$var wire 1 \! diff [6] $end
$var wire 1 ]! diff [5] $end
$var wire 1 ^! diff [4] $end
$var wire 1 _! diff [3] $end
$var wire 1 `! diff [2] $end
$var wire 1 a! diff [1] $end
$var wire 1 b! diff [0] $end
$var wire 1 c! clock [30] $end
$var wire 1 d! clock [29] $end
$var wire 1 e! clock [28] $end
$var wire 1 f! clock [27] $end
$var wire 1 g! clock [26] $end
$var wire 1 h! clock [25] $end
$var wire 1 i! clock [24] $end
$var wire 1 j! clock [23] $end
$var wire 1 k! clock [22] $end
$var wire 1 l! clock [21] $end
$var wire 1 m! clock [20] $end
$var wire 1 n! clock [19] $end
$var wire 1 o! clock [18] $end
$var wire 1 p! clock [17] $end
$var wire 1 q! clock [16] $end
$var wire 1 r! clock [15] $end
$var wire 1 s! clock [14] $end
$var wire 1 t! clock [13] $end
$var wire 1 u! clock [12] $end
$var wire 1 v! clock [11] $end
$var wire 1 w! clock [10] $end
$var wire 1 x! clock [9] $end
$var wire 1 y! clock [8] $end
$var wire 1 z! clock [7] $end
$var wire 1 {! clock [6] $end
$var wire 1 |! clock [5] $end
$var wire 1 }! clock [4] $end
$var wire 1 ~! clock [3] $end
$var wire 1 !" clock [2] $end
$var wire 1 "" clock [1] $end
$var wire 1 #" clock [0] $end
$var wire 1 $" \ALT_INV_KEY[1]~input_o\ $end
$var wire 1 %" \ALT_INV_KEY[0]~input_o\ $end
$var wire 1 &" \ALT_INV_KEY[3]~input_o\ $end
$var wire 1 '" \hex0_inst|ALT_INV_Mux0~0_combout\ $end
$var wire 1 (" \hex1_inst|ALT_INV_Mux0~0_combout\ $end
$var wire 1 )" \hex2_inst|ALT_INV_Mux0~0_combout\ $end
$var wire 1 *" \hex3_inst|ALT_INV_Mux0~0_combout\ $end
$var wire 1 +" ALT_INV_clock [15] $end
$var wire 1 ," ALT_INV_clock [14] $end
$var wire 1 -" ALT_INV_clock [13] $end
$var wire 1 ." ALT_INV_clock [12] $end
$var wire 1 /" ALT_INV_clock [11] $end
$var wire 1 0" ALT_INV_clock [10] $end
$var wire 1 1" ALT_INV_clock [9] $end
$var wire 1 2" ALT_INV_clock [8] $end
$var wire 1 3" ALT_INV_clock [7] $end
$var wire 1 4" ALT_INV_clock [6] $end
$var wire 1 5" ALT_INV_clock [5] $end
$var wire 1 6" ALT_INV_clock [4] $end
$var wire 1 7" ALT_INV_clock [3] $end
$var wire 1 8" ALT_INV_clock [2] $end
$var wire 1 9" ALT_INV_clock [1] $end
$var wire 1 :" ALT_INV_clock [0] $end
$var wire 1 ;" ALT_INV_diff [15] $end
$var wire 1 <" ALT_INV_diff [14] $end
$var wire 1 =" ALT_INV_diff [13] $end
$var wire 1 >" ALT_INV_diff [12] $end
$var wire 1 ?" ALT_INV_diff [11] $end
$var wire 1 @" ALT_INV_diff [10] $end
$var wire 1 A" ALT_INV_diff [9] $end
$var wire 1 B" ALT_INV_diff [8] $end
$var wire 1 C" ALT_INV_diff [7] $end
$var wire 1 D" ALT_INV_diff [6] $end
$var wire 1 E" ALT_INV_diff [5] $end
$var wire 1 F" ALT_INV_diff [4] $end
$var wire 1 G" ALT_INV_diff [3] $end
$var wire 1 H" ALT_INV_diff [2] $end
$var wire 1 I" ALT_INV_diff [1] $end
$var wire 1 J" ALT_INV_diff [0] $end
$upscope $end
$upscope $end
$enddefinitions $end
#0
$dumpvars
0!
0B
1C
xD
1E
1F
1G
1H
1I
1J
0K
xl
xm
0n
0o
1p
0q
0r
1s
0t
0u
0v
0w
0x
0y
0z
0{
0|
0}
0~
0!!
0"!
0#!
0$!
0%!
0&!
0'!
0(!
0)!
0*!
0+!
0,!
0-!
0.!
0/!
00!
01!
02!
03!
04!
05!
06!
07!
08!
09!
0:!
0;!
0<!
0=!
0>!
0?!
0@!
0A!
0B!
0C!
0D!
0E!
0F!
0G!
0H!
0I!
0J!
0K!
0L!
0M!
0N!
0O!
0P!
0Q!
0R!
1$"
1%"
1&"
1'"
1("
1)"
1*"
0>
x?
0@
0A
0L
xM
0N
0O
1P
0Q
0R
0S
0T
0U
0V
1W
0X
0Y
0Z
0[
0\
0]
1^
0_
0`
0a
0b
0c
0d
1e
0f
0g
0h
0i
0j
0k
0S!
0T!
0U!
0V!
0W!
0X!
0Y!
0Z!
0[!
0\!
0]!
0^!
0_!
0`!
0a!
0b!
xc!
xd!
xe!
xf!
xg!
xh!
xi!
xj!
xk!
xl!
xm!
xn!
xo!
xp!
xq!
0r!
0s!
0t!
0u!
0v!
0w!
0x!
0y!
0z!
0{!
0|!
0}!
0~!
0!"
0""
0#"
1+"
1,"
1-"
1."
1/"
10"
11"
12"
13"
14"
15"
16"
17"
18"
19"
1:"
1;"
1<"
1="
1>"
1?"
1@"
1A"
1B"
1C"
1D"
1E"
1F"
1G"
1H"
1I"
1J"
1"
0#
0$
0%
0&
0'
0(
1)
0*
0+
0,
0-
0.
0/
10
01
02
03
04
05
06
17
08
09
0:
0;
0<
0=
$end
#2500
1!
1K
1n
1o
#5000
0!
0K
0n
0o
#7500
1!
1K
1n
1o
#10000
0!
0K
0n
0o
#12500
1!
1K
1n
1o
#15000
0!
0K
0n
0o
#17500
1!
1K
1n
1o
#20000
0!
0K
0n
0o
#22500
1!
1K
1n
1o
#25000
0!
0K
0n
0o
#27500
1!
1K
1n
1o
#30000
0!
0K
0n
0o
#32500
1!
1K
1n
1o
#35000
0!
0K
0n
0o
#37500
1!
1K
1n
1o
#40000
0!
1A
1>
0K
1O
1L
14!
1q
0n
0o
0%"
0&"
0s
#42500
1!
1K
1n
1o
1#"
0:"
0p
1t
1u
#45000
0!
0K
0n
0o
#47500
1!
1K
1n
1o
0#"
1""
09"
1:"
1p
0t
0u
1v
1w
1u
0v
0w
#50000
0!
0K
0n
0o
#52500
1!
1K
1n
1o
1#"
0:"
0p
1t
0u
1v
1w
#55000
0!
0K
0n
0o
#57500
1!
1K
1n
1o
0#"
0""
1!"
08"
19"
1:"
1p
0t
1u
0v
0w
1x
1y
1w
0x
0u
0y
#60000
0!
0K
0n
0o
#62500
1!
1K
1n
1o
1#"
0:"
0p
1t
1u
#65000
0!
0K
0n
0o
#67500
1!
1K
1n
1o
0#"
1""
09"
1:"
1p
0t
0u
1v
0w
1x
1u
0v
1w
0x
1y
0y
#70000
0!
0K
0n
0o
#72500
1!
1K
1n
1o
1#"
0:"
0p
1t
0u
1v
0w
1x
1y
#75000
0!
0K
0n
0o
#77500
1!
1K
1n
1o
0#"
0""
0!"
1~!
07"
18"
19"
1:"
1p
0t
1u
0v
1w
0x
0y
1z
1{
1y
0z
0w
0u
0{
#80000
0!
0A
0>
0K
0O
0L
04!
0q
0n
0o
1%"
1&"
1s
#82500
1!
1K
1n
1o
0~!
17"
0y
#85000
0!
0K
0n
0o
#87500
1!
1K
1n
1o
#90000
0!
0K
0n
0o
#92500
1!
1K
1n
1o
#95000
0!
0K
0n
0o
#97500
1!
1K
1n
1o
#100000
0!
0K
0n
0o
#102500
1!
1K
1n
1o
#105000
0!
0K
0n
0o
#107500
1!
1K
1n
1o
#110000
0!
0K
0n
0o
#112500
1!
1K
1n
1o
#115000
0!
0K
0n
0o
#117500
1!
1K
1n
1o
#120000
0!
1>
0K
1L
14!
0n
0o
0&"
#122500
1!
1K
1n
1o
#125000
0!
0K
0n
0o
#127500
1!
1K
1n
1o
#130000
0!
0K
0n
0o
#132500
1!
1K
1n
1o
#135000
0!
0K
0n
0o
#137500
1!
1K
1n
1o
#140000
0!
0K
0n
0o
#142500
1!
1K
1n
1o
#145000
0!
0K
0n
0o
#147500
1!
1K
1n
1o
#150000
0!
0K
0n
0o
#152500
1!
1K
1n
1o
#155000
0!
0K
0n
0o
#157500
1!
1K
1n
1o
#160000
0!
1A
1@
0K
1O
1N
1r
1q
0n
0o
0%"
0$"
#162500
1!
1K
1n
1o
#165000
0!
0K
0n
0o
#167500
1!
1K
1n
1o
#170000
0!
0K
0n
0o
#172500
1!
1K
1n
1o
#175000
0!
0K
0n
0o
#177500
1!
1K
1n
1o
#180000
0!
0K
0n
0o
#182500
1!
1K
1n
1o
#185000
0!
0K
0n
0o
#187500
1!
1K
1n
1o
#190000
0!
0K
0n
0o
#192500
1!
1K
1n
1o
#195000
0!
0K
0n
0o
#197500
1!
1K
1n
1o
#200000
0!
0A
0>
0K
0O
0L
04!
0q
0n
0o
1%"
1&"
0s
#202500
1!
1K
1n
1o
1#"
0:"
0p
1t
1u
#205000
0!
0K
0n
0o
#207500
1!
1K
1n
1o
0#"
1""
09"
1:"
1p
0t
0u
1v
1w
1u
0v
0w
#210000
0!
0K
0n
0o
#212500
1!
1K
1n
1o
1#"
0:"
0p
1t
0u
1v
1w
#215000
0!
0K
0n
0o
#217500
1!
1K
1n
1o
0#"
0""
1!"
08"
19"
1:"
1p
0t
1u
0v
0w
1x
1y
1w
0x
0u
0y
#220000
0!
0K
0n
0o
#222500
1!
1K
1n
1o
1#"
0:"
0p
1t
1u
#225000
0!
0K
0n
0o
#227500
1!
1K
1n
1o
0#"
1""
09"
1:"
1p
0t
0u
1v
0w
1x
1u
0v
1w
0x
1y
0y
#230000
0!
0K
0n
0o
#232500
1!
1K
1n
1o
1#"
0:"
0p
1t
0u
1v
0w
1x
1y
#235000
0!
0K
0n
0o
#237500
1!
1K
1n
1o
0#"
0""
0!"
1~!
07"
18"
19"
1:"
1p
0t
1u
0v
1w
0x
0y
1z
1{
1y
0z
0w
0u
0{
#240000
0!
1A
0K
1O
1q
0n
0o
0%"
1s
#242500
1!
1K
1n
1o
0~!
17"
0y
#245000
0!
0K
0n
0o
#247500
1!
1K
1n
1o
#250000
0!
0K
0n
0o
#252500
1!
1K
1n
1o
#255000
0!
0K
0n
0o
#257500
1!
1K
1n
1o
#260000
0!
0K
0n
0o
#262500
1!
1K
1n
1o
#265000
0!
0K
0n
0o
#267500
1!
1K
1n
1o
#270000
0!
0K
0n
0o
#272500
1!
1K
1n
1o
#275000
0!
0K
0n
0o
#277500
1!
1K
1n
1o
#280000
0!
0A
0@
0K
0O
0N
0r
0q
0n
0o
1%"
1$"
#282500
1!
1K
1n
1o
#285000
0!
0K
0n
0o
#287500
1!
1K
1n
1o
#290000
0!
0K
0n
0o
#292500
1!
1K
1n
1o
#295000
0!
0K
0n
0o
#297500
1!
1K
1n
1o
#300000
0!
0K
0n
0o
#302500
1!
1K
1n
1o
#305000
0!
0K
0n
0o
#307500
1!
1K
1n
1o
#310000
0!
0K
0n
0o
#312500
1!
1K
1n
1o
#315000
0!
0K
0n
0o
#317500
1!
1K
1n
1o
#320000
0!
1A
1>
0K
1O
1L
14!
1q
0n
0o
0%"
0&"
0s
#322500
1!
1K
1n
1o
1#"
0:"
0p
1t
1u
#325000
0!
0K
0n
0o
#327500
1!
1K
1n
1o
0#"
1""
09"
1:"
1p
0t
0u
1v
1w
1u
0v
0w
#330000
0!
0K
0n
0o
#332500
1!
1K
1n
1o
1#"
0:"
0p
1t
0u
1v
1w
#335000
0!
0K
0n
0o
#337500
1!
1K
1n
1o
0#"
0""
1!"
08"
19"
1:"
1p
0t
1u
0v
0w
1x
1y
1w
0x
0u
0y
#340000
0!
0K
0n
0o
#342500
1!
1K
1n
1o
1#"
0:"
0p
1t
1u
#345000
0!
0K
0n
0o
#347500
1!
1K
1n
1o
0#"
1""
09"
1:"
1p
0t
0u
1v
0w
1x
1u
0v
1w
0x
1y
0y
#350000
0!
0K
0n
0o
#352500
1!
1K
1n
1o
1#"
0:"
0p
1t
0u
1v
0w
1x
1y
#355000
0!
0K
0n
0o
#357500
1!
1K
1n
1o
0#"
0""
0!"
1~!
07"
18"
19"
1:"
1p
0t
1u
0v
1w
0x
0y
1z
1{
1y
0z
0w
0u
0{
#360000
0!
1@
0K
1N
1r
0n
0o
0$"
1s
#362500
1!
1K
1n
1o
0~!
1_!
0G"
17"
0y
1R!
0'"
0e
0"
#365000
0!
0K
0n
0o
#367500
1!
1K
1n
1o
0_!
1G"
0R!
1'"
1e
1"
#370000
0!
0K
0n
0o
#372500
1!
1K
1n
1o
#375000
0!
0K
0n
0o
#377500
1!
1K
1n
1o
#380000
0!
0K
0n
0o
#382500
1!
1K
1n
1o
#385000
0!
0K
0n
0o
#387500
1!
1K
1n
1o
#390000
0!
0K
0n
0o
#392500
1!
1K
1n
1o
#395000
0!
0K
0n
0o
#397500
1!
1K
1n
1o
#400000
0!
0@
0A
0>
0K
0O
0N
0L
04!
0r
0q
0n
0o
1%"
1$"
1&"
#402500
1!
1K
1n
1o
#405000
0!
0K
0n
0o
#407500
1!
1K
1n
1o
#410000
0!
0K
0n
0o
#412500
1!
1K
1n
1o
#415000
0!
0K
0n
0o
#417500
1!
1K
1n
1o
#420000
0!
0K
0n
0o
#422500
1!
1K
1n
1o
#425000
0!
0K
0n
0o
#427500
1!
1K
1n
1o
#430000
0!
0K
0n
0o
#432500
1!
1K
1n
1o
#435000
0!
0K
0n
0o
#437500
1!
1K
1n
1o
#440000
0!
1@
1A
1>
0K
1O
1N
1L
14!
1r
1q
0n
0o
0%"
0$"
0&"
#442500
1!
1K
1n
1o
#445000
0!
0K
0n
0o
#447500
1!
1K
1n
1o
#450000
0!
0K
0n
0o
#452500
1!
1K
1n
1o
#455000
0!
0K
0n
0o
#457500
1!
1K
1n
1o
#460000
0!
0K
0n
0o
#462500
1!
1K
1n
1o
#465000
0!
0K
0n
0o
#467500
1!
1K
1n
1o
#470000
0!
0K
0n
0o
#472500
1!
1K
1n
1o
#475000
0!
0K
0n
0o
#477500
1!
1K
1n
1o
#480000
0!
0A
0>
0K
0O
0L
04!
0q
0n
0o
1%"
1&"
0s
#482500
1!
1K
1n
1o
1#"
0:"
0p
1t
1u
#485000
0!
0K
0n
0o
#487500
1!
1K
1n
1o
0#"
1""
09"
1:"
1p
0t
0u
1v
1w
1u
0v
0w
#490000
0!
0K
0n
0o
#492500
1!
1K
1n
1o
1#"
0:"
0p
1t
0u
1v
1w
#495000
0!
0K
0n
0o
#497500
1!
1K
1n
1o
0#"
0""
1!"
08"
19"
1:"
1p
0t
1u
0v
0w
1x
1y
1w
0x
0u
0y
#500000
0!
0K
0n
0o
#502500
1!
1K
1n
1o
1#"
0:"
0p
1t
1u
#505000
0!
0K
0n
0o
#507500
1!
1K
1n
1o
0#"
1""
09"
1:"
1p
0t
0u
1v
0w
1x
1u
0v
1w
0x
1y
0y
#510000
0!
0K
0n
0o
#512500
1!
1K
1n
1o
1#"
0:"
0p
1t
0u
1v
0w
1x
1y
#515000
0!
0K
0n
0o
#517500
1!
1K
1n
1o
0#"
0""
0!"
1~!
07"
18"
19"
1:"
1p
0t
1u
0v
1w
0x
0y
1z
1{
1y
0z
0w
0u
0{
#520000
0!
1>
0@
0K
0N
1L
14!
0r
0n
0o
1$"
0&"
1s
#522500
1!
1K
1n
1o
0~!
1_!
0G"
17"
0y
1R!
0'"
0e
0"
#525000
0!
0K
0n
0o
#527500
1!
1K
1n
1o
0_!
1G"
0R!
1'"
1e
1"
#530000
0!
0K
0n
0o
#532500
1!
1K
1n
1o
#535000
0!
0K
0n
0o
#537500
1!
1K
1n
1o
#540000
0!
0K
0n
0o
#542500
1!
1K
1n
1o
#545000
0!
0K
0n
0o
#547500
1!
1K
1n
1o
#550000
0!
0K
0n
0o
#552500
1!
1K
1n
1o
#555000
0!
0K
0n
0o
#557500
1!
1K
1n
1o
#560000
0!
0>
1@
0K
1N
0L
04!
1r
0n
0o
0$"
1&"
0s
#562500
1!
1K
1n
1o
1#"
0:"
0p
1t
1u
#565000
0!
0K
0n
0o
#567500
1!
1K
1n
1o
0#"
1""
09"
1:"
1p
0t
0u
1v
1w
1u
0v
0w
#570000
0!
0K
0n
0o
#572500
1!
1K
1n
1o
1#"
0:"
0p
1t
0u
1v
1w
#575000
0!
0K
0n
0o
#577500
1!
1K
1n
1o
0#"
0""
1!"
08"
19"
1:"
1p
0t
1u
0v
0w
1x
1y
1w
0x
0u
0y
#580000
0!
0K
0n
0o
#582500
1!
1K
1n
1o
1#"
0:"
0p
1t
1u
#585000
0!
0K
0n
0o
#587500
1!
1K
1n
1o
0#"
1""
09"
1:"
1p
0t
0u
1v
0w
1x
1u
0v
1w
0x
1y
0y
#590000
0!
0K
0n
0o
#592500
1!
1K
1n
1o
1#"
0:"
0p
1t
0u
1v
0w
1x
1y
#595000
0!
0K
0n
0o
#597500
1!
1K
1n
1o
0#"
0""
0!"
1~!
07"
18"
19"
1:"
1p
0t
1u
0v
1w
0x
0y
1z
1{
1y
0z
0w
0u
0{
#600000
0!
1>
1A
0K
1O
1L
14!
1q
0n
0o
0%"
0&"
1s
#602500
1!
1K
1n
1o
0~!
1_!
0G"
17"
0y
1R!
0'"
0e
0"
#605000
0!
0K
0n
0o
#607500
1!
1K
1n
1o
0_!
1G"
0R!
1'"
1e
1"
#610000
0!
0K
0n
0o
#612500
1!
1K
1n
1o
#615000
0!
0K
0n
0o
#617500
1!
1K
1n
1o
#620000
0!
0K
0n
0o
#622500
1!
1K
1n
1o
#625000
0!
0K
0n
0o
#627500
1!
1K
1n
1o
#630000
0!
0K
0n
0o
#632500
1!
1K
1n
1o
#635000
0!
0K
0n
0o
#637500
1!
1K
1n
1o
#640000
0!
0@
0K
0N
0r
0n
0o
1$"
0s
#642500
1!
1K
1n
1o
1#"
0:"
0p
1t
1u
#645000
0!
0K
0n
0o
#647500
1!
1K
1n
1o
0#"
1""
09"
1:"
1p
0t
0u
1v
1w
1u
0v
0w
#650000
0!
0K
0n
0o
#652500
1!
1K
1n
1o
1#"
0:"
0p
1t
0u
1v
1w
#655000
0!
0K
0n
0o
#657500
1!
1K
1n
1o
0#"
0""
1!"
08"
19"
1:"
1p
0t
1u
0v
0w
1x
1y
1w
0x
0u
0y
#660000
0!
0K
0n
0o
#662500
1!
1K
1n
1o
1#"
0:"
0p
1t
1u
#665000
0!
0K
0n
0o
#667500
1!
1K
1n
1o
0#"
1""
09"
1:"
1p
0t
0u
1v
0w
1x
1u
0v
1w
0x
1y
0y
#670000
0!
0K
0n
0o
#672500
1!
1K
1n
1o
1#"
0:"
0p
1t
0u
1v
0w
1x
1y
#675000
0!
0K
0n
0o
#677500
1!
1K
1n
1o
0#"
0""
0!"
1~!
07"
18"
19"
1:"
1p
0t
1u
0v
1w
0x
0y
1z
1{
1y
0z
0w
0u
0{
#680000
0!
0>
0A
0K
0O
0L
04!
0q
0n
0o
1%"
1&"
1s
#682500
1!
1K
1n
1o
0~!
17"
0y
#685000
0!
0K
0n
0o
#687500
1!
1K
1n
1o
#690000
0!
0K
0n
0o
#692500
1!
1K
1n
1o
#695000
0!
0K
0n
0o
#697500
1!
1K
1n
1o
#700000
0!
0K
0n
0o
#702500
1!
1K
1n
1o
#705000
0!
0K
0n
0o
#707500
1!
1K
1n
1o
#710000
0!
0K
0n
0o
#712500
1!
1K
1n
1o
#715000
0!
0K
0n
0o
#717500
1!
1K
1n
1o
#720000
0!
0K
0n
0o
#722500
1!
1K
1n
1o
#725000
0!
0K
0n
0o
#727500
1!
1K
1n
1o
#730000
0!
0K
0n
0o
#732500
1!
1K
1n
1o
#735000
0!
0K
0n
0o
#737500
1!
1K
1n
1o
#740000
0!
0K
0n
0o
#742500
1!
1K
1n
1o
#745000
0!
0K
0n
0o
#747500
1!
1K
1n
1o
#750000
0!
0K
0n
0o
#752500
1!
1K
1n
1o
#755000
0!
0K
0n
0o
#757500
1!
1K
1n
1o
#760000
0!
1A
0K
1O
1q
0n
0o
0%"
0s
#762500
1!
1K
1n
1o
1#"
0:"
0p
1t
1u
#765000
0!
0K
0n
0o
#767500
1!
1K
1n
1o
0#"
1""
09"
1:"
1p
0t
0u
1v
1w
1u
0v
0w
#770000
0!
0K
0n
0o
#772500
1!
1K
1n
1o
1#"
0:"
0p
1t
0u
1v
1w
#775000
0!
0K
0n
0o
#777500
1!
1K
1n
1o
0#"
0""
1!"
08"
19"
1:"
1p
0t
1u
0v
0w
1x
1y
1w
0x
0u
0y
#780000
0!
0K
0n
0o
#782500
1!
1K
1n
1o
1#"
0:"
0p
1t
1u
#785000
0!
0K
0n
0o
#787500
1!
1K
1n
1o
0#"
1""
09"
1:"
1p
0t
0u
1v
0w
1x
1u
0v
1w
0x
1y
0y
#790000
0!
0K
0n
0o
#792500
1!
1K
1n
1o
1#"
0:"
0p
1t
0u
1v
0w
1x
1y
#795000
0!
0K
0n
0o
#797500
1!
1K
1n
1o
0#"
0""
0!"
1~!
07"
18"
19"
1:"
1p
0t
1u
0v
1w
0x
0y
1z
1{
1y
0z
0w
0u
0{
#800000
0!
0A
1>
1@
0K
0O
1N
1L
14!
1r
0q
0n
0o
1%"
0$"
0&"
#802500
1!
1K
1n
1o
1#"
0:"
0p
1t
1u
#805000
0!
0K
0n
0o
#807500
1!
1K
1n
1o
0#"
1""
09"
1:"
1p
0t
0u
1v
1w
1u
0v
0w
#810000
0!
0K
0n
0o
#812500
1!
1K
1n
1o
1#"
0:"
0p
1t
0u
1v
1w
#815000
0!
0K
0n
0o
#817500
1!
1K
1n
1o
0#"
0""
1!"
08"
19"
1:"
1p
0t
1u
0v
0w
1x
0y
1z
1w
0x
0u
1y
0z
1{
0{
#820000
0!
0K
0n
0o
#822500
1!
1K
1n
1o
1#"
0:"
0p
1t
1u
#825000
0!
0K
0n
0o
#827500
1!
1K
1n
1o
0#"
1""
09"
1:"
1p
0t
0u
1v
0w
1x
1u
0v
1w
0x
0y
1z
1{
1y
0z
0{
#830000
0!
0K
0n
0o
#832500
1!
1K
1n
1o
1#"
0:"
0p
1t
0u
1v
0w
1x
0y
1z
1{
#835000
0!
0K
0n
0o
#837500
1!
1K
1n
1o
0#"
0""
0!"
0~!
1}!
06"
17"
18"
19"
1:"
1p
0t
1u
0v
1w
0x
1y
0z
0{
1|
1}
1{
0|
0y
0w
0u
0}
#840000
0!
1A
0>
0@
0K
1O
0N
0L
04!
0r
1q
0n
0o
0%"
1$"
1&"
#842500
1!
1K
1n
1o
1#"
0:"
0p
1t
1u
#845000
0!
0K
0n
0o
#847500
1!
1K
1n
1o
0#"
1""
09"
1:"
1p
0t
0u
1v
1w
1u
0v
0w
#850000
0!
0K
0n
0o
#852500
1!
1K
1n
1o
1#"
0:"
0p
1t
0u
1v
1w
#855000
0!
0K
0n
0o
#857500
1!
1K
1n
1o
0#"
0""
1!"
08"
19"
1:"
1p
0t
1u
0v
0w
1x
1y
1w
0x
0u
0y
#860000
0!
0K
0n
0o
#862500
1!
1K
1n
1o
1#"
0:"
0p
1t
1u
#865000
0!
0K
0n
0o
