BME 393L/Lab 4/5_1_time_diff/simulation/qsim/time_diff.msim.vcd
$comment
	File created using the following command:
		vcd file time_diff.msim.vcd -direction
$end
$date
	Thu Mar 03 11:46:38 2022
$end
$version
	ModelSim Version 10.5b
$end
$timescale
	1ps
$end

$scope module time_diff_vhd_vec_tst $end
$var wire 1 ! CLOCK_50_B5B $end
$var wire 1 " counter_out [30] $end
$var wire 1 # counter_out [29] $end
$var wire 1 $ counter_out [28] $end
$var wire 1 % counter_out [27] $end
$var wire 1 & counter_out [26] $end
$var wire 1 ' counter_out [25] $end
$var wire 1 ( counter_out [24] $end
$var wire 1 ) counter_out [23] $end
$var wire 1 * counter_out [22] $end
$var wire 1 + counter_out [21] $end
$var wire 1 , counter_out [20] $end
$var wire 1 - counter_out [19] $end
$var wire 1 . counter_out [18] $end
$var wire 1 / counter_out [17] $end
$var wire 1 0 counter_out [16] $end
$var wire 1 1 counter_out [15] $end
$var wire 1 2 counter_out [14] $end
$var wire 1 3 counter_out [13] $end
$var wire 1 4 counter_out [12] $end
$var wire 1 5 counter_out [11] $end
$var wire 1 6 counter_out [10] $end
$var wire 1 7 counter_out [9] $end
$var wire 1 8 counter_out [8] $end
$var wire 1 9 counter_out [7] $end
$var wire 1 : counter_out [6] $end
$var wire 1 ; counter_out [5] $end
$var wire 1 < counter_out [4] $end
$var wire 1 = counter_out [3] $end
$var wire 1 > counter_out [2] $end
$var wire 1 ? counter_out [1] $end
$var wire 1 @ counter_out [0] $end
$var wire 1 A hex0 [6] $end
$var wire 1 B hex0 [5] $end
$var wire 1 C hex0 [4] $end
$var wire 1 D hex0 [3] $end
$var wire 1 E hex0 [2] $end
$var wire 1 F hex0 [1] $end
$var wire 1 G hex0 [0] $end
$var wire 1 H hex1 [6] $end
$var wire 1 I hex1 [5] $end
$var wire 1 J hex1 [4] $end
$var wire 1 K hex1 [3] $end
$var wire 1 L hex1 [2] $end
$var wire 1 M hex1 [1] $end
$var wire 1 N hex1 [0] $end
$var wire 1 O hex2 [6] $end
$var wire 1 P hex2 [5] $end
$var wire 1 Q hex2 [4] $end
$var wire 1 R hex2 [3] $end
$var wire 1 S hex2 [2] $end
$var wire 1 T hex2 [1] $end
$var wire 1 U hex2 [0] $end
$var wire 1 V hex3 [6] $end
$var wire 1 W hex3 [5] $end
$var wire 1 X hex3 [4] $end
$var wire 1 Y hex3 [3] $end
$var wire 1 Z hex3 [2] $end
$var wire 1 [ hex3 [1] $end
$var wire 1 \ hex3 [0] $end
$var wire 1 ] KEY [3] $end
$var wire 1 ^ KEY [2] $end
$var wire 1 _ KEY [1] $end
$var wire 1 ` KEY [0] $end

$scope module i1 $end
$var wire 1 a gnd $end
$var wire 1 b vcc $end
$var wire 1 c unknown $end
$var wire 1 d devoe $end
$var wire 1 e devclrn $end
$var wire 1 f devpor $end
$var wire 1 g ww_devoe $end
$var wire 1 h ww_devclrn $end
$var wire 1 i ww_devpor $end
$var wire 1 j ww_CLOCK_50_B5B $end
$var wire 1 k ww_KEY [3] $end
$var wire 1 l ww_KEY [2] $end
$var wire 1 m ww_KEY [1] $end
$var wire 1 n ww_KEY [0] $end
$var wire 1 o ww_hex3 [6] $end
$var wire 1 p ww_hex3 [5] $end
$var wire 1 q ww_hex3 [4] $end
$var wire 1 r ww_hex3 [3] $end
$var wire 1 s ww_hex3 [2] $end
$var wire 1 t ww_hex3 [1] $end
$var wire 1 u ww_hex3 [0] $end
$var wire 1 v ww_hex2 [6] $end
$var wire 1 w ww_hex2 [5] $end
$var wire 1 x ww_hex2 [4] $end
$var wire 1 y ww_hex2 [3] $end
$var wire 1 z ww_hex2 [2] $end
$var wire 1 { ww_hex2 [1] $end
$var wire 1 | ww_hex2 [0] $end
$var wire 1 } ww_hex1 [6] $end
$var wire 1 ~ ww_hex1 [5] $end
$var wire 1 !! ww_hex1 [4] $end
$var wire 1 "! ww_hex1 [3] $end
$var wire 1 #! ww_hex1 [2] $end
$var wire 1 $! ww_hex1 [1] $end
$var wire 1 %! ww_hex1 [0] $end
$var wire 1 &! ww_hex0 [6] $end
$var wire 1 '! ww_hex0 [5] $end
$var wire 1 (! ww_hex0 [4] $end
$var wire 1 )! ww_hex0 [3] $end
$var wire 1 *! ww_hex0 [2] $end
$var wire 1 +! ww_hex0 [1] $end
$var wire 1 ,! ww_hex0 [0] $end
$var wire 1 -! ww_counter_out [30] $end
$var wire 1 .! ww_counter_out [29] $end
$var wire 1 /! ww_counter_out [28] $end
$var wire 1 0! ww_counter_out [27] $end
$var wire 1 1! ww_counter_out [26] $end
$var wire 1 2! ww_counter_out [25] $end
$var wire 1 3! ww_counter_out [24] $end
$var wire 1 4! ww_counter_out [23] $end
$var wire 1 5! ww_counter_out [22] $end
$var wire 1 6! ww_counter_out [21] $end
$var wire 1 7! ww_counter_out [20] $end
$var wire 1 8! ww_counter_out [19] $end
$var wire 1 9! ww_counter_out [18] $end
$var wire 1 :! ww_counter_out [17] $end
$var wire 1 ;! ww_counter_out [16] $end
$var wire 1 <! ww_counter_out [15] $end
$var wire 1 =! ww_counter_out [14] $end
$var wire 1 >! ww_counter_out [13] $end
$var wire 1 ?! ww_counter_out [12] $end
$var wire 1 @! ww_counter_out [11] $end
$var wire 1 A! ww_counter_out [10] $end
$var wire 1 B! ww_counter_out [9] $end
$var wire 1 C! ww_counter_out [8] $end
$var wire 1 D! ww_counter_out [7] $end
$var wire 1 E! ww_counter_out [6] $end
$var wire 1 F! ww_counter_out [5] $end
$var wire 1 G! ww_counter_out [4] $end
$var wire 1 H! ww_counter_out [3] $end
$var wire 1 I! ww_counter_out [2] $end
$var wire 1 J! ww_counter_out [1] $end
$var wire 1 K! ww_counter_out [0] $end
$var wire 1 L! \KEY[2]~input_o\ $end
$var wire 1 M! \~QUARTUS_CREATED_GND~I_combout\ $end
$var wire 1 N! \CLOCK_50_B5B~input_o\ $end
$var wire 1 O! \CLOCK_50_B5B~inputCLKENA0_outclk\ $end
$var wire 1 P! \Add0~1_sumout\ $end
$var wire 1 Q! \KEY[0]~input_o\ $end
$var wire 1 R! \KEY[1]~input_o\ $end
$var wire 1 S! \process_0~0_combout\ $end
$var wire 1 T! \Add0~2\ $end
$var wire 1 U! \Add0~5_sumout\ $end
$var wire 1 V! \Add0~6\ $end
$var wire 1 W! \Add0~9_sumout\ $end
$var wire 1 X! \Add0~10\ $end
$var wire 1 Y! \Add0~13_sumout\ $end
$var wire 1 Z! \Add0~14\ $end
$var wire 1 [! \Add0~17_sumout\ $end
$var wire 1 \! \Add0~18\ $end
$var wire 1 ]! \Add0~21_sumout\ $end
$var wire 1 ^! \Add0~22\ $end
$var wire 1 _! \Add0~25_sumout\ $end
$var wire 1 `! \Add0~26\ $end
$var wire 1 a! \Add0~29_sumout\ $end
$var wire 1 b! \Add0~30\ $end
$var wire 1 c! \Add0~33_sumout\ $end
$var wire 1 d! \Add0~34\ $end
$var wire 1 e! \Add0~37_sumout\ $end
$var wire 1 f! \Add0~38\ $end
$var wire 1 g! \Add0~41_sumout\ $end
$var wire 1 h! \Add0~42\ $end
$var wire 1 i! \Add0~45_sumout\ $end
$var wire 1 j! \Add0~46\ $end
$var wire 1 k! \Add0~49_sumout\ $end
$var wire 1 l! \Add0~50\ $end
$var wire 1 m! \Add0~53_sumout\ $end
$var wire 1 n! \Add0~54\ $end
$var wire 1 o! \Add0~57_sumout\ $end
$var wire 1 p! \diff[14]~feeder_combout\ $end
$var wire 1 q! \KEY[3]~input_o\ $end
$var wire 1 r! \diff[13]~feeder_combout\ $end
$var wire 1 s! \Add0~58\ $end
$var wire 1 t! \Add0~61_sumout\ $end
$var wire 1 u! \diff[12]~feeder_combout\ $end
$var wire 1 v! \hex3_inst|Mux6~0_combout\ $end
$var wire 1 w! \hex3_inst|Mux5~0_combout\ $end
$var wire 1 x! \hex3_inst|Mux4~0_combout\ $end
$var wire 1 y! \hex3_inst|Mux3~0_combout\ $end
$var wire 1 z! \hex3_inst|Mux2~0_combout\ $end
$var wire 1 {! \hex3_inst|Mux1~0_combout\ $end
$var wire 1 |! \hex3_inst|Mux0~0_combout\ $end
$var wire 1 }! \hex2_inst|Mux6~0_combout\ $end
$var wire 1 ~! \hex2_inst|Mux5~0_combout\ $end
$var wire 1 !" \hex2_inst|Mux4~0_combout\ $end
$var wire 1 "" \hex2_inst|Mux3~0_combout\ $end
$var wire 1 #" \hex2_inst|Mux2~0_combout\ $end
$var wire 1 $" \hex2_inst|Mux1~0_combout\ $end
$var wire 1 %" \hex2_inst|Mux0~0_combout\ $end
$var wire 1 &" \hex1_inst|Mux6~0_combout\ $end
$var wire 1 '" \hex1_inst|Mux5~0_combout\ $end
$var wire 1 (" \hex1_inst|Mux4~0_combout\ $end
$var wire 1 )" \hex1_inst|Mux3~0_combout\ $end
$var wire 1 *" \hex1_inst|Mux2~0_combout\ $end
$var wire 1 +" \hex1_inst|Mux1~0_combout\ $end
$var wire 1 ," \hex1_inst|Mux0~0_combout\ $end
$var wire 1 -" \diff[0]~feeder_combout\ $end
$var wire 1 ." \diff[1]~feeder_combout\ $end
$var wire 1 /" \hex0_inst|Mux6~0_combout\ $end
$var wire 1 0" \hex0_inst|Mux5~0_combout\ $end
$var wire 1 1" \hex0_inst|Mux4~0_combout\ $end
$var wire 1 2" \hex0_inst|Mux3~0_combout\ $end
$var wire 1 3" \hex0_inst|Mux2~0_combout\ $end
$var wire 1 4" \hex0_inst|Mux1~0_combout\ $end
$var wire 1 5" \hex0_inst|Mux0~0_combout\ $end
$var wire 1 6" \Add0~62\ $end
$var wire 1 7" \Add0~65_sumout\ $end
$var wire 1 8" \Add0~66\ $end
$var wire 1 9" \Add0~69_sumout\ $end
$var wire 1 :" \Add0~70\ $end
$var wire 1 ;" \Add0~73_sumout\ $end
$var wire 1 <" \Add0~74\ $end
$var wire 1 =" \Add0~77_sumout\ $end
$var wire 1 >" \Add0~78\ $end
$var wire 1 ?" \Add0~81_sumout\ $end
$var wire 1 @" \Add0~82\ $end
$var wire 1 A" \Add0~85_sumout\ $end
$var wire 1 B" \Add0~86\ $end
$var wire 1 C" \Add0~89_sumout\ $end
$var wire 1 D" \Add0~90\ $end
$var wire 1 E" \Add0~93_sumout\ $end
$var wire 1 F" \Add0~94\ $end
$var wire 1 G" \Add0~97_sumout\ $end
$var wire 1 H" \Add0~98\ $end
$var wire 1 I" \Add0~101_sumout\ $end
$var wire 1 J" \Add0~102\ $end
$var wire 1 K" \Add0~105_sumout\ $end
$var wire 1 L" \Add0~106\ $end
$var wire 1 M" \Add0~109_sumout\ $end
$var wire 1 N" \Add0~110\ $end
$var wire 1 O" \Add0~113_sumout\ $end
$var wire 1 P" \Add0~114\ $end
$var wire 1 Q" \Add0~117_sumout\ $end
$var wire 1 R" \Add0~118\ $end
$var wire 1 S" \Add0~121_sumout\ $end
$var wire 1 T" diff [15] $end
$var wire 1 U" diff [14] $end
$var wire 1 V" diff [13] $end
$var wire 1 W" diff [12] $end
$var wire 1 X" diff [11] $end
$var wire 1 Y" diff [10] $end
$var wire 1 Z" diff [9] $end
$var wire 1 [" diff [8] $end
$var wire 1 \" diff [7] $end
$var wire 1 ]" diff [6] $end
$var wire 1 ^" diff [5] $end
$var wire 1 _" diff [4] $end
$var wire 1 `" diff [3] $end
$var wire 1 a" diff [2] $end
$var wire 1 b" diff [1] $end
$var wire 1 c" diff [0] $end
$var wire 1 d" clock [30] $end
$var wire 1 e" clock [29] $end
$var wire 1 f" clock [28] $end
$var wire 1 g" clock [27] $end
$var wire 1 h" clock [26] $end
$var wire 1 i" clock [25] $end
$var wire 1 j" clock [24] $end
$var wire 1 k" clock [23] $end
$var wire 1 l" clock [22] $end
$var wire 1 m" clock [21] $end
$var wire 1 n" clock [20] $end
$var wire 1 o" clock [19] $end
$var wire 1 p" clock [18] $end
$var wire 1 q" clock [17] $end
$var wire 1 r" clock [16] $end
$var wire 1 s" clock [15] $end
$var wire 1 t" clock [14] $end
$var wire 1 u" clock [13] $end
$var wire 1 v" clock [12] $end
$var wire 1 w" clock [11] $end
$var wire 1 x" clock [10] $end
$var wire 1 y" clock [9] $end
$var wire 1 z" clock [8] $end
$var wire 1 {" clock [7] $end
$var wire 1 |" clock [6] $end
$var wire 1 }" clock [5] $end
$var wire 1 ~" clock [4] $end
$var wire 1 !# clock [3] $end
$var wire 1 "# clock [2] $end
$var wire 1 ## clock [1] $end
$var wire 1 $# clock [0] $end
$var wire 1 %# ALT_INV_clock [30] $end
$var wire 1 &# ALT_INV_clock [29] $end
$var wire 1 '# ALT_INV_clock [28] $end
$var wire 1 (# ALT_INV_clock [27] $end
$var wire 1 )# ALT_INV_clock [26] $end
$var wire 1 *# ALT_INV_clock [25] $end
$var wire 1 +# ALT_INV_clock [24] $end
$var wire 1 ,# ALT_INV_clock [23] $end
$var wire 1 -# ALT_INV_clock [22] $end
$var wire 1 .# ALT_INV_clock [21] $end
$var wire 1 /# ALT_INV_clock [20] $end
$var wire 1 0# ALT_INV_clock [19] $end
$var wire 1 1# ALT_INV_clock [18] $end
$var wire 1 2# ALT_INV_clock [17] $end
$var wire 1 3# ALT_INV_clock [16] $end
$var wire 1 4# ALT_INV_clock [15] $end
$var wire 1 5# ALT_INV_clock [14] $end
$var wire 1 6# ALT_INV_clock [13] $end
$var wire 1 7# ALT_INV_clock [12] $end
$var wire 1 8# ALT_INV_clock [11] $end
$var wire 1 9# ALT_INV_clock [10] $end
$var wire 1 :# ALT_INV_clock [9] $end
$var wire 1 ;# ALT_INV_clock [8] $end
$var wire 1 <# ALT_INV_clock [7] $end
$var wire 1 =# ALT_INV_clock [6] $end
$var wire 1 ># ALT_INV_clock [5] $end
$var wire 1 ?# ALT_INV_clock [4] $end
$var wire 1 @# ALT_INV_clock [3] $end
$var wire 1 A# ALT_INV_clock [2] $end
$var wire 1 B# ALT_INV_clock [1] $end
$var wire 1 C# ALT_INV_clock [0] $end
$var wire 1 D# ALT_INV_diff [15] $end
$var wire 1 E# ALT_INV_diff [14] $end
$var wire 1 F# ALT_INV_diff [13] $end
$var wire 1 G# ALT_INV_diff [12] $end
$var wire 1 H# ALT_INV_diff [11] $end
$var wire 1 I# ALT_INV_diff [10] $end
$var wire 1 J# ALT_INV_diff [9] $end
$var wire 1 K# ALT_INV_diff [8] $end
$var wire 1 L# ALT_INV_diff [7] $end
$var wire 1 M# ALT_INV_diff [6] $end
$var wire 1 N# ALT_INV_diff [5] $end
$var wire 1 O# ALT_INV_diff [4] $end
$var wire 1 P# ALT_INV_diff [3] $end
$var wire 1 Q# ALT_INV_diff [2] $end
$var wire 1 R# ALT_INV_diff [1] $end
$var wire 1 S# ALT_INV_diff [0] $end
$var wire 1 T# \ALT_INV_KEY[1]~input_o\ $end
$var wire 1 U# \ALT_INV_KEY[0]~input_o\ $end
$var wire 1 V# \ALT_INV_KEY[3]~input_o\ $end
$var wire 1 W# \hex0_inst|ALT_INV_Mux0~0_combout\ $end
$var wire 1 X# \hex1_inst|ALT_INV_Mux0~0_combout\ $end
$var wire 1 Y# \hex2_inst|ALT_INV_Mux0~0_combout\ $end
$var wire 1 Z# \hex3_inst|ALT_INV_Mux0~0_combout\ $end
$upscope $end
$upscope $end
$enddefinitions $end
#0
$dumpvars
0!
0a
1b
xc
1d
1e
1f
1g
1h
1i
0j
xL!
xM!
0N!
0O!
1P!
1Q!
0R!
0S!
0T!
0U!
0V!
0W!
0X!
0Y!
0Z!
0[!
0\!
0]!
0^!
0_!
0`!
0a!
0b!
0c!
0d!
0e!
0f!
0g!
0h!
0i!
0j!
0k!
0l!
0m!
0n!
0o!
0p!
1q!
0r!
0s!
0t!
0u!
0v!
0w!
0x!
0y!
0z!
0{!
0|!
0}!
0~!
0!"
0""
0#"
0$"
0%"
0&"
0'"
0("
0)"
0*"
0+"
0,"
0-"
0."
0/"
00"
01"
02"
03"
04"
05"
06"
07"
08"
09"
0:"
0;"
0<"
0="
0>"
0?"
0@"
0A"
0B"
0C"
0D"
0E"
0F"
0G"
0H"
0I"
0J"
0K"
0L"
0M"
0N"
0O"
0P"
0Q"
0R"
0S"
1T#
0U#
0V#
1W#
1X#
1Y#
1Z#
1]
x^
0_
1`
1k
xl
0m
1n
1o
0p
0q
0r
0s
0t
0u
1v
0w
0x
0y
0z
0{
0|
1}
0~
0!!
0"!
0#!
0$!
0%!
1&!
0'!
0(!
0)!
0*!
0+!
0,!
0-!
0.!
0/!
00!
01!
02!
03!
04!
05!
06!
07!
08!
09!
0:!
0;!
0<!
0=!
0>!
0?!
0@!
0A!
0B!
0C!
0D!
0E!
0F!
0G!
0H!
0I!
0J!
0K!
0T"
0U"
0V"
0W"
0X"
0Y"
0Z"
0["
0\"
0]"
0^"
0_"
0`"
0a"
0b"
0c"
0d"
0e"
0f"
0g"
0h"
0i"
0j"
0k"
0l"
0m"
0n"
0o"
0p"
0q"
0r"
0s"
0t"
0u"
0v"
0w"
0x"
0y"
0z"
0{"
0|"
0}"
0~"
0!#
0"#
0##
0$#
1%#
1&#
1'#
1(#
1)#
1*#
1+#
1,#
1-#
1.#
1/#
10#
11#
12#
13#
14#
15#
16#
17#
18#
19#
1:#
1;#
1<#
1=#
1>#
1?#
1@#
1A#
1B#
1C#
1D#
1E#
1F#
1G#
1H#
1I#
1J#
1K#
1L#
1M#
1N#
1O#
1P#
1Q#
1R#
1S#
0"
0#
0$
0%
0&
0'
0(
0)
0*
0+
0,
0-
0.
0/
00
01
02
03
04
05
06
07
08
09
0:
0;
0<
0=
0>
0?
0@
1A
0B
0C
0D
0E
0F
0G
1H
0I
0J
0K
0L
0M
0N
1O
0P
0Q
0R
0S
0T
0U
1V
0W
0X
0Y
0Z
0[
0\
$end
#2500
1!
1j
1N!
1O!
1$#
0C#
0P!
1T!
1-"
1K!
1U!
1@
#5000
0!
0j
0N!
0O!
#7500
1!
1j
1N!
1O!
0$#
1##
0B#
1C#
1P!
0T!
0-"
0U!
1V!
1."
1J!
0K!
1W!
1U!
0V!
0@
1?
0W!
#10000
0!
0j
0N!
0O!
#12500
1!
1j
1N!
1O!
1$#
0C#
0P!
1T!
1-"
1K!
0U!
1V!
1@
1W!
#15000
0!
0j
0N!
0O!
#17500
1!
1j
1N!
1O!
0$#
0##
1"#
0A#
1B#
1C#
1P!
0T!
0-"
1U!
0V!
0."
0W!
1X!
1I!
0J!
0K!
1Y!
1W!
0X!
0U!
0@
0?
1>
0Y!
#20000
0!
0j
0N!
0O!
#22500
1!
1j
1N!
1O!
1$#
0C#
0P!
1T!
1-"
1K!
1U!
1@
#25000
0!
0j
0N!
0O!
#27500
1!
1j
1N!
1O!
0$#
1##
0B#
1C#
1P!
0T!
0-"
0U!
1V!
1."
1J!
0K!
0W!
1X!
1U!
0V!
0@
1?
1W!
0X!
1Y!
0Y!
#30000
0!
0j
0N!
0O!
#32500
1!
1j
1N!
1O!
1$#
0C#
0P!
1T!
1-"
1K!
0U!
1V!
1@
0W!
1X!
1Y!
#35000
0!
0j
0N!
0O!
#37500
1!
1j
1N!
1O!
0$#
0##
0"#
1!#
0@#
1A#
1B#
1C#
1P!
0T!
0-"
1U!
0V!
0."
1W!
0X!
0Y!
1Z!
1H!
0I!
0J!
0K!
1[!
1Y!
0Z!
0W!
0U!
0@
0?
0>
1=
0[!
#40000
0!
0]
0j
0k
0q!
0N!
0O!
1V#
#42500
1!
1j
1N!
1O!
1$#
0C#
0P!
1T!
1-"
1K!
1U!
1@
#45000
0!
0j
0N!
0O!
#47500
1!
1j
1N!
1O!
0$#
1##
0B#
1C#
1P!
0T!
0-"
0U!
1V!
1."
1J!
0K!
1W!
1U!
0V!
0@
1?
0W!
#50000
0!
0j
0N!
0O!
#52500
1!
1j
1N!
1O!
1$#
0C#
0P!
1T!
1-"
1K!
0U!
1V!
1@
1W!
#55000
0!
0j
0N!
0O!
#57500
1!
1j
1N!
1O!
0$#
0##
1"#
0A#
1B#
1C#
1P!
0T!
0-"
1U!
0V!
0."
0W!
1X!
1I!
0J!
0K!
0Y!
1Z!
1W!
0X!
0U!
0@
0?
1>
1Y!
0Z!
1[!
0[!
#60000
0!
0j
0N!
0O!
#62500
1!
1j
1N!
1O!
1$#
0C#
0P!
1T!
1-"
1K!
1U!
1@
#65000
0!
0j
0N!
0O!
#67500
1!
1j
1N!
1O!
0$#
1##
0B#
1C#
1P!
0T!
0-"
0U!
1V!
1."
1J!
0K!
0W!
1X!
1U!
0V!
0@
1?
1W!
0X!
0Y!
1Z!
1[!
1Y!
0Z!
0[!
#70000
0!
0j
0N!
0O!
#72500
1!
1j
1N!
1O!
1$#
0C#
0P!
1T!
1-"
1K!
0U!
1V!
1@
0W!
1X!
0Y!
1Z!
1[!
#75000
0!
0j
0N!
0O!
#77500
1!
1j
1N!
1O!
0$#
0##
0"#
0!#
1~"
0?#
1@#
1A#
1B#
1C#
1P!
0T!
0-"
1U!
0V!
0."
1W!
0X!
1Y!
0Z!
0[!
1\!
1G!
0H!
0I!
0J!
0K!
1]!
1[!
0\!
0Y!
0W!
0U!
0@
0?
0>
0=
1<
0]!
#80000
0!
1]
0`
0j
0n
1k
1q!
0Q!
0N!
0O!
1U#
0V#
1S!
#82500
1!
1j
1N!
1O!
0~"
1_"
0O#
1?#
0[!
1&"
1)"
1*"
1+"
0G!
0<
1~
1!!
1"!
1%!
1N
1K
1J
1I
#85000
0!
0j
0N!
0O!
#87500
1!
1j
1N!
1O!
0_"
1O#
0&"
0)"
0*"
0+"
0~
0!!
0"!
0%!
0N
0K
0J
0I
#90000
0!
0j
0N!
0O!
#92500
1!
1j
1N!
1O!
#95000
0!
0j
0N!
0O!
#97500
1!
1j
1N!
1O!
#100000
0!
0j
0N!
0O!
#102500
1!
1j
1N!
1O!
#105000
0!
0j
0N!
0O!
#107500
1!
1j
1N!
1O!
#110000
0!
0j
0N!
0O!
#112500
1!
1j
1N!
1O!
#115000
0!
0j
0N!
0O!
#117500
1!
1j
1N!
1O!
#120000
0!
0]
1_
0j
1m
0k
0q!
1R!
0N!
0O!
0T#
1V#
0S!
#122500
1!
1j
1N!
1O!
1$#
0C#
0P!
1T!
1-"
1K!
1U!
1@
#125000
0!
0j
0N!
0O!
#127500
1!
1j
1N!
1O!
0$#
1##
0B#
1C#
1P!
0T!
0-"
0U!
1V!
1."
1J!
0K!
1W!
1U!
0V!
0@
1?
0W!
#130000
0!
0j
0N!
0O!
#132500
1!
1j
1N!
1O!
1$#
0C#
0P!
1T!
1-"
1K!
0U!
1V!
1@
1W!
#135000
0!
0j
0N!
0O!
#137500
1!
1j
1N!
1O!
0$#
0##
1"#
0A#
1B#
1C#
1P!
0T!
0-"
1U!
0V!
0."
0W!
1X!
1I!
0J!
0K!
1Y!
1W!
0X!
0U!
0@
0?
1>
0Y!
#140000
0!
0j
0N!
0O!
#142500
1!
1j
1N!
1O!
1$#
0C#
0P!
1T!
1-"
1K!
1U!
1@
#145000
0!
0j
0N!
0O!
#147500
1!
1j
1N!
1O!
0$#
1##
0B#
1C#
1P!
0T!
0-"
0U!
1V!
1."
1J!
0K!
0W!
1X!
1U!
0V!
0@
1?
1W!
0X!
1Y!
0Y!
#150000
0!
0j
0N!
0O!
#152500
1!
1j
1N!
1O!
1$#
0C#
0P!
1T!
1-"
1K!
0U!
1V!
1@
0W!
1X!
1Y!
#155000
0!
0j
0N!
0O!
#157500
1!
1j
1N!
1O!
0$#
0##
0"#
1!#
0@#
1A#
1B#
1C#
1P!
0T!
0-"
1U!
0V!
0."
1W!
0X!
0Y!
1Z!
1H!
0I!
0J!
0K!
1[!
1Y!
0Z!
0W!
0U!
0@
0?
0>
1=
0[!
#160000
0!
1]
0_
0j
0m
1k
1q!
0R!
0N!
0O!
1T#
0V#
1S!
#162500
1!
1j
1N!
1O!
0!#
1`"
0P#
1@#
0Y!
15"
0W#
0H!
0=
0&!
0A
#165000
0!
0j
0N!
0O!
#167500
1!
1j
1N!
1O!
0`"
1P#
05"
1W#
1&!
1A
#170000
0!
0j
0N!
0O!
#172500
1!
1j
1N!
1O!
#175000
0!
0j
0N!
0O!
#177500
1!
1j
1N!
1O!
#180000
0!
0j
0N!
0O!
#182500
1!
1j
1N!
1O!
#185000
0!
0j
0N!
0O!
#187500
1!
1j
1N!
1O!
#190000
0!
0j
0N!
0O!
#192500
1!
1j
1N!
1O!
#195000
0!
0j
0N!
0O!
#197500
1!
1j
1N!
1O!
#200000
0!
1_
0j
1m
1R!
0N!
0O!
0T#
0S!
#202500
1!
1j
1N!
1O!
1$#
0C#
0P!
1T!
1-"
1K!
1U!
1@
#205000
0!
0j
0N!
0O!
#207500
1!
1j
1N!
1O!
0$#
1##
0B#
1C#
1P!
0T!
0-"
0U!
1V!
1."
1J!
0K!
1W!
1U!
0V!
0@
1?
0W!
#210000
0!
0j
0N!
0O!
#212500
1!
1j
1N!
1O!
1$#
0C#
0P!
1T!
1-"
1K!
0U!
1V!
1@
1W!
#215000
0!
0j
0N!
0O!
#217500
1!
1j
1N!
1O!
0$#
0##
1"#
0A#
1B#
1C#
1P!
0T!
0-"
1U!
0V!
0."
0W!
1X!
1I!
0J!
0K!
1Y!
1W!
0X!
0U!
0@
0?
1>
0Y!
#220000
0!
0j
0N!
0O!
#222500
1!
1j
1N!
1O!
1$#
0C#
0P!
1T!
1-"
1K!
1U!
1@
#225000
0!
0j
0N!
0O!
#227500
1!
1j
1N!
1O!
0$#
1##
0B#
1C#
1P!
0T!
0-"
0U!
1V!
1."
1J!
0K!
0W!
1X!
1U!
0V!
0@
1?
1W!
0X!
1Y!
0Y!
#230000
0!
0j
0N!
0O!
#232500
1!
1j
1N!
1O!
1$#
0C#
0P!
1T!
1-"
1K!
0U!
1V!
1@
0W!
1X!
1Y!
#235000
0!
0j
0N!
0O!
#237500
1!
1j
1N!
1O!
0$#
0##
0"#
1!#
0@#
1A#
1B#
1C#
1P!
0T!
0-"
1U!
0V!
0."
1W!
0X!
0Y!
1Z!
1H!
0I!
0J!
0K!
1[!
1Y!
0Z!
0W!
0U!
0@
0?
0>
1=
0[!
#240000
0!
0_
0]
0j
0m
0k
0q!
0R!
0N!
0O!
1T#
1V#
1S!
#242500
1!
1j
1N!
1O!
0!#
1@#
0Y!
0H!
0=
#245000
0!
0j
0N!
0O!
#247500
1!
1j
1N!
1O!
#250000
0!
0j
0N!
0O!
#252500
1!
1j
1N!
1O!
#255000
0!
0j
0N!
0O!
#257500
1!
1j
1N!
1O!
#260000
0!
0j
0N!
0O!
#262500
1!
1j
1N!
1O!
#265000
0!
0j
0N!
0O!
#267500
1!
1j
1N!
1O!
#270000
0!
0j
0N!
0O!
#272500
1!
1j
1N!
1O!
#275000
0!
0j
0N!
0O!
#277500
1!
1j
1N!
1O!
#280000
0!
1_
0j
1m
1R!
0N!
0O!
0T#
0S!
#282500
1!
1j
1N!
1O!
1$#
0C#
0P!
1T!
1-"
1K!
1U!
1@
#285000
0!
0j
0N!
0O!
#287500
1!
1j
1N!
1O!
0$#
1##
0B#
1C#
1P!
0T!
0-"
0U!
1V!
1."
1J!
0K!
1W!
1U!
0V!
0@
1?
0W!
#290000
0!
0j
0N!
0O!
#292500
1!
1j
1N!
1O!
1$#
0C#
0P!
1T!
1-"
1K!
0U!
1V!
1@
1W!
#295000
0!
0j
0N!
0O!
#297500
1!
1j
1N!
1O!
0$#
0##
1"#
0A#
1B#
1C#
1P!
0T!
0-"
1U!
0V!
0."
0W!
1X!
1I!
0J!
0K!
1Y!
1W!
0X!
0U!
0@
0?
1>
0Y!
#300000
0!
0j
0N!
0O!
#302500
1!
1j
1N!
1O!
1$#
0C#
0P!
1T!
1-"
1K!
1U!
1@
#305000
0!
0j
0N!
0O!
#307500
1!
1j
1N!
1O!
0$#
1##
0B#
1C#
1P!
0T!
0-"
0U!
1V!
1."
1J!
0K!
0W!
1X!
1U!
0V!
0@
1?
1W!
0X!
1Y!
0Y!
#310000
0!
0j
0N!
0O!
#312500
1!
1j
1N!
1O!
1$#
0C#
0P!
1T!
1-"
1K!
0U!
1V!
1@
0W!
1X!
1Y!
#315000
0!
0j
0N!
0O!
#317500
1!
1j
1N!
1O!
0$#
0##
0"#
1!#
0@#
1A#
1B#
1C#
1P!
0T!
0-"
1U!
0V!
0."
1W!
0X!
0Y!
1Z!
1H!
0I!
0J!
0K!
1[!
1Y!
0Z!
0W!
0U!
0@
0?
0>
1=
0[!
#320000
0!
0_
0j
0m
0R!
0N!
0O!
1T#
1S!
#322500
1!
1j
1N!
1O!
0!#
1@#
0Y!
0H!
0=
#325000
0!
0j
0N!
0O!
#327500
1!
1j
1N!
1O!
#330000
0!
0j
0N!
0O!
#332500
1!
1j
1N!
1O!
#335000
0!
0j
0N!
0O!
#337500
1!
1j
1N!
1O!
#340000
0!
0j
0N!
0O!
#342500
1!
1j
1N!
1O!
#345000
0!
0j
0N!
0O!
#347500
1!
1j
1N!
1O!
#350000
0!
0j
0N!
0O!
#352500
1!
1j
1N!
1O!
#355000
0!
0j
0N!
0O!
#357500
1!
1j
1N!
1O!
#360000
0!
1_
1]
1`
0j
1n
1m
1k
1q!
1R!
1Q!
0N!
0O!
0U#
0T#
0V#
#362500
1!
1j
1N!
1O!
#365000
0!
0j
0N!
0O!
#367500
1!
1j
1N!
1O!
#370000
0!
0j
0N!
0O!
#372500
1!
1j
1N!
1O!
#375000
0!
0j
0N!
0O!
#377500
1!
1j
1N!
1O!
#380000
0!
0j
0N!
0O!
#382500
1!
1j
1N!
1O!
#385000
0!
0j
0N!
0O!
#387500
1!
1j
1N!
1O!
#390000
0!
0j
0N!
0O!
#392500
1!
1j
1N!
1O!
#395000
0!
0j
0N!
0O!
#397500
1!
1j
1N!
1O!
#400000
0!
0`
0j
0n
0Q!
0N!
0O!
1U#
0S!
