BME 393L/Lab 4/4_1_binary_divider/simulation/qsim/binary_divider.msim.vcd
$comment
	File created using the following command:
		vcd file binary_divider.msim.vcd -direction
$end
$date
	Sat Feb 26 00:20:27 2022
$end
$version
	ModelSim Version 10.5b
$end
$timescale
	1ps
$end

$scope module binary_divider_vhd_vec_tst $end
$var wire 1 ! CLOCK_50_B5B $end
$var wire 1 " LEDR [9] $end
$var wire 1 # LEDR [8] $end
$var wire 1 $ LEDR [7] $end
$var wire 1 % LEDR [6] $end
$var wire 1 & LEDR [5] $end
$var wire 1 ' LEDR [4] $end
$var wire 1 ( LEDR [3] $end
$var wire 1 ) LEDR [2] $end
$var wire 1 * LEDR [1] $end
$var wire 1 + LEDR [0] $end

$scope module i1 $end
$var wire 1 , gnd $end
$var wire 1 - vcc $end
$var wire 1 . unknown $end
$var wire 1 / devoe $end
$var wire 1 0 devclrn $end
$var wire 1 1 devpor $end
$var wire 1 2 ww_devoe $end
$var wire 1 3 ww_devclrn $end
$var wire 1 4 ww_devpor $end
$var wire 1 5 ww_CLOCK_50_B5B $end
$var wire 1 6 ww_LEDR [9] $end
$var wire 1 7 ww_LEDR [8] $end
$var wire 1 8 ww_LEDR [7] $end
$var wire 1 9 ww_LEDR [6] $end
$var wire 1 : ww_LEDR [5] $end
$var wire 1 ; ww_LEDR [4] $end
$var wire 1 < ww_LEDR [3] $end
$var wire 1 = ww_LEDR [2] $end
$var wire 1 > ww_LEDR [1] $end
$var wire 1 ? ww_LEDR [0] $end
$var wire 1 @ \~QUARTUS_CREATED_GND~I_combout\ $end
$var wire 1 A \CLOCK_50_B5B~input_o\ $end
$var wire 1 B \CLOCK_50_B5B~inputCLKENA0_outclk\ $end
$var wire 1 C \counter[0]~0_combout\ $end
$var wire 1 D \Add0~1_sumout\ $end
$var wire 1 E \Add0~2\ $end
$var wire 1 F \Add0~5_sumout\ $end
$var wire 1 G \Add0~6\ $end
$var wire 1 H \Add0~9_sumout\ $end
$var wire 1 I \Add0~10\ $end
$var wire 1 J \Add0~13_sumout\ $end
$var wire 1 K \Add0~14\ $end
$var wire 1 L \Add0~17_sumout\ $end
$var wire 1 M \Add0~18\ $end
$var wire 1 N \Add0~21_sumout\ $end
$var wire 1 O \Add0~22\ $end
$var wire 1 P \Add0~25_sumout\ $end
$var wire 1 Q \Add0~26\ $end
$var wire 1 R \Add0~29_sumout\ $end
$var wire 1 S \Add0~30\ $end
$var wire 1 T \Add0~33_sumout\ $end
$var wire 1 U counter [29] $end
$var wire 1 V counter [28] $end
$var wire 1 W counter [27] $end
$var wire 1 X counter [26] $end
$var wire 1 Y counter [25] $end
$var wire 1 Z counter [24] $end
$var wire 1 [ counter [23] $end
$var wire 1 \ counter [22] $end
$var wire 1 ] counter [21] $end
$var wire 1 ^ counter [20] $end
$var wire 1 _ counter [19] $end
$var wire 1 ` counter [18] $end
$var wire 1 a counter [17] $end
$var wire 1 b counter [16] $end
$var wire 1 c counter [15] $end
$var wire 1 d counter [14] $end
$var wire 1 e counter [13] $end
$var wire 1 f counter [12] $end
$var wire 1 g counter [11] $end
$var wire 1 h counter [10] $end
$var wire 1 i counter [9] $end
$var wire 1 j counter [8] $end
$var wire 1 k counter [7] $end
$var wire 1 l counter [6] $end
$var wire 1 m counter [5] $end
$var wire 1 n counter [4] $end
$var wire 1 o counter [3] $end
$var wire 1 p counter [2] $end
$var wire 1 q counter [1] $end
$var wire 1 r counter [0] $end
$var wire 1 s ALT_INV_counter [9] $end
$var wire 1 t ALT_INV_counter [8] $end
$var wire 1 u ALT_INV_counter [7] $end
$var wire 1 v ALT_INV_counter [6] $end
$var wire 1 w ALT_INV_counter [5] $end
$var wire 1 x ALT_INV_counter [4] $end
$var wire 1 y ALT_INV_counter [3] $end
$var wire 1 z ALT_INV_counter [2] $end
$var wire 1 { ALT_INV_counter [1] $end
$var wire 1 | ALT_INV_counter [0] $end
$upscope $end
$upscope $end
$enddefinitions $end
#0
$dumpvars
0!
0,
1-
x.
1/
10
11
12
13
14
05
x@
0A
0B
1C
0D
0E
0F
0G
0H
0I
0J
0K
0L
0M
0N
0O
0P
0Q
0R
0S
0T
06
07
08
09
0:
0;
0<
0=
0>
0?
xU
xV
xW
xX
xY
xZ
x[
x\
x]
x^
x_
x`
xa
xb
xc
xd
xe
xf
xg
xh
0i
0j
0k
0l
0m
0n
0o
0p
0q
0r
1s
1t
1u
1v
1w
1x
1y
1z
1{
1|
0"
0#
0$
0%
0&
0'
0(
0)
0*
0+
$end
#5000
1!
15
1A
1B
1r
0|
0C
1D
1?
1+
#10000
0!
05
0A
0B
#15000
1!
15
1A
1B
0r
1q
0{
1|
1C
1>
0?
0+
1*
#20000
0!
05
0A
0B
#25000
1!
15
1A
1B
1r
0|
0C
0D
1E
1?
1F
1+
#30000
0!
05
0A
0B
#35000
1!
15
1A
1B
0r
0q
1p
0z
1{
1|
1C
0E
0F
1G
1=
0>
0?
1H
1F
0G
0+
0*
1)
0H
#40000
0!
05
0A
0B
#45000
1!
15
1A
1B
1r
0|
0C
1D
1?
1+
#50000
0!
05
0A
0B
#55000
1!
15
1A
1B
0r
1q
0{
1|
1C
1>
0?
0+
1*
#60000
0!
05
0A
0B
#65000
1!
15
1A
1B
1r
0|
0C
0D
1E
1?
0F
1G
1+
1H
#70000
0!
05
0A
0B
#75000
1!
15
1A
1B
0r
0q
0p
1o
0y
1z
1{
1|
1C
0E
1F
0G
0H
1I
1<
0=
0>
0?
1J
1H
0I
0F
0+
0*
0)
1(
0J
#80000
0!
05
0A
0B
#85000
1!
15
1A
1B
1r
0|
0C
1D
1?
1+
#90000
0!
05
0A
0B
#95000
1!
15
1A
1B
0r
1q
0{
1|
1C
1>
0?
0+
1*
#100000
0!
05
0A
0B
#105000
1!
15
1A
1B
1r
0|
0C
0D
1E
1?
1F
1+
#110000
0!
05
0A
0B
#115000
1!
15
1A
1B
0r
0q
1p
0z
1{
1|
1C
0E
0F
1G
1=
0>
0?
0H
1I
1F
0G
0+
0*
1)
1H
0I
1J
0J
#120000
0!
05
0A
0B
#125000
1!
15
1A
1B
1r
0|
0C
1D
1?
1+
#130000
0!
05
0A
0B
#135000
1!
15
1A
1B
0r
1q
0{
1|
1C
1>
0?
0+
1*
#140000
0!
05
0A
0B
#145000
1!
15
1A
1B
1r
0|
0C
0D
1E
1?
0F
1G
1+
0H
1I
1J
#150000
0!
05
0A
0B
#155000
1!
15
1A
1B
0r
0q
0p
0o
1n
0x
1y
1z
1{
1|
1C
0E
1F
0G
1H
0I
0J
1K
1;
0<
0=
0>
0?
1L
1J
0K
0H
0F
0+
0*
0)
0(
1'
0L
#160000
0!
05
0A
0B
#165000
1!
15
1A
1B
1r
0|
0C
1D
1?
1+
#170000
0!
05
0A
0B
#175000
1!
15
1A
1B
0r
1q
0{
1|
1C
1>
0?
0+
1*
#180000
0!
05
0A
0B
#185000
1!
15
1A
1B
1r
0|
0C
0D
1E
1?
1F
1+
#190000
0!
05
0A
0B
#195000
1!
15
1A
1B
0r
0q
1p
0z
1{
1|
1C
0E
0F
1G
1=
0>
0?
1H
1F
0G
0+
0*
1)
0H
#200000
0!
05
0A
0B
#205000
1!
15
1A
1B
1r
0|
0C
1D
1?
1+
#210000
0!
05
0A
0B
#215000
1!
15
1A
1B
0r
1q
0{
1|
1C
1>
0?
0+
1*
#220000
0!
05
0A
0B
#225000
1!
15
1A
1B
1r
0|
0C
0D
1E
1?
0F
1G
1+
1H
#230000
0!
05
0A
0B
#235000
1!
15
1A
1B
0r
0q
0p
1o
0y
1z
1{
1|
1C
0E
1F
0G
0H
1I
1<
0=
0>
0?
0J
1K
1H
0I
0F
0+
0*
0)
1(
1J
0K
1L
0L
#240000
0!
05
0A
0B
#245000
1!
15
1A
1B
1r
0|
0C
1D
1?
1+
#250000
0!
05
0A
0B
#255000
1!
15
1A
1B
0r
1q
0{
1|
1C
1>
0?
0+
1*
#260000
0!
05
0A
0B
#265000
1!
15
1A
1B
1r
0|
0C
0D
1E
1?
1F
1+
#270000
0!
05
0A
0B
#275000
1!
15
1A
1B
0r
0q
1p
0z
1{
1|
1C
0E
0F
1G
1=
0>
0?
0H
1I
1F
0G
0+
0*
1)
1H
0I
0J
1K
1L
1J
0K
0L
#280000
0!
05
0A
0B
#285000
1!
15
1A
1B
1r
0|
0C
1D
1?
1+
#290000
0!
05
0A
0B
#295000
1!
15
1A
1B
0r
1q
0{
1|
1C
1>
0?
0+
1*
#300000
0!
05
0A
0B
#305000
1!
15
1A
1B
1r
0|
0C
0D
1E
1?
0F
1G
1+
0H
1I
0J
1K
1L
#310000
0!
05
0A
0B
#315000
1!
15
1A
1B
0r
0q
0p
0o
0n
1m
0w
1x
1y
1z
1{
1|
1C
0E
1F
0G
1H
0I
1J
0K
0L
1M
1:
0;
0<
0=
0>
0?
1N
1L
0M
0J
0H
0F
0+
0*
0)
0(
0'
1&
0N
#320000
0!
05
0A
0B
#325000
1!
15
1A
1B
1r
0|
0C
1D
1?
1+
#330000
0!
05
0A
0B
#335000
1!
15
1A
1B
0r
1q
0{
1|
1C
1>
0?
0+
1*
#340000
0!
05
0A
0B
#345000
1!
15
1A
1B
1r
0|
0C
0D
1E
1?
1F
1+
#350000
0!
05
0A
0B
#355000
1!
15
1A
1B
0r
0q
1p
0z
1{
1|
1C
0E
0F
1G
1=
0>
0?
1H
1F
0G
0+
0*
1)
0H
#360000
0!
05
0A
0B
#365000
1!
15
1A
1B
1r
0|
0C
1D
1?
1+
#370000
0!
05
0A
0B
#375000
1!
15
1A
1B
0r
1q
0{
1|
1C
1>
0?
0+
1*
#380000
0!
05
0A
0B
#385000
1!
15
1A
1B
1r
0|
0C
0D
1E
1?
0F
1G
1+
1H
#390000
0!
05
0A
0B
#395000
1!
15
1A
1B
0r
0q
0p
1o
0y
1z
1{
1|
1C
0E
1F
0G
0H
1I
1<
0=
0>
0?
1J
1H
0I
0F
0+
0*
0)
1(
0J
#400000
0!
05
0A
0B
#405000
1!
15
1A
1B
1r
0|
0C
1D
1?
1+
#410000
0!
05
0A
0B
#415000
1!
15
1A
1B
0r
1q
0{
1|
1C
1>
0?
0+
1*
#420000
0!
05
0A
0B
#425000
1!
15
1A
1B
1r
0|
0C
0D
1E
1?
1F
1+
#430000
0!
05
0A
0B
#435000
1!
15
1A
1B
0r
0q
1p
0z
1{
1|
1C
0E
0F
1G
1=
0>
0?
0H
1I
1F
0G
0+
0*
1)
1H
0I
1J
0J
#440000
0!
05
0A
0B
#445000
1!
15
1A
1B
1r
0|
0C
1D
1?
1+
#450000
0!
05
0A
0B
#455000
1!
15
1A
1B
0r
1q
0{
1|
1C
1>
0?
0+
1*
#460000
0!
05
0A
0B
#465000
1!
15
1A
1B
1r
0|
0C
0D
1E
1?
0F
1G
1+
0H
1I
1J
#470000
0!
05
0A
0B
#475000
1!
15
1A
1B
0r
0q
0p
0o
1n
0x
1y
1z
1{
1|
1C
0E
1F
0G
1H
0I
0J
1K
1;
0<
0=
0>
0?
0L
1M
1J
0K
0H
0F
0+
0*
0)
0(
1'
1L
0M
1N
0N
#480000
0!
05
0A
0B
#485000
1!
15
1A
1B
1r
0|
0C
1D
1?
1+
#490000
0!
05
0A
0B
#495000
1!
15
1A
1B
0r
1q
0{
1|
1C
1>
0?
0+
1*
#500000
0!
05
0A
0B
#505000
1!
15
1A
1B
1r
0|
0C
0D
1E
1?
1F
1+
#510000
0!
05
0A
0B
#515000
1!
15
1A
1B
0r
0q
1p
0z
1{
1|
1C
0E
0F
1G
1=
0>
0?
1H
1F
0G
0+
0*
1)
0H
#520000
0!
05
0A
0B
#525000
1!
15
1A
1B
1r
0|
0C
1D
1?
1+
#530000
0!
05
0A
0B
#535000
1!
15
1A
1B
0r
1q
0{
1|
1C
1>
0?
0+
1*
#540000
0!
05
0A
0B
#545000
1!
15
1A
1B
1r
0|
0C
0D
1E
1?
0F
1G
1+
1H
#550000
0!
05
0A
0B
#555000
1!
15
1A
1B
0r
0q
0p
1o
0y
1z
1{
1|
1C
0E
1F
0G
0H
1I
1<
0=
0>
0?
0J
1K
1H
0I
0F
0+
0*
0)
1(
1J
0K
0L
1M
1N
1L
0M
0N
#560000
0!
05
0A
0B
#565000
1!
15
1A
1B
1r
0|
0C
1D
1?
1+
#570000
0!
05
0A
0B
#575000
1!
15
1A
1B
0r
1q
0{
1|
1C
1>
0?
0+
1*
#580000
0!
05
0A
0B
#585000
1!
15
1A
1B
1r
0|
0C
0D
1E
1?
1F
1+
#590000
0!
05
0A
0B
#595000
1!
15
1A
1B
0r
0q
1p
0z
1{
1|
1C
0E
0F
1G
1=
0>
0?
0H
1I
1F
0G
0+
0*
1)
1H
0I
0J
1K
0L
1M
1J
0K
1L
0M
1N
0N
#600000
0!
05
0A
0B
#605000
1!
15
1A
1B
1r
0|
0C
1D
1?
1+
#610000
0!
05
0A
0B
#615000
1!
15
1A
1B
0r
1q
0{
1|
1C
1>
0?
0+
1*
#620000
0!
05
0A
0B
#625000
1!
15
1A
1B
1r
0|
0C
0D
1E
1?
0F
1G
1+
0H
1I
0J
1K
0L
1M
1N
#630000
0!
05
0A
0B
#635000
1!
15
1A
1B
0r
0q
0p
0o
0n
0m
1l
0v
1w
1x
1y
1z
1{
1|
1C
0E
1F
0G
1H
0I
1J
0K
1L
0M
0N
1O
19
0:
0;
0<
0=
0>
0?
1P
1N
0O
0L
0J
0H
0F
0+
0*
0)
0(
0'
0&
1%
0P
#640000
0!
05
0A
0B
#645000
1!
15
1A
1B
1r
0|
0C
1D
1?
1+
#650000
0!
05
0A
0B
#655000
1!
15
1A
1B
0r
1q
0{
1|
1C
1>
0?
0+
1*
#660000
0!
05
0A
0B
#665000
1!
15
1A
1B
1r
0|
0C
0D
1E
1?
1F
1+
#670000
0!
05
0A
0B
#675000
1!
15
1A
1B
0r
0q
1p
0z
1{
1|
1C
0E
0F
1G
1=
0>
0?
1H
1F
0G
0+
0*
1)
0H
#680000
0!
05
0A
0B
#685000
1!
15
1A
1B
1r
0|
0C
1D
1?
1+
#690000
0!
05
0A
0B
#695000
1!
15
1A
1B
0r
1q
0{
1|
1C
1>
0?
0+
1*
#700000
0!
05
0A
0B
#705000
1!
15
1A
1B
1r
0|
0C
0D
1E
1?
0F
1G
1+
1H
#710000
0!
05
0A
0B
#715000
1!
15
1A
1B
0r
0q
0p
1o
0y
1z
1{
1|
1C
0E
1F
0G
0H
1I
1<
0=
0>
0?
1J
1H
0I
0F
0+
0*
0)
1(
0J
#720000
0!
05
0A
0B
#725000
1!
15
1A
1B
1r
0|
0C
1D
1?
1+
#730000
0!
05
0A
0B
#735000
1!
15
1A
1B
0r
1q
0{
1|
1C
1>
0?
0+
1*
#740000
0!
05
0A
0B
#745000
1!
15
1A
1B
1r
0|
0C
0D
1E
1?
1F
1+
#750000
0!
05
0A
0B
#755000
1!
15
1A
1B
0r
0q
1p
0z
1{
1|
1C
0E
0F
1G
1=
0>
0?
0H
1I
1F
0G
0+
0*
1)
1H
0I
1J
0J
#760000
0!
05
0A
0B
#765000
1!
15
1A
1B
1r
0|
0C
1D
1?
1+
#770000
0!
05
0A
0B
#775000
1!
15
1A
1B
0r
1q
0{
1|
1C
1>
0?
0+
1*
#780000
0!
05
0A
0B
#785000
1!
15
1A
1B
1r
0|
0C
0D
1E
1?
0F
1G
1+
0H
1I
1J
#790000
0!
05
0A
0B
#795000
1!
15
1A
1B
0r
0q
0p
0o
1n
0x
1y
1z
1{
1|
1C
0E
1F
0G
1H
0I
0J
1K
1;
0<
0=
0>
0?
1L
1J
0K
0H
0F
0+
0*
0)
0(
1'
0L
#800000
0!
05
0A
0B
#805000
1!
15
1A
1B
1r
0|
0C
1D
1?
1+
#810000
0!
05
0A
0B
#815000
1!
15
1A
1B
0r
1q
0{
1|
1C
1>
0?
0+
1*
#820000
0!
05
0A
0B
#825000
1!
15
1A
1B
1r
0|
0C
0D
1E
1?
1F
1+
#830000
0!
05
0A
0B
#835000
1!
15
1A
1B
0r
0q
1p
0z
1{
1|
1C
0E
0F
1G
1=
0>
0?
1H
1F
0G
0+
0*
1)
0H
#840000
0!
05
0A
0B
#845000
1!
15
1A
1B
1r
0|
0C
1D
1?
1+
#850000
0!
05
0A
0B
#855000
1!
15
1A
1B
0r
1q
0{
1|
1C
1>
0?
0+
1*
#860000
0!
05
0A
0B
#865000
1!
15
1A
1B
1r
0|
0C
0D
1E
1?
0F
1G
1+
1H
#870000
0!
05
0A
0B
#875000
1!
15
1A
1B
0r
0q
0p
1o
0y
1z
1{
1|
1C
0E
1F
0G
0H
1I
1<
0=
0>
0?
0J
1K
1H
0I
0F
0+
0*
0)
1(
1J
0K
1L
0L
#880000
0!
05
0A
0B
#885000
1!
15
1A
1B
1r
0|
0C
1D
1?
1+
#890000
0!
05
0A
0B
#895000
1!
15
1A
1B
0r
1q
0{
1|
1C
1>
0?
0+
1*
#900000
0!
05
0A
0B
#905000
1!
15
1A
1B
1r
0|
0C
0D
1E
1?
1F
1+
#910000
0!
05
0A
0B
#915000
1!
15
1A
1B
0r
0q
1p
0z
1{
1|
1C
0E
0F
1G
1=
0>
0?
0H
1I
1F
0G
0+
0*
1)
1H
0I
0J
1K
1L
1J
0K
0L
#920000
0!
05
0A
0B
#925000
1!
15
1A
1B
1r
0|
0C
1D
1?
1+
#930000
0!
05
0A
0B
#935000
1!
15
1A
1B
0r
1q
0{
1|
1C
1>
0?
0+
1*
#940000
0!
05
0A
0B
#945000
1!
15
1A
1B
1r
0|
0C
0D
1E
1?
0F
1G
1+
0H
1I
0J
1K
1L
#950000
0!
05
0A
0B
#955000
1!
15
1A
1B
0r
0q
0p
0o
0n
1m
0w
1x
1y
1z
1{
1|
1C
0E
1F
0G
1H
0I
1J
0K
0L
1M
1:
0;
0<
0=
0>
0?
0N
1O
1L
0M
0J
0H
0F
0+
0*
0)
0(
0'
1&
1N
0O
1P
0P
#960000
0!
05
0A
0B
#965000
1!
15
1A
1B
1r
0|
0C
1D
1?
1+
#970000
0!
05
0A
0B
#975000
1!
15
1A
1B
0r
1q
0{
1|
1C
1>
0?
0+
1*
#980000
0!
05
0A
0B
#985000
1!
15
1A
1B
1r
0|
0C
0D
1E
1?
1F
1+
#990000
0!
05
0A
0B
#995000
1!
15
1A
1B
0r
0q
1p
0z
1{
1|
1C
0E
0F
1G
1=
0>
0?
1H
1F
0G
0+
0*
1)
0H
