BME 393L/Lab 1/test2/simulation/qsim/First_circuit.msim.vcd
$comment
	File created using the following command:
		vcd file First_circuit.msim.vcd -direction
$end
$date
	Tue Jan 18 12:44:47 2022
$end
$version
	ModelSim Version 10.5b
$end
$timescale
	1ps
$end

$scope module first_circuit_vhd_vec_tst $end
$var wire 1 ! LEDG [2] $end
$var wire 1 " LEDG [1] $end
$var wire 1 # LEDG [0] $end
$var wire 1 $ SW [3] $end
$var wire 1 % SW [2] $end
$var wire 1 & SW [1] $end
$var wire 1 ' SW [0] $end

$scope module i1 $end
$var wire 1 ( gnd $end
$var wire 1 ) vcc $end
$var wire 1 * unknown $end
$var wire 1 + devoe $end
$var wire 1 , devclrn $end
$var wire 1 - devpor $end
$var wire 1 . ww_devoe $end
$var wire 1 / ww_devclrn $end
$var wire 1 0 ww_devpor $end
$var wire 1 1 ww_SW [3] $end
$var wire 1 2 ww_SW [2] $end
$var wire 1 3 ww_SW [1] $end
$var wire 1 4 ww_SW [0] $end
$var wire 1 5 ww_LEDG [2] $end
$var wire 1 6 ww_LEDG [1] $end
$var wire 1 7 ww_LEDG [0] $end
$var wire 1 8 \~QUARTUS_CREATED_GND~I_combout\ $end
$var wire 1 9 \SW[0]~input_o\ $end
$var wire 1 : \SW[2]~input_o\ $end
$var wire 1 ; \xor1~0_combout\ $end
$var wire 1 < \SW[3]~input_o\ $end
$var wire 1 = \SW[1]~input_o\ $end
$var wire 1 > \xor3~0_combout\ $end
$var wire 1 ? \or1~0_combout\ $end
$var wire 1 @ \ALT_INV_SW[3]~input_o\ $end
$var wire 1 A \ALT_INV_SW[1]~input_o\ $end
$var wire 1 B \ALT_INV_SW[2]~input_o\ $end
$var wire 1 C \ALT_INV_SW[0]~input_o\ $end
$upscope $end
$upscope $end
$enddefinitions $end
#0
$dumpvars
0(
1)
x*
1+
1,
1-
1.
1/
10
x8
09
0:
0;
0<
0=
0>
0?
1@
1A
1B
1C
0$
0%
0&
0'
0!
0"
0#
01
02
03
04
05
06
07
$end
#5000
1'
14
19
0C
1;
17
1#
#10000
0'
1&
04
13
1=
09
1C
0A
0;
1>
16
07
0#
1"
#15000
1'
1%
14
12
1:
19
0C
0B
0>
1?
15
06
0"
1!
#20000
0'
0&
1$
04
03
11
1<
0=
09
1C
1A
0@
1;
1>
0?
05
16
17
1#
1"
0!
#25000
1'
14
19
0C
0;
0>
1?
15
06
07
0#
0"
1!
#30000
0'
1&
0%
04
13
02
0:
1=
09
1C
0A
1B
#35000
1'
14
19
0C
1;
17
1#
#40000
0'
0&
0$
04
03
01
0<
0=
09
1C
1A
1@
0;
0?
05
07
0#
0!
#45000
1'
1%
14
12
1:
19
0C
0B
1>
16
1"
#50000
0'
1&
04
13
1=
09
1C
0A
1;
17
1#
#55000
1'
14
19
0C
0;
0>
1?
15
06
07
0#
0"
1!
#60000
0'
0&
0%
1$
04
03
02
11
1<
0:
0=
09
1C
1A
1B
0@
1>
0?
05
16
1"
0!
#65000
1'
14
19
0C
1;
17
1#
#70000
0'
1&
04
13
1=
09
1C
0A
0;
0>
1?
15
06
07
0#
0"
1!
#75000
1'
1%
14
12
1:
19
0C
0B
1>
16
1"
#80000
0'
0&
0$
04
03
01
0<
0=
09
1C
1A
1@
1;
0>
0?
05
06
17
1#
0"
0!
#85000
1'
14
19
0C
0;
1>
16
07
0#
1"
#90000
0'
1&
0%
04
13
02
0:
1=
09
1C
0A
1B
#95000
1'
14
19
0C
1;
17
1#
#100000
0'
0&
1$
04
03
11
1<
0=
09
1C
1A
0@
0;
07
0#
#105000
1'
1%
14
12
1:
19
0C
0B
0>
1?
15
06
0"
1!
#110000
0'
1&
04
13
1=
09
1C
0A
1;
17
1#
#115000
1'
14
19
0C
0;
1>
16
07
0#
1"
#120000
0'
0&
0%
0$
04
03
02
01
0<
0:
0=
09
1C
1A
1B
1@
0>
0?
05
06
0"
0!
#125000
1'
14
19
0C
1;
17
1#
#130000
0'
1&
04
13
1=
09
1C
0A
0;
1>
16
07
0#
1"
#135000
1'
1%
14
12
1:
19
0C
0B
0>
1?
15
06
0"
1!
#140000
0'
0&
1$
04
03
11
1<
0=
09
1C
1A
0@
1;
1>
0?
05
16
17
1#
1"
0!
#145000
1'
14
19
0C
0;
0>
1?
15
06
07
0#
0"
1!
#150000
0'
1&
0%
04
13
02
0:
1=
09
1C
0A
1B
#155000
1'
14
19
0C
1;
17
1#
#160000
0'
0&
0$
04
03
01
0<
0=
09
1C
1A
1@
0;
0?
05
07
0#
0!
#165000
1'
1%
14
12
1:
19
0C
0B
1>
16
1"
#170000
0'
1&
04
13
1=
09
1C
0A
1;
17
1#
#175000
1'
14
19
0C
0;
0>
1?
15
06
07
0#
0"
1!
#180000
0'
0&
0%
1$
04
03
02
11
1<
0:
0=
09
1C
1A
1B
0@
1>
0?
05
16
1"
0!
#185000
1'
14
19
0C
1;
17
1#
#190000
0'
1&
04
13
1=
09
1C
0A
0;
0>
1?
15
06
07
0#
0"
1!
#195000
1'
1%
14
12
1:
19
0C
0B
1>
16
1"
#200000
0'
0&
0$
04
03
01
0<
0=
09
1C
1A
1@
1;
0>
0?
05
06
17
1#
0"
0!
#205000
1'
14
19
0C
0;
1>
16
07
0#
1"
#210000
0'
1&
0%
04
13
02
0:
1=
09
1C
0A
1B
#215000
1'
14
19
0C
1;
17
1#
#220000
0'
0&
1$
04
03
11
1<
0=
09
1C
1A
0@
0;
07
0#
#225000
1'
1%
14
12
1:
19
0C
0B
0>
1?
15
06
0"
1!
#230000
0'
1&
04
13
1=
09
1C
0A
1;
17
1#
#235000
1'
14
19
0C
0;
1>
16
07
0#
1"
#240000
0'
0&
0%
0$
04
03
02
01
0<
0:
0=
09
1C
1A
1B
1@
0>
0?
05
06
0"
0!
#245000
1'
14
19
0C
1;
17
1#
#250000
0'
1&
04
13
1=
09
1C
0A
0;
1>
16
07
0#
1"
#255000
1'
1%
14
12
1:
19
0C
0B
0>
1?
15
06
0"
1!
#260000
0'
0&
1$
04
03
11
1<
0=
09
1C
1A
0@
1;
1>
0?
05
16
17
1#
1"
0!
#265000
1'
14
19
0C
0;
0>
1?
15
06
07
0#
0"
1!
#270000
0'
1&
0%
04
13
02
0:
1=
09
1C
0A
1B
#275000
1'
14
19
0C
1;
17
1#
#280000
0'
0&
0$
04
03
01
0<
0=
09
1C
1A
1@
0;
0?
05
07
0#
0!
#285000
1'
1%
14
12
1:
19
0C
0B
1>
16
1"
#290000
0'
1&
04
13
1=
09
1C
0A
1;
17
1#
#295000
1'
14
19
0C
0;
0>
1?
15
06
07
0#
0"
1!
#300000
0'
0&
0%
1$
04
03
02
11
1<
0:
0=
09
1C
1A
1B
0@
1>
0?
05
16
1"
0!
#305000
1'
14
19
0C
1;
17
1#
#310000
0'
1&
04
13
1=
09
1C
0A
0;
0>
1?
15
06
07
0#
0"
1!
#315000
1'
1%
14
12
1:
19
0C
0B
1>
16
1"
#320000
0'
0&
0$
04
03
01
0<
0=
09
1C
1A
1@
1;
0>
0?
05
06
17
1#
0"
0!
#325000
1'
14
19
0C
0;
1>
16
07
0#
1"
#330000
0'
1&
0%
04
13
02
0:
1=
09
1C
0A
1B
#335000
1'
14
19
0C
1;
17
1#
#340000
0'
0&
1$
04
03
11
1<
0=
09
1C
1A
0@
0;
07
0#
#345000
1'
1%
14
12
1:
19
0C
0B
0>
1?
15
06
0"
1!
#350000
0'
1&
04
13
1=
09
1C
0A
1;
17
1#
#355000
1'
14
19
0C
0;
1>
16
07
0#
1"
#360000
0'
0&
0%
0$
04
03
02
01
0<
0:
0=
09
1C
1A
1B
1@
0>
0?
05
06
0"
0!
#365000
1'
14
19
0C
1;
17
1#
#370000
0'
1&
04
13
1=
09
1C
0A
0;
1>
16
07
0#
1"
#375000
1'
1%
14
12
1:
19
0C
0B
0>
1?
15
06
0"
1!
#380000
0'
0&
1$
04
03
11
1<
0=
09
1C
1A
0@
1;
1>
0?
05
16
17
1#
1"
0!
#385000
1'
14
19
0C
0;
0>
1?
15
06
07
0#
0"
1!
#390000
0'
1&
0%
04
13
02
0:
1=
09
1C
0A
1B
#395000
1'
14
19
0C
1;
17
1#
#400000
0'
0&
0$
04
03
01
0<
0=
09
1C
1A
1@
0;
0?
05
07
0#
0!
#405000
1'
1%
14
12
1:
19
0C
0B
1>
16
1"
#410000
0'
1&
04
13
1=
09
1C
0A
1;
17
1#
#415000
1'
14
19
0C
0;
0>
1?
15
06
07
0#
0"
1!
#420000
0'
0&
0%
1$
04
03
02
11
1<
0:
0=
09
1C
1A
1B
0@
1>
0?
05
16
1"
0!
#425000
1'
14
19
0C
1;
17
1#
#430000
0'
1&
04
13
1=
09
1C
0A
0;
0>
1?
15
06
07
0#
0"
1!
#435000
1'
1%
14
12
1:
19
0C
0B
1>
16
1"
#440000
0'
0&
0$
04
03
01
0<
0=
09
1C
1A
1@
1;
0>
0?
05
06
17
1#
0"
0!
#445000
1'
14
19
0C
0;
1>
16
07
0#
1"
#450000
0'
1&
0%
04
13
02
0:
1=
09
1C
0A
1B
#455000
1'
14
19
0C
1;
17
1#
#460000
0'
0&
1$
04
03
11
1<
0=
09
1C
1A
0@
0;
07
0#
#465000
1'
1%
14
12
1:
19
0C
0B
0>
1?
15
06
0"
1!
#470000
0'
1&
04
13
1=
09
1C
0A
1;
17
1#
#475000
1'
14
19
0C
0;
1>
16
07
0#
1"
#480000
0'
0&
0%
0$
04
03
02
01
0<
0:
0=
09
1C
1A
1B
1@
0>
0?
05
06
0"
0!
#485000
1'
14
19
0C
1;
17
1#
#490000
0'
1&
04
13
1=
09
1C
0A
0;
1>
16
07
0#
1"
#495000
1'
1%
14
12
1:
19
0C
0B
0>
1?
15
06
0"
1!
#500000
0'
0&
1$
04
03
11
1<
0=
09
1C
1A
0@
1;
1>
0?
05
16
17
1#
1"
0!
#505000
1'
14
19
0C
0;
0>
1?
15
06
07
0#
0"
1!
#510000
0'
1&
0%
04
13
02
0:
1=
09
1C
0A
1B
#515000
1'
14
19
0C
1;
17
1#
#520000
0'
0&
0$
04
03
01
0<
0=
09
1C
1A
1@
0;
0?
05
07
0#
0!
#525000
1'
1%
14
12
1:
19
0C
0B
1>
16
1"
#530000
0'
1&
04
13
1=
09
1C
0A
1;
17
1#
#535000
1'
14
19
0C
0;
0>
1?
15
06
07
0#
0"
1!
#540000
0'
0&
0%
1$
04
03
02
11
1<
0:
0=
09
1C
1A
1B
0@
1>
0?
05
16
1"
0!
#545000
1'
14
19
0C
1;
17
1#
#550000
0'
1&
04
13
1=
09
1C
0A
0;
0>
1?
15
06
07
0#
0"
1!
#555000
1'
1%
14
12
1:
19
0C
0B
1>
16
1"
#560000
0'
0&
0$
04
03
01
0<
0=
09
1C
1A
1@
1;
0>
0?
05
06
17
1#
0"
0!
#565000
1'
14
19
0C
0;
1>
16
07
0#
1"
#570000
0'
1&
0%
04
13
02
0:
1=
09
1C
0A
1B
#575000
1'
14
19
0C
1;
17
1#
#580000
0'
0&
1$
04
03
11
1<
0=
09
1C
1A
0@
0;
07
0#
#585000
1'
1%
14
12
1:
19
0C
0B
0>
1?
15
06
0"
1!
#590000
0'
1&
04
13
1=
09
1C
0A
1;
17
1#
#595000
1'
14
19
0C
0;
1>
16
07
0#
1"
#600000
0'
0&
0%
0$
04
03
02
01
0<
0:
0=
09
1C
1A
1B
1@
0>
0?
05
06
0"
0!
#605000
1'
14
19
0C
1;
17
1#
#610000
0'
1&
04
13
1=
09
1C
0A
0;
1>
16
07
0#
1"
#615000
1'
1%
14
12
1:
19
0C
0B
0>
1?
15
06
0"
1!
#620000
0'
0&
1$
04
03
11
1<
0=
09
1C
1A
0@
1;
1>
0?
05
16
17
1#
1"
0!
#625000
1'
14
19
0C
0;
0>
1?
15
06
07
0#
0"
1!
#630000
0'
1&
0%
04
13
02
0:
1=
09
1C
0A
1B
#635000
1'
14
19
0C
1;
17
1#
#640000
0'
0&
0$
04
03
01
0<
0=
09
1C
1A
1@
0;
0?
05
07
0#
0!
#645000
1'
1%
14
12
1:
19
0C
0B
1>
16
1"
#650000
0'
1&
04
13
1=
09
1C
0A
1;
17
1#
#655000
1'
14
19
0C
0;
0>
1?
15
06
07
0#
0"
1!
#660000
0'
0&
0%
1$
04
03
02
11
1<
0:
0=
09
1C
1A
1B
0@
1>
0?
05
16
1"
0!
#665000
1'
14
19
0C
1;
17
1#
#670000
0'
1&
04
13
1=
09
1C
0A
0;
0>
1?
15
06
07
0#
0"
1!
#675000
1'
1%
14
12
1:
19
0C
0B
1>
16
1"
#680000
0'
0&
0$
04
03
01
0<
0=
09
1C
1A
1@
1;
0>
0?
05
06
17
1#
0"
0!
#685000
1'
14
19
0C
0;
1>
16
07
0#
1"
#690000
0'
1&
0%
04
13
02
0:
1=
09
1C
0A
1B
#695000
1'
14
19
0C
1;
17
1#
#700000
0'
0&
1$
04
03
11
1<
0=
09
1C
1A
0@
0;
07
0#
#705000
1'
1%
14
12
1:
19
0C
0B
0>
1?
15
06
0"
1!
#710000
0'
1&
04
13
1=
09
1C
0A
1;
17
1#
#715000
1'
14
19
0C
0;
1>
16
07
0#
1"
#720000
0'
0&
0%
0$
04
03
02
01
0<
0:
0=
09
1C
1A
1B
1@
0>
0?
05
06
0"
0!
#725000
1'
14
19
0C
1;
17
1#
#730000
0'
1&
04
13
1=
09
1C
0A
0;
1>
16
07
0#
1"
#735000
1'
1%
14
12
1:
19
0C
0B
0>
1?
15
06
0"
1!
#740000
0'
0&
1$
04
03
11
1<
0=
09
1C
1A
0@
1;
1>
0?
05
16
17
1#
1"
0!
#745000
1'
14
19
0C
0;
0>
1?
15
06
07
0#
0"
1!
#750000
0'
1&
0%
04
13
02
0:
1=
09
1C
0A
1B
#755000
1'
14
19
0C
1;
17
1#
#760000
0'
0&
0$
04
03
01
0<
0=
09
1C
1A
1@
0;
0?
05
07
0#
0!
#765000
1'
1%
14
12
1:
19
0C
0B
1>
16
1"
#770000
0'
1&
04
13
1=
09
1C
0A
1;
17
1#
#775000
1'
14
19
0C
0;
0>
1?
15
06
07
0#
0"
1!
#780000
0'
0&
0%
1$
04
03
02
11
1<
0:
0=
09
1C
1A
1B
0@
1>
0?
05
16
1"
0!
#785000
1'
14
19
0C
1;
17
1#
#790000
0'
1&
04
13
1=
09
1C
0A
0;
0>
1?
15
06
07
0#
0"
1!
#795000
1'
1%
14
12
1:
19
0C
0B
1>
16
1"
#800000
0'
0&
0$
04
03
01
0<
0=
09
1C
1A
1@
1;
0>
0?
05
06
17
1#
0"
0!
#805000
1'
14
19
0C
0;
1>
16
07
0#
1"
#810000
0'
1&
0%
04
13
02
0:
1=
09
1C
0A
1B
#815000
1'
14
19
0C
1;
17
1#
#820000
0'
0&
1$
04
03
11
1<
0=
09
1C
1A
0@
0;
07
0#
#825000
1'
1%
14
12
1:
19
0C
0B
0>
1?
15
06
0"
1!
#830000
0'
1&
04
13
1=
09
1C
0A
1;
17
1#
#835000
1'
14
19
0C
0;
1>
16
07
0#
1"
#840000
0'
0&
0%
0$
04
03
02
01
0<
0:
0=
09
1C
1A
1B
1@
0>
0?
05
06
0"
0!
#845000
1'
14
19
0C
1;
17
1#
#850000
0'
1&
04
13
1=
09
1C
0A
0;
1>
16
07
0#
1"
#855000
1'
1%
14
12
1:
19
0C
0B
0>
1?
15
06
0"
1!
#860000
0'
0&
1$
04
03
11
1<
0=
09
1C
1A
0@
1;
1>
0?
05
16
17
1#
1"
0!
#865000
1'
14
19
0C
0;
0>
1?
15
06
07
0#
0"
1!
#870000
0'
1&
0%
04
13
02
0:
1=
09
1C
0A
1B
#875000
1'
14
19
0C
1;
17
1#
#880000
0'
0&
0$
04
03
01
0<
0=
09
1C
1A
1@
0;
0?
05
07
0#
0!
#885000
1'
1%
14
12
1:
19
0C
0B
1>
16
1"
#890000
0'
1&
04
13
1=
09
1C
0A
1;
17
1#
#895000
1'
14
19
0C
0;
0>
1?
15
06
07
0#
0"
1!
#900000
0'
0&
0%
1$
04
03
02
11
1<
0:
0=
09
1C
1A
1B
0@
1>
0?
05
16
1"
0!
#905000
1'
14
19
0C
1;
17
1#
#910000
0'
1&
04
13
1=
09
1C
0A
0;
0>
1?
15
06
07
0#
0"
1!
#915000
1'
1%
14
12
1:
19
0C
0B
1>
16
1"
#920000
0'
0&
0$
04
03
01
0<
0=
09
1C
1A
1@
1;
0>
0?
05
06
17
1#
0"
0!
#925000
1'
14
19
0C
0;
1>
16
07
0#
1"
#930000
0'
1&
0%
04
13
02
0:
1=
09
1C
0A
1B
#935000
1'
14
19
0C
1;
17
1#
#940000
0'
0&
1$
04
03
11
1<
0=
09
1C
1A
0@
0;
07
0#
#945000
1'
1%
14
12
1:
19
0C
0B
0>
1?
15
06
0"
1!
#950000
0'
1&
04
13
1=
09
1C
0A
1;
17
1#
#955000
1'
14
19
0C
0;
1>
16
07
0#
1"
#960000
0'
0&
0%
0$
04
03
02
01
0<
0:
0=
09
1C
1A
1B
1@
0>
0?
05
06
0"
0!
#965000
1'
14
19
0C
1;
17
1#
#970000
0'
1&
04
13
1=
09
1C
0A
0;
1>
16
07
0#
1"
#975000
1'
1%
14
12
1:
19
0C
0B
0>
1?
15
06
0"
1!
#980000
0'
0&
1$
04
03
11
1<
0=
09
1C
1A
0@
1;
1>
0?
05
16
17
1#
1"
0!
#985000
1'
14
19
0C
0;
0>
1?
15
06
07
0#
0"
1!
#990000
0'
1&
0%
04
13
02
0:
1=
09
1C
0A
1B
#995000
1'
14
19
0C
1;
17
1#
