BME 393L/Lab 4/Prelab 1/simulation/qsim/Lab4_Prelab.msim.vcd
$comment
	File created using the following command:
		vcd file Lab4_Prelab.msim.vcd -direction
$end
$date
	Fri Feb 25 23:24:54 2022
$end
$version
	ModelSim Version 10.5b
$end
$timescale
	1ps
$end

$scope module lab4_prelab_vhd_vec_tst $end
$var wire 1 ! CLOCK_50_B5B $end
$var wire 1 " LEDG [7] $end
$var wire 1 # LEDG [6] $end
$var wire 1 $ LEDG [5] $end
$var wire 1 % LEDG [4] $end
$var wire 1 & LEDG [3] $end
$var wire 1 ' LEDG [2] $end
$var wire 1 ( LEDG [1] $end
$var wire 1 ) LEDG [0] $end

$scope module i1 $end
$var wire 1 * gnd $end
$var wire 1 + vcc $end
$var wire 1 , unknown $end
$var wire 1 - devoe $end
$var wire 1 . devclrn $end
$var wire 1 / devpor $end
$var wire 1 0 ww_devoe $end
$var wire 1 1 ww_devclrn $end
$var wire 1 2 ww_devpor $end
$var wire 1 3 ww_CLOCK_50_B5B $end
$var wire 1 4 ww_LEDG [7] $end
$var wire 1 5 ww_LEDG [6] $end
$var wire 1 6 ww_LEDG [5] $end
$var wire 1 7 ww_LEDG [4] $end
$var wire 1 8 ww_LEDG [3] $end
$var wire 1 9 ww_LEDG [2] $end
$var wire 1 : ww_LEDG [1] $end
$var wire 1 ; ww_LEDG [0] $end
$var wire 1 < \~QUARTUS_CREATED_GND~I_combout\ $end
$var wire 1 = \CLOCK_50_B5B~input_o\ $end
$var wire 1 > \CLOCK_50_B5B~inputCLKENA0_outclk\ $end
$var wire 1 ? \Add0~53_sumout\ $end
$var wire 1 @ \counter[0]~DUPLICATE_q\ $end
$var wire 1 A \Add0~54\ $end
$var wire 1 B \Add0~57_sumout\ $end
$var wire 1 C \Add0~58\ $end
$var wire 1 D \Add0~61_sumout\ $end
$var wire 1 E \Add0~62\ $end
$var wire 1 F \Add0~65_sumout\ $end
$var wire 1 G \Add0~66\ $end
$var wire 1 H \Add0~69_sumout\ $end
$var wire 1 I \Add0~70\ $end
$var wire 1 J \Add0~73_sumout\ $end
$var wire 1 K \counter[5]~DUPLICATE_q\ $end
$var wire 1 L \Add0~74\ $end
$var wire 1 M \Add0~77_sumout\ $end
$var wire 1 N \Add0~78\ $end
$var wire 1 O \Add0~81_sumout\ $end
$var wire 1 P \Add0~82\ $end
$var wire 1 Q \Add0~85_sumout\ $end
$var wire 1 R \counter[8]~DUPLICATE_q\ $end
$var wire 1 S \Add0~86\ $end
$var wire 1 T \Add0~89_sumout\ $end
$var wire 1 U \Add0~90\ $end
$var wire 1 V \Add0~94\ $end
$var wire 1 W \Add0~97_sumout\ $end
$var wire 1 X \counter[11]~feeder_combout\ $end
$var wire 1 Y \Add0~98\ $end
$var wire 1 Z \Add0~29_sumout\ $end
$var wire 1 [ \Add0~30\ $end
$var wire 1 \ \Add0~33_sumout\ $end
$var wire 1 ] \Add0~34\ $end
$var wire 1 ^ \Add0~37_sumout\ $end
$var wire 1 _ \Add0~38\ $end
$var wire 1 ` \Add0~41_sumout\ $end
$var wire 1 a \Add0~42\ $end
$var wire 1 b \Add0~45_sumout\ $end
$var wire 1 c \Add0~46\ $end
$var wire 1 d \Add0~49_sumout\ $end
$var wire 1 e \Add0~50\ $end
$var wire 1 f \Add0~5_sumout\ $end
$var wire 1 g \Add0~6\ $end
$var wire 1 h \Add0~9_sumout\ $end
$var wire 1 i \Add0~10\ $end
$var wire 1 j \Add0~13_sumout\ $end
$var wire 1 k \Add0~14\ $end
$var wire 1 l \Add0~17_sumout\ $end
$var wire 1 m \Add0~18\ $end
$var wire 1 n \Add0~21_sumout\ $end
$var wire 1 o \Add0~22\ $end
$var wire 1 p \Add0~25_sumout\ $end
$var wire 1 q \Add0~26\ $end
$var wire 1 r \Add0~1_sumout\ $end
$var wire 1 s \Equal0~1_combout\ $end
$var wire 1 t \Equal0~2_combout\ $end
$var wire 1 u \Equal0~0_combout\ $end
$var wire 1 v \Equal0~4_combout\ $end
$var wire 1 w \counter[10]~DUPLICATE_q\ $end
$var wire 1 x \Add0~93_sumout\ $end
$var wire 1 y \Equal0~3_combout\ $end
$var wire 1 z \clock_1_Hz~0_combout\ $end
$var wire 1 { \clock_1_Hz~q\ $end
$var wire 1 | counter [24] $end
$var wire 1 } counter [23] $end
$var wire 1 ~ counter [22] $end
$var wire 1 !! counter [21] $end
$var wire 1 "! counter [20] $end
$var wire 1 #! counter [19] $end
$var wire 1 $! counter [18] $end
$var wire 1 %! counter [17] $end
$var wire 1 &! counter [16] $end
$var wire 1 '! counter [15] $end
$var wire 1 (! counter [14] $end
$var wire 1 )! counter [13] $end
$var wire 1 *! counter [12] $end
$var wire 1 +! counter [11] $end
$var wire 1 ,! counter [10] $end
$var wire 1 -! counter [9] $end
$var wire 1 .! counter [8] $end
$var wire 1 /! counter [7] $end
$var wire 1 0! counter [6] $end
$var wire 1 1! counter [5] $end
$var wire 1 2! counter [4] $end
$var wire 1 3! counter [3] $end
$var wire 1 4! counter [2] $end
$var wire 1 5! counter [1] $end
$var wire 1 6! counter [0] $end
$var wire 1 7! ALT_INV_counter [24] $end
$var wire 1 8! ALT_INV_counter [23] $end
$var wire 1 9! ALT_INV_counter [22] $end
$var wire 1 :! ALT_INV_counter [21] $end
$var wire 1 ;! ALT_INV_counter [20] $end
$var wire 1 <! ALT_INV_counter [19] $end
$var wire 1 =! ALT_INV_counter [18] $end
$var wire 1 >! ALT_INV_counter [17] $end
$var wire 1 ?! ALT_INV_counter [16] $end
$var wire 1 @! ALT_INV_counter [15] $end
$var wire 1 A! ALT_INV_counter [14] $end
$var wire 1 B! ALT_INV_counter [13] $end
$var wire 1 C! ALT_INV_counter [12] $end
$var wire 1 D! ALT_INV_counter [11] $end
$var wire 1 E! ALT_INV_counter [10] $end
$var wire 1 F! ALT_INV_counter [9] $end
$var wire 1 G! ALT_INV_counter [8] $end
$var wire 1 H! ALT_INV_counter [7] $end
$var wire 1 I! ALT_INV_counter [6] $end
$var wire 1 J! ALT_INV_counter [5] $end
$var wire 1 K! ALT_INV_counter [4] $end
$var wire 1 L! ALT_INV_counter [3] $end
$var wire 1 M! ALT_INV_counter [2] $end
$var wire 1 N! ALT_INV_counter [1] $end
$var wire 1 O! ALT_INV_counter [0] $end
$var wire 1 P! \ALT_INV_counter[10]~DUPLICATE_q\ $end
$var wire 1 Q! \ALT_INV_counter[8]~DUPLICATE_q\ $end
$var wire 1 R! \ALT_INV_counter[5]~DUPLICATE_q\ $end
$var wire 1 S! \ALT_INV_counter[0]~DUPLICATE_q\ $end
$var wire 1 T! \ALT_INV_Equal0~3_combout\ $end
$var wire 1 U! \ALT_INV_Equal0~2_combout\ $end
$var wire 1 V! \ALT_INV_Equal0~1_combout\ $end
$var wire 1 W! \ALT_INV_Equal0~0_combout\ $end
$var wire 1 X! \ALT_INV_clock_1_Hz~q\ $end
$var wire 1 Y! \ALT_INV_Add0~97_sumout\ $end
$upscope $end
$upscope $end
$enddefinitions $end
#0
$dumpvars
0!
0*
1+
x,
1-
1.
1/
10
11
12
03
x<
0=
0>
1?
0@
0A
0B
0C
0D
0E
0F
0G
0H
0I
0J
0K
0L
0M
0N
0O
0P
0Q
0R
0S
0T
0U
0V
0W
0X
0Y
0Z
0[
0\
0]
0^
0_
0`
0a
0b
0c
0d
0e
0f
0g
0h
0i
0j
0k
0l
0m
0n
0o
0p
0q
0r
1s
0t
1u
0v
0w
0x
1y
0z
0{
1P!
1Q!
1R!
1S!
0T!
1U!
0V!
0W!
1X!
1Y!
04
05
06
07
08
09
0:
0;
0|
0}
0~
0!!
0"!
0#!
0$!
0%!
0&!
0'!
0(!
0)!
0*!
0+!
0,!
0-!
0.!
0/!
00!
01!
02!
03!
04!
05!
06!
17!
18!
19!
1:!
1;!
1<!
1=!
1>!
1?!
1@!
1A!
1B!
1C!
1D!
1E!
1F!
1G!
1H!
1I!
1J!
1K!
1L!
1M!
1N!
1O!
0"
0#
0$
0%
0&
0'
0(
0)
$end
#5000
1!
13
1=
1>
1@
16!
0O!
0S!
0?
1A
1B
#10000
0!
03
0=
0>
#15000
1!
13
1=
1>
0@
15!
06!
1O!
0N!
1S!
1?
0A
0B
1C
1D
1B
0C
0D
#20000
0!
03
0=
0>
#25000
1!
13
1=
1>
1@
16!
0O!
0S!
0?
1A
0B
1C
1D
#30000
0!
03
0=
0>
#35000
1!
13
1=
1>
0@
05!
14!
06!
1O!
0M!
1N!
1S!
1?
0A
1B
0C
0D
1E
1F
1D
0E
0B
0F
#40000
0!
03
0=
0>
#45000
1!
13
1=
1>
1@
16!
0O!
0S!
0?
1A
1B
#50000
0!
03
0=
0>
#55000
1!
13
1=
1>
0@
15!
06!
1O!
0N!
1S!
1?
0A
0B
1C
0D
1E
1B
0C
1D
0E
1F
0F
#60000
0!
03
0=
0>
#65000
1!
13
1=
1>
1@
16!
0O!
0S!
0?
1A
0B
1C
0D
1E
1F
#70000
0!
03
0=
0>
#75000
1!
13
1=
1>
0@
05!
04!
13!
06!
1O!
0L!
1M!
1N!
1S!
1?
0A
1B
0C
1D
0E
0F
1G
1H
1F
0G
0D
0B
0H
#80000
0!
03
0=
0>
#85000
1!
13
1=
1>
1@
16!
0O!
0S!
0?
1A
1t
0U!
1B
1v
1z
#90000
0!
03
0=
0>
#95000
1!
13
1=
1>
0@
03!
06!
1{
0X!
1O!
1L!
1S!
1?
0A
0F
0t
0z
1U!
1;
0B
0v
1z
1)
#100000
0!
03
0=
0>
#105000
1!
13
1=
1>
1@
16!
0O!
0S!
0?
1A
1B
#110000
0!
03
0=
0>
#115000
1!
13
1=
1>
0@
15!
06!
1O!
0N!
1S!
1?
0A
0B
1C
1D
1B
0C
0D
#120000
0!
03
0=
0>
#125000
1!
13
1=
1>
1@
16!
0O!
0S!
0?
1A
0B
1C
1D
#130000
0!
03
0=
0>
#135000
1!
13
1=
1>
0@
05!
14!
06!
1O!
0M!
1N!
1S!
1?
0A
1B
0C
0D
1E
1F
1D
0E
0B
0F
#140000
0!
03
0=
0>
#145000
1!
13
1=
1>
1@
16!
0O!
0S!
0?
1A
1B
#150000
0!
03
0=
0>
#155000
1!
13
1=
1>
0@
15!
06!
1O!
0N!
1S!
1?
0A
0B
1C
0D
1E
1B
0C
1D
0E
1F
0F
#160000
0!
03
0=
0>
#165000
1!
13
1=
1>
1@
16!
0O!
0S!
0?
1A
0B
1C
0D
1E
1F
#170000
0!
03
0=
0>
#175000
1!
13
1=
1>
0@
05!
04!
13!
06!
1O!
0L!
1M!
1N!
1S!
1?
0A
1B
0C
1D
0E
0F
1G
1H
1F
0G
0D
0B
0H
#180000
0!
03
0=
0>
#185000
1!
13
1=
1>
1@
16!
0O!
0S!
0?
1A
1t
0U!
1B
1v
0z
#190000
0!
03
0=
0>
#195000
1!
13
1=
1>
0@
03!
06!
0{
1X!
1O!
1L!
1S!
1?
0A
0F
0t
1z
1U!
0;
0B
0v
0z
0)
#200000
0!
03
0=
0>
#205000
1!
13
1=
1>
1@
16!
0O!
0S!
0?
1A
1B
#210000
0!
03
0=
0>
#215000
1!
13
1=
1>
0@
15!
06!
1O!
0N!
1S!
1?
0A
0B
1C
1D
1B
0C
0D
#220000
0!
03
0=
0>
#225000
1!
13
1=
1>
1@
16!
0O!
0S!
0?
1A
0B
1C
1D
#230000
0!
03
0=
0>
#235000
1!
13
1=
1>
0@
05!
14!
06!
1O!
0M!
1N!
1S!
1?
0A
1B
0C
0D
1E
1F
1D
0E
0B
0F
#240000
0!
03
0=
0>
#245000
1!
13
1=
1>
1@
16!
0O!
0S!
0?
1A
1B
#250000
0!
03
0=
0>
#255000
1!
13
1=
1>
0@
15!
06!
1O!
0N!
1S!
1?
0A
0B
1C
0D
1E
1B
0C
1D
0E
1F
0F
#260000
0!
03
0=
0>
#265000
1!
13
1=
1>
1@
16!
0O!
0S!
0?
1A
0B
1C
0D
1E
1F
#270000
0!
03
0=
0>
#275000
1!
13
1=
1>
0@
05!
04!
13!
06!
1O!
0L!
1M!
1N!
1S!
1?
0A
1B
0C
1D
0E
0F
1G
1H
1F
0G
0D
0B
0H
#280000
0!
03
0=
0>
#285000
1!
13
1=
1>
1@
16!
0O!
0S!
0?
1A
1t
0U!
1B
1v
1z
#290000
0!
03
0=
0>
#295000
1!
13
1=
1>
0@
03!
06!
1{
0X!
1O!
1L!
1S!
1?
0A
0F
0t
0z
1U!
1;
0B
0v
1z
1)
#300000
0!
03
0=
0>
#305000
1!
13
1=
1>
1@
16!
0O!
0S!
0?
1A
1B
#310000
0!
03
0=
0>
#315000
1!
13
1=
1>
0@
15!
06!
1O!
0N!
1S!
1?
0A
0B
1C
1D
1B
0C
0D
#320000
0!
03
0=
0>
#325000
1!
13
1=
1>
1@
16!
0O!
0S!
0?
1A
0B
1C
1D
#330000
0!
03
0=
0>
#335000
1!
13
1=
1>
0@
05!
14!
06!
1O!
0M!
1N!
1S!
1?
0A
1B
0C
0D
1E
1F
1D
0E
0B
0F
#340000
0!
03
0=
0>
#345000
1!
13
1=
1>
1@
16!
0O!
0S!
0?
1A
1B
#350000
0!
03
0=
0>
#355000
1!
13
1=
1>
0@
15!
06!
1O!
0N!
1S!
1?
0A
0B
1C
0D
1E
1B
0C
1D
0E
1F
0F
#360000
0!
03
0=
0>
#365000
1!
13
1=
1>
1@
16!
0O!
0S!
0?
1A
0B
1C
0D
1E
1F
#370000
0!
03
0=
0>
#375000
1!
13
1=
1>
0@
05!
04!
13!
06!
1O!
0L!
1M!
1N!
1S!
1?
0A
1B
0C
1D
0E
0F
1G
1H
1F
0G
0D
0B
0H
#380000
0!
03
0=
0>
#385000
1!
13
1=
1>
1@
16!
0O!
0S!
0?
1A
1t
0U!
1B
1v
0z
#390000
0!
03
0=
0>
#395000
1!
13
1=
1>
0@
03!
06!
0{
1X!
1O!
1L!
1S!
1?
0A
0F
0t
1z
1U!
0;
0B
0v
0z
0)
#400000
0!
03
0=
0>
#405000
1!
13
1=
1>
1@
16!
0O!
0S!
0?
1A
1B
#410000
0!
03
0=
0>
#415000
1!
13
1=
1>
0@
15!
06!
1O!
0N!
1S!
1?
0A
0B
1C
1D
1B
0C
0D
#420000
0!
03
0=
0>
#425000
1!
13
1=
1>
1@
16!
0O!
0S!
0?
1A
0B
1C
1D
#430000
0!
03
0=
0>
#435000
1!
13
1=
1>
0@
05!
14!
06!
1O!
0M!
1N!
1S!
1?
0A
1B
0C
0D
1E
1F
1D
0E
0B
0F
#440000
0!
03
0=
0>
#445000
1!
13
1=
1>
1@
16!
0O!
0S!
0?
1A
1B
#450000
0!
03
0=
0>
#455000
1!
13
1=
1>
0@
15!
06!
1O!
0N!
1S!
1?
0A
0B
1C
0D
1E
1B
0C
1D
0E
1F
0F
#460000
0!
03
0=
0>
#465000
1!
13
1=
1>
1@
16!
0O!
0S!
0?
1A
0B
1C
0D
1E
1F
#470000
0!
03
0=
0>
#475000
1!
13
1=
1>
0@
05!
04!
13!
06!
1O!
0L!
1M!
1N!
1S!
1?
0A
1B
0C
1D
0E
0F
1G
1H
1F
0G
0D
0B
0H
#480000
0!
03
0=
0>
#485000
1!
13
1=
1>
1@
16!
0O!
0S!
0?
1A
1t
0U!
1B
1v
1z
#490000
0!
03
0=
0>
#495000
1!
13
1=
1>
0@
03!
06!
1{
0X!
1O!
1L!
1S!
1?
0A
0F
0t
0z
1U!
1;
0B
0v
1z
1)
#500000
0!
03
0=
0>
#505000
1!
13
1=
1>
1@
16!
0O!
0S!
0?
1A
1B
#510000
0!
03
0=
0>
#515000
1!
13
1=
1>
0@
15!
06!
1O!
0N!
1S!
1?
0A
0B
1C
1D
1B
0C
0D
#520000
0!
03
0=
0>
#525000
1!
13
1=
1>
1@
16!
0O!
0S!
0?
1A
0B
1C
1D
#530000
0!
03
0=
0>
#535000
1!
13
1=
1>
0@
05!
14!
06!
1O!
0M!
1N!
1S!
1?
0A
1B
0C
0D
1E
1F
1D
0E
0B
0F
#540000
0!
03
0=
0>
#545000
1!
13
1=
1>
1@
16!
0O!
0S!
0?
1A
1B
#550000
0!
03
0=
0>
#555000
1!
13
1=
1>
0@
15!
06!
1O!
0N!
1S!
1?
0A
0B
1C
0D
1E
1B
0C
1D
0E
1F
0F
#560000
0!
03
0=
0>
#565000
1!
13
1=
1>
1@
16!
0O!
0S!
0?
1A
0B
1C
0D
1E
1F
#570000
0!
03
0=
0>
#575000
1!
13
1=
1>
0@
05!
04!
13!
06!
1O!
0L!
1M!
1N!
1S!
1?
0A
1B
0C
1D
0E
0F
1G
1H
1F
0G
0D
0B
0H
#580000
0!
03
0=
0>
#585000
1!
13
1=
1>
1@
16!
0O!
0S!
0?
1A
1t
0U!
1B
1v
0z
#590000
0!
03
0=
0>
#595000
1!
13
1=
1>
0@
03!
06!
0{
1X!
1O!
1L!
1S!
1?
0A
0F
0t
1z
1U!
0;
0B
0v
0z
0)
#600000
0!
03
0=
0>
#605000
1!
13
1=
1>
1@
16!
0O!
0S!
0?
1A
1B
#610000
0!
03
0=
0>
#615000
1!
13
1=
1>
0@
15!
06!
1O!
0N!
1S!
1?
0A
0B
1C
1D
1B
0C
0D
#620000
0!
03
0=
0>
#625000
1!
13
1=
1>
1@
16!
0O!
0S!
0?
1A
0B
1C
1D
#630000
0!
03
0=
0>
#635000
1!
13
1=
1>
0@
05!
14!
06!
1O!
0M!
1N!
1S!
1?
0A
1B
0C
0D
1E
1F
1D
0E
0B
0F
#640000
0!
03
0=
0>
#645000
1!
13
1=
1>
1@
16!
0O!
0S!
0?
1A
1B
#650000
0!
03
0=
0>
#655000
1!
13
1=
1>
0@
15!
06!
1O!
0N!
1S!
1?
0A
0B
1C
0D
1E
1B
0C
1D
0E
1F
0F
#660000
0!
03
0=
0>
#665000
1!
13
1=
1>
1@
16!
0O!
0S!
0?
1A
0B
1C
0D
1E
1F
#670000
0!
03
0=
0>
#675000
1!
13
1=
1>
0@
05!
04!
13!
06!
1O!
0L!
1M!
1N!
1S!
1?
0A
1B
0C
1D
0E
0F
1G
1H
1F
0G
0D
0B
0H
#680000
0!
03
0=
0>
#685000
1!
13
1=
1>
1@
16!
0O!
0S!
0?
1A
1t
0U!
1B
1v
1z
#690000
0!
03
0=
0>
#695000
1!
13
1=
1>
0@
03!
06!
1{
0X!
1O!
1L!
1S!
1?
0A
0F
0t
0z
1U!
1;
0B
0v
1z
1)
#700000
0!
03
0=
0>
#705000
1!
13
1=
1>
1@
16!
0O!
0S!
0?
1A
1B
#710000
0!
03
0=
0>
#715000
1!
13
1=
1>
0@
15!
06!
1O!
0N!
1S!
1?
0A
0B
1C
1D
1B
0C
0D
#720000
0!
03
0=
0>
#725000
1!
13
1=
1>
1@
16!
0O!
0S!
0?
1A
0B
1C
1D
#730000
0!
03
0=
0>
#735000
1!
13
1=
1>
0@
05!
14!
06!
1O!
0M!
1N!
1S!
1?
0A
1B
0C
0D
1E
1F
1D
0E
0B
0F
#740000
0!
03
0=
0>
#745000
1!
13
1=
1>
1@
16!
0O!
0S!
0?
1A
1B
#750000
0!
03
0=
0>
#755000
1!
13
1=
1>
0@
15!
06!
1O!
0N!
1S!
1?
0A
0B
1C
0D
1E
1B
0C
1D
0E
1F
0F
#760000
0!
03
0=
0>
#765000
1!
13
1=
1>
1@
16!
0O!
0S!
0?
1A
0B
1C
0D
1E
1F
#770000
0!
03
0=
0>
#775000
1!
13
1=
1>
0@
05!
04!
13!
06!
1O!
0L!
1M!
1N!
1S!
1?
0A
1B
0C
1D
0E
0F
1G
1H
1F
0G
0D
0B
0H
#780000
0!
03
0=
0>
#785000
1!
13
1=
1>
1@
16!
0O!
0S!
0?
1A
1t
0U!
1B
1v
0z
#790000
0!
03
0=
0>
#795000
1!
13
1=
1>
0@
03!
06!
0{
1X!
1O!
1L!
1S!
1?
0A
0F
0t
1z
1U!
0;
0B
0v
0z
0)
#800000
0!
03
0=
0>
#805000
1!
13
1=
1>
1@
16!
0O!
0S!
0?
1A
1B
#810000
0!
03
0=
0>
#815000
1!
13
1=
1>
0@
15!
06!
1O!
0N!
1S!
1?
0A
0B
1C
1D
1B
0C
0D
#820000
0!
03
0=
0>
#825000
1!
13
1=
1>
1@
16!
0O!
0S!
0?
1A
0B
1C
1D
#830000
0!
03
0=
0>
#835000
1!
13
1=
1>
0@
05!
14!
06!
1O!
0M!
1N!
1S!
1?
0A
1B
0C
0D
1E
1F
1D
0E
0B
0F
#840000
0!
03
0=
0>
#845000
1!
13
1=
1>
1@
16!
0O!
0S!
0?
1A
1B
#850000
0!
03
0=
0>
#855000
1!
13
1=
1>
0@
15!
06!
1O!
0N!
1S!
1?
0A
0B
1C
0D
1E
1B
0C
1D
0E
1F
0F
#860000
0!
03
0=
0>
#865000
1!
13
1=
1>
1@
16!
0O!
0S!
0?
1A
0B
1C
0D
1E
1F
#870000
0!
03
0=
0>
#875000
1!
13
1=
1>
0@
05!
04!
13!
06!
1O!
0L!
1M!
1N!
1S!
1?
0A
1B
0C
1D
0E
0F
1G
1H
1F
0G
0D
0B
0H
#880000
0!
03
0=
0>
#885000
1!
13
1=
1>
1@
16!
0O!
0S!
0?
1A
1t
0U!
1B
1v
1z
#890000
0!
03
0=
0>
#895000
1!
13
1=
1>
0@
03!
06!
1{
0X!
1O!
1L!
1S!
1?
0A
0F
0t
0z
1U!
1;
0B
0v
1z
1)
#900000
0!
03
0=
0>
#905000
1!
13
1=
1>
1@
16!
0O!
0S!
0?
1A
1B
#910000
0!
03
0=
0>
#915000
1!
13
1=
1>
0@
15!
06!
1O!
0N!
1S!
1?
0A
0B
1C
1D
1B
0C
0D
#920000
0!
03
0=
0>
#925000
1!
13
1=
1>
1@
16!
0O!
0S!
0?
1A
0B
1C
1D
#930000
0!
03
0=
0>
#935000
1!
13
1=
1>
0@
05!
14!
06!
1O!
0M!
1N!
1S!
1?
0A
1B
0C
0D
1E
1F
1D
0E
0B
0F
#940000
0!
03
0=
0>
#945000
1!
13
1=
1>
1@
16!
0O!
0S!
0?
1A
1B
#950000
0!
03
0=
0>
#955000
1!
13
1=
1>
0@
15!
06!
1O!
0N!
1S!
1?
0A
0B
1C
0D
1E
1B
0C
1D
0E
1F
0F
#960000
0!
03
0=
0>
#965000
1!
13
1=
1>
1@
16!
0O!
0S!
0?
1A
0B
1C
0D
1E
1F
#970000
0!
03
0=
0>
#975000
1!
13
1=
1>
0@
05!
04!
13!
06!
1O!
0L!
1M!
1N!
1S!
1?
0A
1B
0C
1D
0E
0F
1G
1H
1F
0G
0D
0B
0H
#980000
0!
03
0=
0>
#985000
1!
13
1=
1>
1@
16!
0O!
0S!
0?
1A
1t
0U!
1B
1v
0z
#990000
0!
03
0=
0>
#995000
1!
13
1=
1>
0@
03!
06!
0{
1X!
1O!
1L!
1S!
1?
0A
0F
0t
1z
1U!
0;
0B
0v
0z
0)
