BME 393L/Lab 4/Prelab 1/simulation/qsim/Lab4_Prelab.msim.vcd
$comment
	File created using the following command:
		vcd file Lab4_Prelab.msim.vcd -direction
$end
$date
	Fri Feb 25 14:52:41 2022
$end
$version
	ModelSim Version 10.5b
$end
$timescale
	1ps
$end

$scope module lab4_prelab_vhd_vec_tst $end
$var wire 1 ! CLOCK_50_B5B $end
$var wire 1 " LEDG [7] $end
$var wire 1 # LEDG [6] $end
$var wire 1 $ LEDG [5] $end
$var wire 1 % LEDG [4] $end
$var wire 1 & LEDG [3] $end
$var wire 1 ' LEDG [2] $end
$var wire 1 ( LEDG [1] $end
$var wire 1 ) LEDG [0] $end

$scope module i1 $end
$var wire 1 * gnd $end
$var wire 1 + vcc $end
$var wire 1 , unknown $end
$var wire 1 - devoe $end
$var wire 1 . devclrn $end
$var wire 1 / devpor $end
$var wire 1 0 ww_devoe $end
$var wire 1 1 ww_devclrn $end
$var wire 1 2 ww_devpor $end
$var wire 1 3 ww_CLOCK_50_B5B $end
$var wire 1 4 ww_LEDG [7] $end
$var wire 1 5 ww_LEDG [6] $end
$var wire 1 6 ww_LEDG [5] $end
$var wire 1 7 ww_LEDG [4] $end
$var wire 1 8 ww_LEDG [3] $end
$var wire 1 9 ww_LEDG [2] $end
$var wire 1 : ww_LEDG [1] $end
$var wire 1 ; ww_LEDG [0] $end
$var wire 1 < \~QUARTUS_CREATED_GND~I_combout\ $end
$var wire 1 = \CLOCK_50_B5B~input_o\ $end
$var wire 1 > \CLOCK_50_B5B~inputCLKENA0_outclk\ $end
$var wire 1 ? \Add0~57_sumout\ $end
$var wire 1 @ \counter[0]~DUPLICATE_q\ $end
$var wire 1 A \Add0~58\ $end
$var wire 1 B \Add0~125_sumout\ $end
$var wire 1 C \Add0~126\ $end
$var wire 1 D \Add0~121_sumout\ $end
$var wire 1 E \Add0~122\ $end
$var wire 1 F \Add0~117_sumout\ $end
$var wire 1 G \Add0~118\ $end
$var wire 1 H \Add0~113_sumout\ $end
$var wire 1 I \Add0~114\ $end
$var wire 1 J \Add0~109_sumout\ $end
$var wire 1 K \Add0~110\ $end
$var wire 1 L \Add0~105_sumout\ $end
$var wire 1 M \Add0~106\ $end
$var wire 1 N \Add0~101_sumout\ $end
$var wire 1 O \counter[7]~DUPLICATE_q\ $end
$var wire 1 P \Add0~102\ $end
$var wire 1 Q \Add0~97_sumout\ $end
$var wire 1 R \counter[8]~DUPLICATE_q\ $end
$var wire 1 S \Add0~98\ $end
$var wire 1 T \Add0~93_sumout\ $end
$var wire 1 U \counter[9]~DUPLICATE_q\ $end
$var wire 1 V \Add0~94\ $end
$var wire 1 W \Add0~89_sumout\ $end
$var wire 1 X \Add0~90\ $end
$var wire 1 Y \Add0~85_sumout\ $end
$var wire 1 Z \counter[11]~DUPLICATE_q\ $end
$var wire 1 [ \Add0~86\ $end
$var wire 1 \ \Add0~81_sumout\ $end
$var wire 1 ] \counter[12]~DUPLICATE_q\ $end
$var wire 1 ^ \Add0~82\ $end
$var wire 1 _ \Add0~61_sumout\ $end
$var wire 1 ` \counter[13]~DUPLICATE_q\ $end
$var wire 1 a \Add0~62\ $end
$var wire 1 b \Add0~65_sumout\ $end
$var wire 1 c \Add0~66\ $end
$var wire 1 d \Add0~69_sumout\ $end
$var wire 1 e \counter[15]~DUPLICATE_q\ $end
$var wire 1 f \Add0~70\ $end
$var wire 1 g \Add0~73_sumout\ $end
$var wire 1 h \counter[16]~DUPLICATE_q\ $end
$var wire 1 i \Add0~74\ $end
$var wire 1 j \Add0~77_sumout\ $end
$var wire 1 k \Add0~78\ $end
$var wire 1 l \Add0~33_sumout\ $end
$var wire 1 m \Add0~34\ $end
$var wire 1 n \Add0~37_sumout\ $end
$var wire 1 o \Add0~38\ $end
$var wire 1 p \Add0~41_sumout\ $end
$var wire 1 q \counter[20]~DUPLICATE_q\ $end
$var wire 1 r \Add0~42\ $end
$var wire 1 s \Add0~45_sumout\ $end
$var wire 1 t \counter[21]~DUPLICATE_q\ $end
$var wire 1 u \Add0~46\ $end
$var wire 1 v \Add0~49_sumout\ $end
$var wire 1 w \Add0~50\ $end
$var wire 1 x \Add0~53_sumout\ $end
$var wire 1 y \counter[23]~DUPLICATE_q\ $end
$var wire 1 z \Add0~54\ $end
$var wire 1 { \Add0~9_sumout\ $end
$var wire 1 | \Add0~10\ $end
$var wire 1 } \Add0~13_sumout\ $end
$var wire 1 ~ \Add0~14\ $end
$var wire 1 !! \Add0~17_sumout\ $end
$var wire 1 "! \Add0~18\ $end
$var wire 1 #! \Add0~21_sumout\ $end
$var wire 1 $! \Add0~22\ $end
$var wire 1 %! \Add0~25_sumout\ $end
$var wire 1 &! \Add0~26\ $end
$var wire 1 '! \Add0~29_sumout\ $end
$var wire 1 (! \Add0~30\ $end
$var wire 1 )! \Add0~1_sumout\ $end
$var wire 1 *! \Add0~2\ $end
$var wire 1 +! \Add0~5_sumout\ $end
$var wire 1 ,! \Equal0~0_combout\ $end
$var wire 1 -! \counter[19]~DUPLICATE_q\ $end
$var wire 1 .! \Equal0~2_combout\ $end
$var wire 1 /! \Equal0~3_combout\ $end
$var wire 1 0! \Equal0~1_combout\ $end
$var wire 1 1! \Equal0~4_combout\ $end
$var wire 1 2! \counter[4]~DUPLICATE_q\ $end
$var wire 1 3! \counter[2]~DUPLICATE_q\ $end
$var wire 1 4! \Equal0~5_combout\ $end
$var wire 1 5! \Equal0~6_combout\ $end
$var wire 1 6! \clock_1_Hz~0_combout\ $end
$var wire 1 7! \clock_1_Hz~q\ $end
$var wire 1 8! counter [31] $end
$var wire 1 9! counter [30] $end
$var wire 1 :! counter [29] $end
$var wire 1 ;! counter [28] $end
$var wire 1 <! counter [27] $end
$var wire 1 =! counter [26] $end
$var wire 1 >! counter [25] $end
$var wire 1 ?! counter [24] $end
$var wire 1 @! counter [23] $end
$var wire 1 A! counter [22] $end
$var wire 1 B! counter [21] $end
$var wire 1 C! counter [20] $end
$var wire 1 D! counter [19] $end
$var wire 1 E! counter [18] $end
$var wire 1 F! counter [17] $end
$var wire 1 G! counter [16] $end
$var wire 1 H! counter [15] $end
$var wire 1 I! counter [14] $end
$var wire 1 J! counter [13] $end
$var wire 1 K! counter [12] $end
$var wire 1 L! counter [11] $end
$var wire 1 M! counter [10] $end
$var wire 1 N! counter [9] $end
$var wire 1 O! counter [8] $end
$var wire 1 P! counter [7] $end
$var wire 1 Q! counter [6] $end
$var wire 1 R! counter [5] $end
$var wire 1 S! counter [4] $end
$var wire 1 T! counter [3] $end
$var wire 1 U! counter [2] $end
$var wire 1 V! counter [1] $end
$var wire 1 W! counter [0] $end
$var wire 1 X! ALT_INV_counter [31] $end
$var wire 1 Y! ALT_INV_counter [30] $end
$var wire 1 Z! ALT_INV_counter [29] $end
$var wire 1 [! ALT_INV_counter [28] $end
$var wire 1 \! ALT_INV_counter [27] $end
$var wire 1 ]! ALT_INV_counter [26] $end
$var wire 1 ^! ALT_INV_counter [25] $end
$var wire 1 _! ALT_INV_counter [24] $end
$var wire 1 `! ALT_INV_counter [23] $end
$var wire 1 a! ALT_INV_counter [22] $end
$var wire 1 b! ALT_INV_counter [21] $end
$var wire 1 c! ALT_INV_counter [20] $end
$var wire 1 d! ALT_INV_counter [19] $end
$var wire 1 e! ALT_INV_counter [18] $end
$var wire 1 f! ALT_INV_counter [17] $end
$var wire 1 g! ALT_INV_counter [16] $end
$var wire 1 h! ALT_INV_counter [15] $end
$var wire 1 i! ALT_INV_counter [14] $end
$var wire 1 j! ALT_INV_counter [13] $end
$var wire 1 k! ALT_INV_counter [12] $end
$var wire 1 l! ALT_INV_counter [11] $end
$var wire 1 m! ALT_INV_counter [10] $end
$var wire 1 n! ALT_INV_counter [9] $end
$var wire 1 o! ALT_INV_counter [8] $end
$var wire 1 p! ALT_INV_counter [7] $end
$var wire 1 q! ALT_INV_counter [6] $end
$var wire 1 r! ALT_INV_counter [5] $end
$var wire 1 s! ALT_INV_counter [4] $end
$var wire 1 t! ALT_INV_counter [3] $end
$var wire 1 u! ALT_INV_counter [2] $end
$var wire 1 v! ALT_INV_counter [1] $end
$var wire 1 w! ALT_INV_counter [0] $end
$var wire 1 x! \ALT_INV_counter[2]~DUPLICATE_q\ $end
$var wire 1 y! \ALT_INV_counter[4]~DUPLICATE_q\ $end
$var wire 1 z! \ALT_INV_counter[7]~DUPLICATE_q\ $end
$var wire 1 {! \ALT_INV_counter[8]~DUPLICATE_q\ $end
$var wire 1 |! \ALT_INV_counter[9]~DUPLICATE_q\ $end
$var wire 1 }! \ALT_INV_counter[11]~DUPLICATE_q\ $end
$var wire 1 ~! \ALT_INV_counter[12]~DUPLICATE_q\ $end
$var wire 1 !" \ALT_INV_counter[16]~DUPLICATE_q\ $end
$var wire 1 "" \ALT_INV_counter[15]~DUPLICATE_q\ $end
$var wire 1 #" \ALT_INV_counter[13]~DUPLICATE_q\ $end
$var wire 1 $" \ALT_INV_counter[0]~DUPLICATE_q\ $end
$var wire 1 %" \ALT_INV_counter[23]~DUPLICATE_q\ $end
$var wire 1 &" \ALT_INV_counter[21]~DUPLICATE_q\ $end
$var wire 1 '" \ALT_INV_counter[20]~DUPLICATE_q\ $end
$var wire 1 (" \ALT_INV_counter[19]~DUPLICATE_q\ $end
$var wire 1 )" \ALT_INV_Equal0~6_combout\ $end
$var wire 1 *" \ALT_INV_Equal0~5_combout\ $end
$var wire 1 +" \ALT_INV_Equal0~4_combout\ $end
$var wire 1 ," \ALT_INV_Equal0~3_combout\ $end
$var wire 1 -" \ALT_INV_Equal0~2_combout\ $end
$var wire 1 ." \ALT_INV_Equal0~1_combout\ $end
$var wire 1 /" \ALT_INV_Equal0~0_combout\ $end
$var wire 1 0" \ALT_INV_clock_1_Hz~q\ $end
$upscope $end
$upscope $end
$enddefinitions $end
#0
$dumpvars
0!
0*
1+
x,
1-
1.
1/
10
11
12
03
x<
0=
0>
1?
0@
0A
0B
0C
0D
0E
0F
0G
0H
0I
0J
0K
0L
0M
0N
0O
0P
0Q
0R
0S
0T
0U
0V
0W
0X
0Y
0Z
0[
0\
0]
0^
0_
0`
0a
0b
0c
0d
0e
0f
0g
0h
0i
0j
0k
0l
0m
0n
0o
0p
0q
0r
0s
0t
0u
0v
0w
0x
0y
0z
0{
0|
0}
0~
0!!
0"!
0#!
0$!
0%!
0&!
0'!
0(!
0)!
0*!
0+!
1,!
0-!
0.!
0/!
00!
01!
02!
03!
04!
05!
06!
07!
1x!
1y!
1z!
1{!
1|!
1}!
1~!
1!"
1""
1#"
1$"
1%"
1&"
1'"
1("
1)"
1*"
1+"
1,"
1-"
1."
0/"
10"
04
05
06
07
08
09
0:
0;
08!
09!
0:!
0;!
0<!
0=!
0>!
0?!
0@!
0A!
0B!
0C!
0D!
0E!
0F!
0G!
0H!
0I!
0J!
0K!
0L!
0M!
0N!
0O!
0P!
0Q!
0R!
0S!
0T!
0U!
0V!
0W!
1X!
1Y!
1Z!
1[!
1\!
1]!
1^!
1_!
1`!
1a!
1b!
1c!
1d!
1e!
1f!
1g!
1h!
1i!
1j!
1k!
1l!
1m!
1n!
1o!
1p!
1q!
1r!
1s!
1t!
1u!
1v!
1w!
0"
0#
0$
0%
0&
0'
0(
0)
$end
#500
1!
13
1=
1>
1@
1W!
0w!
0$"
0?
1A
1B
#1000
0!
03
0=
0>
#1500
1!
13
1=
1>
0@
1V!
0W!
1w!
0v!
1$"
1?
0A
0B
1C
1D
1B
0C
0D
#2000
0!
03
0=
0>
#2500
1!
13
1=
1>
1@
1W!
0w!
0$"
0?
1A
0B
1C
1D
#3000
0!
03
0=
0>
#3500
1!
13
1=
1>
0@
0V!
1U!
0W!
13!
0x!
1w!
0u!
1v!
1$"
1?
0A
1B
0C
0D
1E
1F
1D
0E
0B
0F
#4000
0!
03
0=
0>
#4500
1!
13
1=
1>
1@
1W!
0w!
0$"
0?
1A
1B
#5000
0!
03
0=
0>
#5500
1!
13
1=
1>
0@
1V!
0W!
1w!
0v!
1$"
1?
0A
0B
1C
0D
1E
1B
0C
1D
0E
1F
0F
#6000
0!
03
0=
0>
#6500
1!
13
1=
1>
1@
1W!
0w!
0$"
0?
1A
0B
1C
0D
1E
1F
#7000
0!
03
0=
0>
#7500
1!
13
1=
1>
0@
0V!
0U!
1T!
0W!
03!
1x!
1w!
0t!
1u!
1v!
1$"
1?
0A
1B
0C
1D
0E
0F
1G
1H
1F
0G
0D
0B
0H
#8000
0!
03
0=
0>
#8500
1!
13
1=
1>
1@
1W!
0w!
0$"
0?
1A
1B
#9000
0!
03
0=
0>
#9500
1!
13
1=
1>
0@
1V!
0W!
1w!
0v!
1$"
1?
0A
0B
1C
1D
1B
0C
0D
#10000
0!
03
0=
0>
#10500
1!
13
1=
1>
1@
1W!
0w!
0$"
0?
1A
0B
1C
1D
#11000
0!
03
0=
0>
#11500
1!
13
1=
1>
0@
0V!
1U!
0W!
13!
0x!
1w!
0u!
1v!
1$"
1?
0A
1B
0C
0D
1E
0F
1G
1D
0E
0B
1F
0G
1H
0H
#12000
0!
03
0=
0>
#12500
1!
13
1=
1>
1@
1W!
0w!
0$"
0?
1A
1B
#13000
0!
03
0=
0>
#13500
1!
13
1=
1>
0@
1V!
0W!
1w!
0v!
1$"
1?
0A
0B
1C
0D
1E
1B
0C
1D
0E
0F
1G
1H
1F
0G
0H
#14000
0!
03
0=
0>
#14500
1!
13
1=
1>
1@
1W!
0w!
0$"
0?
1A
0B
1C
0D
1E
0F
1G
1H
#15000
0!
03
0=
0>
#15500
1!
13
1=
1>
0@
0V!
0U!
0T!
1S!
0W!
12!
03!
1x!
0y!
1w!
0s!
1t!
1u!
1v!
1$"
1?
0A
1B
0C
1D
0E
1F
0G
0H
1I
1J
1H
0I
0F
0D
0B
0J
#16000
0!
03
0=
0>
#16500
1!
13
1=
1>
1@
1W!
0w!
0$"
0?
1A
1B
#17000
0!
03
0=
0>
#17500
1!
13
1=
1>
0@
1V!
0W!
1w!
0v!
1$"
1?
0A
0B
1C
1D
1B
0C
0D
#18000
0!
03
0=
0>
#18500
1!
13
1=
1>
1@
1W!
0w!
0$"
0?
1A
0B
1C
1D
#19000
0!
03
0=
0>
#19500
1!
13
1=
1>
0@
0V!
1U!
0W!
13!
0x!
1w!
0u!
1v!
1$"
1?
0A
1B
0C
0D
1E
1F
1D
0E
0B
0F
#20000
0!
03
0=
0>
#20500
1!
13
1=
1>
1@
1W!
0w!
0$"
0?
1A
1B
#21000
0!
03
0=
0>
#21500
1!
13
1=
1>
0@
1V!
0W!
1w!
0v!
1$"
1?
0A
0B
1C
0D
1E
1B
0C
1D
0E
1F
0F
#22000
0!
03
0=
0>
#22500
1!
13
1=
1>
1@
1W!
0w!
0$"
0?
1A
0B
1C
0D
1E
1F
#23000
0!
03
0=
0>
#23500
1!
13
1=
1>
0@
0V!
0U!
1T!
0W!
03!
1x!
1w!
0t!
1u!
1v!
1$"
1?
0A
1B
0C
1D
0E
0F
1G
0H
1I
1F
0G
0D
0B
1H
0I
1J
0J
#24000
0!
03
0=
0>
#24500
1!
13
1=
1>
1@
1W!
0w!
0$"
0?
1A
1B
#25000
0!
03
0=
0>
#25500
1!
13
1=
1>
0@
1V!
0W!
1w!
0v!
1$"
1?
0A
0B
1C
1D
1B
0C
0D
#26000
0!
03
0=
0>
#26500
1!
13
1=
1>
1@
1W!
0w!
0$"
0?
1A
0B
1C
1D
#27000
0!
03
0=
0>
#27500
1!
13
1=
1>
0@
0V!
1U!
0W!
13!
0x!
1w!
0u!
1v!
1$"
1?
0A
1B
0C
0D
1E
0F
1G
1D
0E
0B
1F
0G
0H
1I
1J
1H
0I
0J
#28000
0!
03
0=
0>
#28500
1!
13
1=
1>
1@
1W!
0w!
0$"
0?
1A
1B
#29000
0!
03
0=
0>
#29500
1!
13
1=
1>
0@
1V!
0W!
1w!
0v!
1$"
1?
0A
0B
1C
0D
1E
1B
0C
1D
0E
0F
1G
0H
1I
1F
0G
1H
0I
1J
0J
#30000
0!
03
0=
0>
#30500
1!
13
1=
1>
1@
1W!
0w!
0$"
0?
1A
0B
1C
0D
1E
0F
1G
0H
1I
1J
#31000
0!
03
0=
0>
#31500
1!
13
1=
1>
0@
0V!
0U!
0T!
0S!
1R!
0W!
02!
03!
1x!
1y!
1w!
0r!
1s!
1t!
1u!
1v!
1$"
1?
0A
1B
0C
1D
0E
1F
0G
1H
0I
0J
1K
1L
1J
0K
0H
0F
0D
0B
0L
#32000
0!
03
0=
0>
#32500
1!
13
1=
1>
1@
1W!
0w!
0$"
0?
1A
1B
#33000
0!
03
0=
0>
#33500
1!
13
1=
1>
0@
1V!
0W!
1w!
0v!
1$"
1?
0A
0B
1C
1D
1B
0C
0D
#34000
0!
03
0=
0>
#34500
1!
13
1=
1>
1@
1W!
0w!
0$"
0?
1A
0B
1C
1D
#35000
0!
03
0=
0>
#35500
1!
13
1=
1>
0@
0V!
1U!
0W!
13!
0x!
1w!
0u!
1v!
1$"
1?
0A
1B
0C
0D
1E
1F
1D
0E
0B
0F
#36000
0!
03
0=
0>
#36500
1!
13
1=
1>
1@
1W!
0w!
0$"
0?
1A
1B
#37000
0!
03
0=
0>
#37500
1!
13
1=
1>
0@
1V!
0W!
1w!
0v!
1$"
1?
0A
0B
1C
0D
1E
1B
0C
1D
0E
1F
0F
#38000
0!
03
0=
0>
#38500
1!
13
1=
1>
1@
1W!
0w!
0$"
0?
1A
0B
1C
0D
1E
1F
#39000
0!
03
0=
0>
#39500
1!
13
1=
1>
0@
0V!
0U!
1T!
0W!
03!
1x!
1w!
0t!
1u!
1v!
1$"
1?
0A
1B
0C
1D
0E
0F
1G
1H
1F
0G
0D
0B
0H
#40000
0!
03
0=
0>
#40500
1!
13
1=
1>
1@
1W!
0w!
0$"
0?
1A
1B
#41000
0!
03
0=
0>
#41500
1!
13
1=
1>
0@
1V!
0W!
1w!
0v!
1$"
1?
0A
0B
1C
1D
1B
0C
0D
#42000
0!
03
0=
0>
#42500
1!
13
1=
1>
1@
1W!
0w!
0$"
0?
1A
0B
1C
1D
#43000
0!
03
0=
0>
#43500
1!
13
1=
1>
0@
0V!
1U!
0W!
13!
0x!
1w!
0u!
1v!
1$"
1?
0A
1B
0C
0D
1E
0F
1G
1D
0E
0B
1F
0G
1H
0H
#44000
0!
03
0=
0>
#44500
1!
13
1=
1>
1@
1W!
0w!
0$"
0?
1A
1B
#45000
0!
03
0=
0>
#45500
1!
13
1=
1>
0@
1V!
0W!
1w!
0v!
1$"
1?
0A
0B
1C
0D
1E
1B
0C
1D
0E
0F
1G
1H
1F
0G
0H
#46000
0!
03
0=
0>
#46500
1!
13
1=
1>
1@
1W!
0w!
0$"
0?
1A
0B
1C
0D
1E
0F
1G
1H
#47000
0!
03
0=
0>
#47500
1!
13
1=
1>
0@
0V!
0U!
0T!
1S!
0W!
12!
03!
1x!
0y!
1w!
0s!
1t!
1u!
1v!
1$"
1?
0A
1B
0C
1D
0E
1F
0G
0H
1I
0J
1K
1H
0I
0F
0D
0B
1J
0K
1L
0L
#48000
0!
03
0=
0>
#48500
1!
13
1=
1>
1@
1W!
0w!
0$"
0?
1A
1B
#49000
0!
03
0=
0>
#49500
1!
13
1=
1>
0@
1V!
0W!
1w!
0v!
1$"
1?
0A
0B
1C
1D
1B
0C
0D
#50000
0!
03
0=
0>
#50500
1!
13
1=
1>
1@
1W!
0w!
0$"
0?
1A
0B
1C
1D
#51000
0!
03
0=
0>
#51500
1!
13
1=
1>
0@
0V!
1U!
0W!
13!
0x!
1w!
0u!
1v!
1$"
1?
0A
1B
0C
0D
1E
1F
1D
0E
0B
0F
#52000
0!
03
0=
0>
#52500
1!
13
1=
1>
1@
1W!
0w!
0$"
0?
1A
1B
#53000
0!
03
0=
0>
#53500
1!
13
1=
1>
0@
1V!
0W!
1w!
0v!
1$"
1?
0A
0B
1C
0D
1E
1B
0C
1D
0E
1F
0F
#54000
0!
03
0=
0>
#54500
1!
13
1=
1>
1@
1W!
0w!
0$"
0?
1A
0B
1C
0D
1E
1F
#55000
0!
03
0=
0>
#55500
1!
13
1=
1>
0@
0V!
0U!
1T!
0W!
03!
1x!
1w!
0t!
1u!
1v!
1$"
1?
0A
1B
0C
1D
0E
0F
1G
0H
1I
1F
0G
0D
0B
1H
0I
0J
1K
1L
1J
0K
0L
#56000
0!
03
0=
0>
#56500
1!
13
1=
1>
1@
1W!
0w!
0$"
0?
1A
1B
#57000
0!
03
0=
0>
#57500
1!
13
1=
1>
0@
1V!
0W!
1w!
0v!
1$"
1?
0A
0B
1C
1D
1B
0C
0D
#58000
0!
03
0=
0>
#58500
1!
13
1=
1>
1@
1W!
0w!
0$"
0?
1A
0B
1C
1D
#59000
0!
03
0=
0>
#59500
1!
13
1=
1>
0@
0V!
1U!
0W!
13!
0x!
1w!
0u!
1v!
1$"
1?
0A
1B
0C
0D
1E
0F
1G
1D
0E
0B
1F
0G
0H
1I
0J
1K
1H
0I
1J
0K
1L
0L
#60000
0!
03
0=
0>
#60500
1!
13
1=
1>
1@
1W!
0w!
0$"
0?
1A
1B
#61000
0!
03
0=
0>
#61500
1!
13
1=
1>
0@
1V!
0W!
1w!
0v!
1$"
1?
0A
0B
1C
14!
0*"
0D
1E
1B
0C
1D
0E
0F
1G
0H
1I
1F
0G
1H
0I
0J
1K
1L
1J
0K
0L
#62000
0!
03
0=
0>
#62500
1!
13
1=
1>
1@
1W!
0w!
0$"
0?
1A
0B
1C
0D
1E
0F
1G
0H
1I
0J
1K
1L
#63000
0!
03
0=
0>
#63500
1!
13
1=
1>
0@
0V!
0U!
0T!
0S!
0R!
1Q!
0W!
02!
03!
1x!
1y!
1w!
0q!
1r!
1s!
1t!
1u!
1v!
1$"
1?
0A
1B
0C
1D
0E
1F
0G
1H
0I
1J
0K
0L
1M
04!
1*"
1N
1L
0M
0J
0H
0F
0D
0B
0N
#64000
0!
03
0=
0>
#64500
1!
13
1=
1>
1@
1W!
0w!
0$"
0?
1A
1B
#65000
0!
03
0=
0>
#65500
1!
13
1=
1>
0@
1V!
0W!
1w!
0v!
1$"
1?
0A
0B
1C
1D
1B
0C
0D
#66000
0!
03
0=
0>
#66500
1!
13
1=
1>
1@
1W!
0w!
0$"
0?
1A
0B
1C
1D
#67000
0!
03
0=
0>
#67500
1!
13
1=
1>
0@
0V!
1U!
0W!
13!
0x!
1w!
0u!
1v!
1$"
1?
0A
1B
0C
0D
1E
1F
1D
0E
0B
0F
#68000
0!
03
0=
0>
#68500
1!
13
1=
1>
1@
1W!
0w!
0$"
0?
1A
1B
#69000
0!
03
0=
0>
#69500
1!
13
1=
1>
0@
1V!
0W!
1w!
0v!
1$"
1?
0A
0B
1C
0D
1E
1B
0C
1D
0E
1F
0F
#70000
0!
03
0=
0>
#70500
1!
13
1=
1>
1@
1W!
0w!
0$"
0?
1A
0B
1C
0D
1E
1F
#71000
0!
03
0=
0>
#71500
1!
13
1=
1>
0@
0V!
0U!
1T!
0W!
03!
1x!
1w!
0t!
1u!
1v!
1$"
1?
0A
1B
0C
1D
0E
0F
1G
1H
1F
0G
0D
0B
0H
#72000
0!
03
0=
0>
#72500
1!
13
1=
1>
1@
1W!
0w!
0$"
0?
1A
1B
#73000
0!
03
0=
0>
#73500
1!
13
1=
1>
0@
1V!
0W!
1w!
0v!
1$"
1?
0A
0B
1C
1D
1B
0C
0D
#74000
0!
03
0=
0>
#74500
1!
13
1=
1>
1@
1W!
0w!
0$"
0?
1A
0B
1C
1D
#75000
0!
03
0=
0>
#75500
1!
13
1=
1>
0@
0V!
1U!
0W!
13!
0x!
1w!
0u!
1v!
1$"
1?
0A
1B
0C
0D
1E
0F
1G
1D
0E
0B
1F
0G
1H
0H
#76000
0!
03
0=
0>
#76500
1!
13
1=
1>
1@
1W!
0w!
0$"
0?
1A
1B
#77000
0!
03
0=
0>
#77500
1!
13
1=
1>
0@
1V!
0W!
1w!
0v!
1$"
1?
0A
0B
1C
0D
1E
1B
0C
1D
0E
0F
1G
1H
1F
0G
0H
#78000
0!
03
0=
0>
#78500
1!
13
1=
1>
1@
1W!
0w!
0$"
0?
1A
0B
1C
0D
1E
0F
1G
1H
#79000
0!
03
0=
0>
#79500
1!
13
1=
1>
0@
0V!
0U!
0T!
1S!
0W!
12!
03!
1x!
0y!
1w!
0s!
1t!
1u!
1v!
1$"
1?
0A
1B
0C
1D
0E
1F
0G
0H
1I
1J
1H
0I
0F
0D
0B
0J
#80000
0!
03
0=
0>
#80500
1!
13
1=
1>
1@
1W!
0w!
0$"
0?
1A
1B
#81000
0!
03
0=
0>
#81500
1!
13
1=
1>
0@
1V!
0W!
1w!
0v!
1$"
1?
0A
0B
1C
1D
1B
0C
0D
#82000
0!
03
0=
0>
#82500
1!
13
1=
1>
1@
1W!
0w!
0$"
0?
1A
0B
1C
1D
#83000
0!
03
0=
0>
#83500
1!
13
1=
1>
0@
0V!
1U!
0W!
13!
0x!
1w!
0u!
1v!
1$"
1?
0A
1B
0C
0D
1E
1F
1D
0E
0B
0F
#84000
0!
03
0=
0>
#84500
1!
13
1=
1>
1@
1W!
0w!
0$"
0?
1A
1B
#85000
0!
03
0=
0>
#85500
1!
13
1=
1>
0@
1V!
0W!
1w!
0v!
1$"
1?
0A
0B
1C
0D
1E
1B
0C
1D
0E
1F
0F
#86000
0!
03
0=
0>
#86500
1!
13
1=
1>
1@
1W!
0w!
0$"
0?
1A
0B
1C
0D
1E
1F
#87000
0!
03
0=
0>
#87500
1!
13
1=
1>
0@
0V!
0U!
1T!
0W!
03!
1x!
1w!
0t!
1u!
1v!
1$"
1?
0A
1B
0C
1D
0E
0F
1G
0H
1I
1F
0G
0D
0B
1H
0I
1J
0J
#88000
0!
03
0=
0>
#88500
1!
13
1=
1>
1@
1W!
0w!
0$"
0?
1A
1B
#89000
0!
03
0=
0>
#89500
1!
13
1=
1>
0@
1V!
0W!
1w!
0v!
1$"
1?
0A
0B
1C
1D
1B
0C
0D
#90000
0!
03
0=
0>
#90500
1!
13
1=
1>
1@
1W!
0w!
0$"
0?
1A
0B
1C
1D
#91000
0!
03
0=
0>
#91500
1!
13
1=
1>
0@
0V!
1U!
0W!
13!
0x!
1w!
0u!
1v!
1$"
1?
0A
1B
0C
0D
1E
0F
1G
1D
0E
0B
1F
0G
0H
1I
1J
1H
0I
0J
#92000
0!
03
0=
0>
#92500
1!
13
1=
1>
1@
1W!
0w!
0$"
0?
1A
1B
#93000
0!
03
0=
0>
#93500
1!
13
1=
1>
0@
1V!
0W!
1w!
0v!
1$"
1?
0A
0B
1C
0D
1E
1B
0C
1D
0E
0F
1G
0H
1I
1F
0G
1H
0I
1J
0J
#94000
0!
03
0=
0>
#94500
1!
13
1=
1>
1@
1W!
0w!
0$"
0?
1A
0B
1C
0D
1E
0F
1G
0H
1I
1J
#95000
0!
03
0=
0>
#95500
1!
13
1=
1>
0@
0V!
0U!
0T!
0S!
1R!
0W!
02!
03!
1x!
1y!
1w!
0r!
1s!
1t!
1u!
1v!
1$"
1?
0A
1B
0C
1D
0E
1F
0G
1H
0I
0J
1K
0L
1M
1J
0K
0H
0F
0D
0B
1L
0M
1N
0N
#96000
0!
03
0=
0>
#96500
1!
13
1=
1>
1@
1W!
0w!
0$"
0?
1A
1B
#97000
0!
03
0=
0>
#97500
1!
13
1=
1>
0@
1V!
0W!
1w!
0v!
1$"
1?
0A
0B
1C
1D
1B
0C
0D
#98000
0!
03
0=
0>
#98500
1!
13
1=
1>
1@
1W!
0w!
0$"
0?
1A
0B
1C
1D
#99000
0!
03
0=
0>
#99500
1!
13
1=
1>
0@
0V!
1U!
0W!
13!
0x!
1w!
0u!
1v!
1$"
1?
0A
1B
0C
0D
1E
1F
1D
0E
0B
0F
#100000
0!
03
0=
0>
#100500
1!
13
1=
1>
1@
1W!
0w!
0$"
0?
1A
1B
#101000
0!
03
0=
0>
#101500
1!
13
1=
1>
0@
1V!
0W!
1w!
0v!
1$"
1?
0A
0B
1C
0D
1E
1B
0C
1D
0E
1F
0F
#102000
0!
03
0=
0>
#102500
1!
13
1=
1>
1@
1W!
0w!
0$"
0?
1A
0B
1C
0D
1E
1F
#103000
0!
03
0=
0>
#103500
1!
13
1=
1>
0@
0V!
0U!
1T!
0W!
03!
1x!
1w!
0t!
1u!
1v!
1$"
1?
0A
1B
0C
1D
0E
0F
1G
1H
1F
0G
0D
0B
0H
#104000
0!
03
0=
0>
#104500
1!
13
1=
1>
1@
1W!
0w!
0$"
0?
1A
1B
#105000
0!
03
0=
0>
#105500
1!
13
1=
1>
0@
1V!
0W!
1w!
0v!
1$"
1?
0A
0B
1C
1D
1B
0C
0D
#106000
0!
03
0=
0>
#106500
1!
13
1=
1>
1@
1W!
0w!
0$"
0?
1A
0B
1C
1D
#107000
0!
03
0=
0>
#107500
1!
13
1=
1>
0@
0V!
1U!
0W!
13!
0x!
1w!
0u!
1v!
1$"
1?
0A
1B
0C
0D
1E
0F
1G
1D
0E
0B
1F
0G
1H
0H
#108000
0!
03
0=
0>
#108500
1!
13
1=
1>
1@
1W!
0w!
0$"
0?
1A
1B
#109000
0!
03
0=
0>
#109500
1!
13
1=
1>
0@
1V!
0W!
1w!
0v!
1$"
1?
0A
0B
1C
0D
1E
1B
0C
1D
0E
0F
1G
1H
1F
0G
0H
#110000
0!
03
0=
0>
#110500
1!
13
1=
1>
1@
1W!
0w!
0$"
0?
1A
0B
1C
0D
1E
0F
1G
1H
#111000
0!
03
0=
0>
#111500
1!
13
1=
1>
0@
0V!
0U!
0T!
1S!
0W!
12!
03!
1x!
0y!
1w!
0s!
1t!
1u!
1v!
1$"
1?
0A
1B
0C
1D
0E
1F
0G
0H
1I
0J
1K
1H
0I
0F
0D
0B
1J
0K
0L
1M
1N
1L
0M
0N
