BME 393L/Project/stationary_letter/simulation/qsim/stationary_letter.msim.vcd
$comment
	File created using the following command:
		vcd file stationary_letter.msim.vcd -direction
$end
$date
	Fri Mar 04 20:48:43 2022
$end
$version
	ModelSim Version 10.5b
$end
$timescale
	1ps
$end

$scope module stationary_letter_vhd_vec_tst $end
$var wire 1 ! CLOCK_50_B5B $end
$var wire 1 " GPIO [35] $end
$var wire 1 # GPIO [34] $end
$var wire 1 $ GPIO [33] $end
$var wire 1 % GPIO [32] $end
$var wire 1 & GPIO [31] $end
$var wire 1 ' GPIO [30] $end
$var wire 1 ( GPIO [29] $end
$var wire 1 ) GPIO [28] $end
$var wire 1 * GPIO [27] $end
$var wire 1 + GPIO [26] $end
$var wire 1 , GPIO [25] $end
$var wire 1 - GPIO [24] $end
$var wire 1 . GPIO [23] $end
$var wire 1 / GPIO [22] $end
$var wire 1 0 GPIO [21] $end
$var wire 1 1 GPIO [20] $end
$var wire 1 2 GPIO [19] $end
$var wire 1 3 GPIO [18] $end
$var wire 1 4 GPIO [17] $end
$var wire 1 5 GPIO [16] $end
$var wire 1 6 GPIO [15] $end
$var wire 1 7 GPIO [14] $end
$var wire 1 8 GPIO [13] $end
$var wire 1 9 GPIO [12] $end
$var wire 1 : GPIO [11] $end
$var wire 1 ; GPIO [10] $end
$var wire 1 < GPIO [9] $end
$var wire 1 = GPIO [8] $end
$var wire 1 > GPIO [7] $end
$var wire 1 ? GPIO [6] $end
$var wire 1 @ GPIO [5] $end
$var wire 1 A GPIO [4] $end
$var wire 1 B GPIO [3] $end
$var wire 1 C GPIO [2] $end
$var wire 1 D GPIO [1] $end
$var wire 1 E GPIO [0] $end

$scope module i1 $end
$var wire 1 F gnd $end
$var wire 1 G vcc $end
$var wire 1 H unknown $end
$var wire 1 I devoe $end
$var wire 1 J devclrn $end
$var wire 1 K devpor $end
$var wire 1 L ww_devoe $end
$var wire 1 M ww_devclrn $end
$var wire 1 N ww_devpor $end
$var wire 1 O ww_CLOCK_50_B5B $end
$var wire 1 P ww_GPIO [35] $end
$var wire 1 Q ww_GPIO [34] $end
$var wire 1 R ww_GPIO [33] $end
$var wire 1 S ww_GPIO [32] $end
$var wire 1 T ww_GPIO [31] $end
$var wire 1 U ww_GPIO [30] $end
$var wire 1 V ww_GPIO [29] $end
$var wire 1 W ww_GPIO [28] $end
$var wire 1 X ww_GPIO [27] $end
$var wire 1 Y ww_GPIO [26] $end
$var wire 1 Z ww_GPIO [25] $end
$var wire 1 [ ww_GPIO [24] $end
$var wire 1 \ ww_GPIO [23] $end
$var wire 1 ] ww_GPIO [22] $end
$var wire 1 ^ ww_GPIO [21] $end
$var wire 1 _ ww_GPIO [20] $end
$var wire 1 ` ww_GPIO [19] $end
$var wire 1 a ww_GPIO [18] $end
$var wire 1 b ww_GPIO [17] $end
$var wire 1 c ww_GPIO [16] $end
$var wire 1 d ww_GPIO [15] $end
$var wire 1 e ww_GPIO [14] $end
$var wire 1 f ww_GPIO [13] $end
$var wire 1 g ww_GPIO [12] $end
$var wire 1 h ww_GPIO [11] $end
$var wire 1 i ww_GPIO [10] $end
$var wire 1 j ww_GPIO [9] $end
$var wire 1 k ww_GPIO [8] $end
$var wire 1 l ww_GPIO [7] $end
$var wire 1 m ww_GPIO [6] $end
$var wire 1 n ww_GPIO [5] $end
$var wire 1 o ww_GPIO [4] $end
$var wire 1 p ww_GPIO [3] $end
$var wire 1 q ww_GPIO [2] $end
$var wire 1 r ww_GPIO [1] $end
$var wire 1 s ww_GPIO [0] $end
$var wire 1 t \~QUARTUS_CREATED_GND~I_combout\ $end
$var wire 1 u \CLOCK_50_B5B~input_o\ $end
$var wire 1 v \CLOCK_50_B5B~inputCLKENA0_outclk\ $end
$var wire 1 w \index[3]~1_combout\ $end
$var wire 1 x \index[3]~DUPLICATE_q\ $end
$var wire 1 y \Mux5~1_combout\ $end
$var wire 1 z \index[5]~0_combout\ $end
$var wire 1 { \Mux0~0_combout\ $end
$var wire 1 | \Mux0~1_combout\ $end
$var wire 1 } \Mux4~0_combout\ $end
$var wire 1 ~ \Mux5~0_combout\ $end
$var wire 1 !! \Mux6~0_combout\ $end
$var wire 1 "! \col_driver[1]~1_combout\ $end
$var wire 1 #! \col_driver[2]~feeder_combout\ $end
$var wire 1 $! \col_driver[3]~feeder_combout\ $end
$var wire 1 %! \col_driver[6]~feeder_combout\ $end
$var wire 1 &! \col_driver[7]~feeder_combout\ $end
$var wire 1 '! \col_driver[7]~DUPLICATE_q\ $end
$var wire 1 (! \col_driver[0]~0_combout\ $end
$var wire 1 )! \col_driver[3]~DUPLICATE_q\ $end
$var wire 1 *! \col_driver[4]~DUPLICATE_q\ $end
$var wire 1 +! \col_driver[5]~DUPLICATE_q\ $end
$var wire 1 ,! index [5] $end
$var wire 1 -! index [4] $end
$var wire 1 .! index [3] $end
$var wire 1 /! index [2] $end
$var wire 1 0! index [1] $end
$var wire 1 1! index [0] $end
$var wire 1 2! col_driver [0] $end
$var wire 1 3! col_driver [1] $end
$var wire 1 4! col_driver [2] $end
$var wire 1 5! col_driver [3] $end
$var wire 1 6! col_driver [4] $end
$var wire 1 7! col_driver [5] $end
$var wire 1 8! col_driver [6] $end
$var wire 1 9! col_driver [7] $end
$var wire 1 :! \ALT_INV_col_driver[7]~DUPLICATE_q\ $end
$var wire 1 ;! \ALT_INV_col_driver[5]~DUPLICATE_q\ $end
$var wire 1 <! \ALT_INV_col_driver[4]~DUPLICATE_q\ $end
$var wire 1 =! \ALT_INV_col_driver[3]~DUPLICATE_q\ $end
$var wire 1 >! \ALT_INV_index[3]~DUPLICATE_q\ $end
$var wire 1 ?! ALT_INV_col_driver [7] $end
$var wire 1 @! ALT_INV_col_driver [6] $end
$var wire 1 A! ALT_INV_col_driver [5] $end
$var wire 1 B! ALT_INV_col_driver [4] $end
$var wire 1 C! ALT_INV_col_driver [3] $end
$var wire 1 D! ALT_INV_col_driver [2] $end
$var wire 1 E! ALT_INV_col_driver [1] $end
$var wire 1 F! ALT_INV_col_driver [0] $end
$var wire 1 G! \ALT_INV_Mux5~0_combout\ $end
$var wire 1 H! \ALT_INV_Mux4~0_combout\ $end
$var wire 1 I! \ALT_INV_Mux0~1_combout\ $end
$var wire 1 J! \ALT_INV_Mux0~0_combout\ $end
$var wire 1 K! ALT_INV_index [5] $end
$var wire 1 L! ALT_INV_index [4] $end
$var wire 1 M! ALT_INV_index [3] $end
$upscope $end
$upscope $end
$enddefinitions $end
#0
$dumpvars
0!
0F
1G
xH
1I
1J
1K
1L
1M
1N
0O
xt
0u
0v
1w
0x
0y
0z
1{
0|
0}
0~
0!!
1"!
0#!
0$!
0%!
0&!
0'!
1(!
0)!
0*!
0+!
1:!
1;!
1<!
1=!
1>!
1G!
1H!
1I!
0J!
1P
0Q
1R
0S
1T
0U
1V
0W
1X
0Y
1Z
0[
1\
0]
0^
0_
0`
0a
0b
0c
0d
0e
0f
0g
1h
0i
1j
0k
1l
0m
1n
0o
1p
0q
0r
0s
0,!
0-!
0.!
x/!
x0!
x1!
02!
03!
04!
05!
06!
07!
08!
09!
1?!
1@!
1A!
xB!
xC!
1D!
1E!
1F!
1K!
1L!
1M!
1"
0#
1$
0%
1&
0'
1(
0)
1*
0+
1,
0-
1.
0/
00
01
02
03
04
05
06
07
08
09
1:
0;
1<
0=
1>
0?
1@
0A
1B
0C
0D
0E
$end
#2500
1!
1O
1u
1v
1.!
1x
13!
12!
0F!
0E!
0>!
0M!
0w
1y
0{
1|
1}
1~
1!!
1#!
0"!
0G!
0H!
0I!
1J!
1^
0\
10
0.
1f
1r
0p
0n
0l
0j
0h
18
1D
0B
0@
0>
0<
0:
#5000
0!
0O
0u
0v
#7500
1!
1O
1u
1v
0.!
0x
1-!
03!
14!
0D!
1E!
0L!
1>!
1M!
1w
0}
0#!
1$!
1H!
1\
0Z
1.
0,
1j
1<
#10000
0!
0O
0u
0v
#12500
1!
1O
1u
1v
1.!
1x
04!
15!
1)!
0=!
1D!
0>!
0M!
0w
1z
0y
1}
0~
0!!
0$!
1G!
0H!
1Z
0X
1,
0*
0f
0j
1h
08
0<
1:
#15000
0!
0O
0u
0v
#17500
1!
1O
1u
1v
0.!
0x
0-!
1,!
05!
16!
0)!
1*!
0<!
1=!
0K!
1L!
1>!
1M!
1w
0|
1{
0}
1~
1!!
0G!
1H!
0J!
1I!
1X
0V
1*
0(
1f
1p
1n
1l
0r
1j
0h
18
0D
1B
1@
1>
1<
0:
#20000
0!
0O
0u
0v
#22500
1!
1O
1u
1v
1.!
1x
06!
17!
0*!
1+!
0;!
1<!
0A!
0>!
0M!
0w
1y
1|
1}
0!!
1%!
0H!
0I!
1V
0T
1(
0&
0f
0p
0n
0l
0j
08
0B
0@
0>
0<
#25000
0!
0O
0u
0v
#27500
1!
1O
1u
1v
0.!
0x
1-!
07!
18!
0+!
1;!
0@!
1A!
0L!
1>!
1M!
1w
0%!
1&!
0R
1T
1&
0$
#30000
0!
0O
0u
0v
#32500
1!
1O
1u
1v
1.!
1x
08!
1'!
19!
0?!
0:!
1@!
0>!
0M!
0w
0z
0y
0&!
0(!
1R
0P
1$
0"
#35000
0!
0O
0u
0v
#37500
1!
1O
1u
1v
0.!
0x
0-!
0,!
0'!
02!
09!
1?!
1F!
1:!
1K!
1L!
1>!
1M!
1w
0|
0}
0~
1(!
1"!
1G!
1H!
1I!
0^
1P
00
1"
1p
1n
1l
1j
1h
1B
1@
1>
1<
1:
#40000
0!
0O
0u
0v
#42500
1!
1O
1u
1v
1.!
1x
13!
12!
0F!
0E!
0>!
0M!
0w
1y
0{
1|
1}
1~
1!!
1#!
0"!
0G!
0H!
0I!
1J!
1^
0\
10
0.
1f
1r
0p
0n
0l
0j
0h
18
1D
0B
0@
0>
0<
0:
#45000
0!
0O
0u
0v
#47500
1!
1O
1u
1v
0.!
0x
1-!
03!
14!
0D!
1E!
0L!
1>!
1M!
1w
0}
0#!
1$!
1H!
1\
0Z
1.
0,
1j
1<
#50000
0!
0O
0u
0v
#52500
1!
1O
1u
1v
1.!
1x
04!
15!
1)!
0=!
1D!
0>!
0M!
0w
1z
0y
1}
0~
0!!
0$!
1G!
0H!
1Z
0X
1,
0*
0f
0j
1h
08
0<
1:
#55000
0!
0O
0u
0v
#57500
1!
1O
1u
1v
0.!
0x
0-!
1,!
05!
16!
0)!
1*!
0<!
1=!
0K!
1L!
1>!
1M!
1w
0|
1{
0}
1~
1!!
0G!
1H!
0J!
1I!
1X
0V
1*
0(
1f
1p
1n
1l
0r
1j
0h
18
0D
1B
1@
1>
1<
0:
#60000
0!
0O
0u
0v
#62500
1!
1O
1u
1v
1.!
1x
06!
17!
0*!
1+!
0;!
1<!
0A!
0>!
0M!
0w
1y
1|
1}
0!!
1%!
0H!
0I!
1V
0T
1(
0&
0f
0p
0n
0l
0j
08
0B
0@
0>
0<
#65000
0!
0O
0u
0v
#67500
1!
1O
1u
1v
0.!
0x
1-!
07!
18!
0+!
1;!
0@!
1A!
0L!
1>!
1M!
1w
0%!
1&!
0R
1T
1&
0$
#70000
0!
0O
0u
0v
#72500
1!
1O
1u
1v
1.!
1x
08!
1'!
19!
0?!
0:!
1@!
0>!
0M!
0w
0z
0y
0&!
0(!
1R
0P
1$
0"
#75000
0!
0O
0u
0v
#77500
1!
1O
1u
1v
0.!
0x
0-!
0,!
0'!
02!
09!
1?!
1F!
1:!
1K!
1L!
1>!
1M!
1w
0|
0}
0~
1(!
1"!
1G!
1H!
1I!
0^
1P
00
1"
1p
1n
1l
1j
1h
1B
1@
1>
1<
1:
#80000
0!
0O
0u
0v
#82500
1!
1O
1u
1v
1.!
1x
13!
12!
0F!
0E!
0>!
0M!
0w
1y
0{
1|
1}
1~
1!!
1#!
0"!
0G!
0H!
0I!
1J!
1^
0\
10
0.
1f
1r
0p
0n
0l
0j
0h
18
1D
0B
0@
0>
0<
0:
#85000
0!
0O
0u
0v
#87500
1!
1O
1u
1v
0.!
0x
1-!
03!
14!
0D!
1E!
0L!
1>!
1M!
1w
0}
0#!
1$!
1H!
1\
0Z
1.
0,
1j
1<
#90000
0!
0O
0u
0v
#92500
1!
1O
1u
1v
1.!
1x
04!
15!
1)!
0=!
1D!
0>!
0M!
0w
1z
0y
1}
0~
0!!
0$!
1G!
0H!
1Z
0X
1,
0*
0f
0j
1h
08
0<
1:
#95000
0!
0O
0u
0v
#97500
1!
1O
1u
1v
0.!
0x
0-!
1,!
05!
16!
0)!
1*!
0<!
1=!
0K!
1L!
1>!
1M!
1w
0|
1{
0}
1~
1!!
0G!
1H!
0J!
1I!
1X
0V
1*
0(
1f
1p
1n
1l
0r
1j
0h
18
0D
1B
1@
1>
1<
0:
#100000
0!
0O
0u
0v
#102500
1!
1O
1u
1v
1.!
1x
06!
17!
0*!
1+!
0;!
1<!
0A!
0>!
0M!
0w
1y
1|
1}
0!!
1%!
0H!
0I!
1V
0T
1(
0&
0f
0p
0n
0l
0j
08
0B
0@
0>
0<
#105000
0!
0O
0u
0v
#107500
1!
1O
1u
1v
0.!
0x
1-!
07!
18!
0+!
1;!
0@!
1A!
0L!
1>!
1M!
1w
0%!
1&!
0R
1T
1&
0$
#110000
0!
0O
0u
0v
#112500
1!
1O
1u
1v
1.!
1x
08!
1'!
19!
0?!
0:!
1@!
0>!
0M!
0w
0z
0y
0&!
0(!
1R
0P
1$
0"
#115000
0!
0O
0u
0v
#117500
1!
1O
1u
1v
0.!
0x
0-!
0,!
0'!
02!
09!
1?!
1F!
1:!
1K!
1L!
1>!
1M!
1w
0|
0}
0~
1(!
1"!
1G!
1H!
1I!
0^
1P
00
1"
1p
1n
1l
1j
1h
1B
1@
1>
1<
1:
#120000
0!
0O
0u
0v
#122500
1!
1O
1u
1v
1.!
1x
13!
12!
0F!
0E!
0>!
0M!
0w
1y
0{
1|
1}
1~
1!!
1#!
0"!
0G!
0H!
0I!
1J!
1^
0\
10
0.
1f
1r
0p
0n
0l
0j
0h
18
1D
0B
0@
0>
0<
0:
#125000
0!
0O
0u
0v
#127500
1!
1O
1u
1v
0.!
0x
1-!
03!
14!
0D!
1E!
0L!
1>!
1M!
1w
0}
0#!
1$!
1H!
1\
0Z
1.
0,
1j
1<
#130000
0!
0O
0u
0v
#132500
1!
1O
1u
1v
1.!
1x
04!
15!
1)!
0=!
1D!
0>!
0M!
0w
1z
0y
1}
0~
0!!
0$!
1G!
0H!
1Z
0X
1,
0*
0f
0j
1h
08
0<
1:
#135000
0!
0O
0u
0v
#137500
1!
1O
1u
1v
0.!
0x
0-!
1,!
05!
16!
0)!
1*!
0<!
1=!
0K!
1L!
1>!
1M!
1w
0|
1{
0}
1~
1!!
0G!
1H!
0J!
1I!
1X
0V
1*
0(
1f
1p
1n
1l
0r
1j
0h
18
0D
1B
1@
1>
1<
0:
#140000
0!
0O
0u
0v
#142500
1!
1O
1u
1v
1.!
1x
06!
17!
0*!
1+!
0;!
1<!
0A!
0>!
0M!
0w
1y
1|
1}
0!!
1%!
0H!
0I!
1V
0T
1(
0&
0f
0p
0n
0l
0j
08
0B
0@
0>
0<
#145000
0!
0O
0u
0v
#147500
1!
1O
1u
1v
0.!
0x
1-!
07!
18!
0+!
1;!
0@!
1A!
0L!
1>!
1M!
1w
0%!
1&!
0R
1T
1&
0$
#150000
0!
0O
0u
0v
#152500
1!
1O
1u
1v
1.!
1x
08!
1'!
19!
0?!
0:!
1@!
0>!
0M!
0w
0z
0y
0&!
0(!
1R
0P
1$
0"
#155000
0!
0O
0u
0v
#157500
1!
1O
1u
1v
0.!
0x
0-!
0,!
0'!
02!
09!
1?!
1F!
1:!
1K!
1L!
1>!
1M!
1w
0|
0}
0~
1(!
1"!
1G!
1H!
1I!
0^
1P
00
1"
1p
1n
1l
1j
1h
1B
1@
1>
1<
1:
#160000
0!
0O
0u
0v
#162500
1!
1O
1u
1v
1.!
1x
13!
12!
0F!
0E!
0>!
0M!
0w
1y
0{
1|
1}
1~
1!!
1#!
0"!
0G!
0H!
0I!
1J!
1^
0\
10
0.
1f
1r
0p
0n
0l
0j
0h
18
1D
0B
0@
0>
0<
0:
#165000
0!
0O
0u
0v
#167500
1!
1O
1u
1v
0.!
0x
1-!
03!
14!
0D!
1E!
0L!
1>!
1M!
1w
0}
0#!
1$!
1H!
1\
0Z
1.
0,
1j
1<
#170000
0!
0O
0u
0v
#172500
1!
1O
1u
1v
1.!
1x
04!
15!
1)!
0=!
1D!
0>!
0M!
0w
1z
0y
1}
0~
0!!
0$!
1G!
0H!
1Z
0X
1,
0*
0f
0j
1h
08
0<
1:
#175000
0!
0O
0u
0v
#177500
1!
1O
1u
1v
0.!
0x
0-!
1,!
05!
16!
0)!
1*!
0<!
1=!
0K!
1L!
1>!
1M!
1w
0|
1{
0}
1~
1!!
0G!
1H!
0J!
1I!
1X
0V
1*
0(
1f
1p
1n
1l
0r
1j
0h
18
0D
1B
1@
1>
1<
0:
#180000
0!
0O
0u
0v
#182500
1!
1O
1u
1v
1.!
1x
06!
17!
0*!
1+!
0;!
1<!
0A!
0>!
0M!
0w
1y
1|
1}
0!!
1%!
0H!
0I!
1V
0T
1(
0&
0f
0p
0n
0l
0j
08
0B
0@
0>
0<
#185000
0!
0O
0u
0v
#187500
1!
1O
1u
1v
0.!
0x
1-!
07!
18!
0+!
1;!
0@!
1A!
0L!
1>!
1M!
1w
0%!
1&!
0R
1T
1&
0$
#190000
0!
0O
0u
0v
#192500
1!
1O
1u
1v
1.!
1x
08!
1'!
19!
0?!
0:!
1@!
0>!
0M!
0w
0z
0y
0&!
0(!
1R
0P
1$
0"
#195000
0!
0O
0u
0v
#197500
1!
1O
1u
1v
0.!
0x
0-!
0,!
0'!
02!
09!
1?!
1F!
1:!
1K!
1L!
1>!
1M!
1w
0|
0}
0~
1(!
1"!
1G!
1H!
1I!
0^
1P
00
1"
1p
1n
1l
1j
1h
1B
1@
1>
1<
1:
#200000
0!
0O
0u
0v
#202500
1!
1O
1u
1v
1.!
1x
13!
12!
0F!
0E!
0>!
0M!
0w
1y
0{
1|
1}
1~
1!!
1#!
0"!
0G!
0H!
0I!
1J!
1^
0\
10
0.
1f
1r
0p
0n
0l
0j
0h
18
1D
0B
0@
0>
0<
0:
#205000
0!
0O
0u
0v
#207500
1!
1O
1u
1v
0.!
0x
1-!
03!
14!
0D!
1E!
0L!
1>!
1M!
1w
0}
0#!
1$!
1H!
1\
0Z
1.
0,
1j
1<
#210000
0!
0O
0u
0v
#212500
1!
1O
1u
1v
1.!
1x
04!
15!
1)!
0=!
1D!
0>!
0M!
0w
1z
0y
1}
0~
0!!
0$!
1G!
0H!
1Z
0X
1,
0*
0f
0j
1h
08
0<
1:
#215000
0!
0O
0u
0v
#217500
1!
1O
1u
1v
0.!
0x
0-!
1,!
05!
16!
0)!
1*!
0<!
1=!
0K!
1L!
1>!
1M!
1w
0|
1{
0}
1~
1!!
0G!
1H!
0J!
1I!
1X
0V
1*
0(
1f
1p
1n
1l
0r
1j
0h
18
0D
1B
1@
1>
1<
0:
#220000
0!
0O
0u
0v
#222500
1!
1O
1u
1v
1.!
1x
06!
17!
0*!
1+!
0;!
1<!
0A!
0>!
0M!
0w
1y
1|
1}
0!!
1%!
0H!
0I!
1V
0T
1(
0&
0f
0p
0n
0l
0j
08
0B
0@
0>
0<
#225000
0!
0O
0u
0v
#227500
1!
1O
1u
1v
0.!
0x
1-!
07!
18!
0+!
1;!
0@!
1A!
0L!
1>!
1M!
1w
0%!
1&!
0R
1T
1&
0$
#230000
0!
0O
0u
0v
#232500
1!
1O
1u
1v
1.!
1x
08!
1'!
19!
0?!
0:!
1@!
0>!
0M!
0w
0z
0y
0&!
0(!
1R
0P
1$
0"
#235000
0!
0O
0u
0v
#237500
1!
1O
1u
1v
0.!
0x
0-!
0,!
0'!
02!
09!
1?!
1F!
1:!
1K!
1L!
1>!
1M!
1w
0|
0}
0~
1(!
1"!
1G!
1H!
1I!
0^
1P
00
1"
1p
1n
1l
1j
1h
1B
1@
1>
1<
1:
#240000
0!
0O
0u
0v
#242500
1!
1O
1u
1v
1.!
1x
13!
12!
0F!
0E!
0>!
0M!
0w
1y
0{
1|
1}
1~
1!!
1#!
0"!
0G!
0H!
0I!
1J!
1^
0\
10
0.
1f
1r
0p
0n
0l
0j
0h
18
1D
0B
0@
0>
0<
0:
#245000
0!
0O
0u
0v
#247500
1!
1O
1u
1v
0.!
0x
1-!
03!
14!
0D!
1E!
0L!
1>!
1M!
1w
0}
0#!
1$!
1H!
1\
0Z
1.
0,
1j
1<
#250000
0!
0O
0u
0v
#252500
1!
1O
1u
1v
1.!
1x
04!
15!
1)!
0=!
1D!
0>!
0M!
0w
1z
0y
1}
0~
0!!
0$!
1G!
0H!
1Z
0X
1,
0*
0f
0j
1h
08
0<
1:
#255000
0!
0O
0u
0v
#257500
1!
1O
1u
1v
0.!
0x
0-!
1,!
05!
16!
0)!
1*!
0<!
1=!
0K!
1L!
1>!
1M!
1w
0|
1{
0}
1~
1!!
0G!
1H!
0J!
1I!
1X
0V
1*
0(
1f
1p
1n
1l
0r
1j
0h
18
0D
1B
1@
1>
1<
0:
#260000
0!
0O
0u
0v
#262500
1!
1O
1u
1v
1.!
1x
06!
17!
0*!
1+!
0;!
1<!
0A!
0>!
0M!
0w
1y
1|
1}
0!!
1%!
0H!
0I!
1V
0T
1(
0&
0f
0p
0n
0l
0j
08
0B
0@
0>
0<
#265000
0!
0O
0u
0v
#267500
1!
1O
1u
1v
0.!
0x
1-!
07!
18!
0+!
1;!
0@!
1A!
0L!
1>!
1M!
1w
0%!
1&!
0R
1T
1&
0$
#270000
0!
0O
0u
0v
#272500
1!
1O
1u
1v
1.!
1x
08!
1'!
19!
0?!
0:!
1@!
0>!
0M!
0w
0z
0y
0&!
0(!
1R
0P
1$
0"
#275000
0!
0O
0u
0v
#277500
1!
1O
1u
1v
0.!
0x
0-!
0,!
0'!
02!
09!
1?!
1F!
1:!
1K!
1L!
1>!
1M!
1w
0|
0}
0~
1(!
1"!
1G!
1H!
1I!
0^
1P
00
1"
1p
1n
1l
1j
1h
1B
1@
1>
1<
1:
#280000
0!
0O
0u
0v
#282500
1!
1O
1u
1v
1.!
1x
13!
12!
0F!
0E!
0>!
0M!
0w
1y
0{
1|
1}
1~
1!!
1#!
0"!
0G!
0H!
0I!
1J!
1^
0\
10
0.
1f
1r
0p
0n
0l
0j
0h
18
1D
0B
0@
0>
0<
0:
#285000
0!
0O
0u
0v
#287500
1!
1O
1u
1v
0.!
0x
1-!
03!
14!
0D!
1E!
0L!
1>!
1M!
1w
0}
0#!
1$!
1H!
1\
0Z
1.
0,
1j
1<
#290000
0!
0O
0u
0v
#292500
1!
1O
1u
1v
1.!
1x
04!
15!
1)!
0=!
1D!
0>!
0M!
0w
1z
0y
1}
0~
0!!
0$!
1G!
0H!
1Z
0X
1,
0*
0f
0j
1h
08
0<
1:
#295000
0!
0O
0u
0v
#297500
1!
1O
1u
1v
0.!
0x
0-!
1,!
05!
16!
0)!
1*!
0<!
1=!
0K!
1L!
1>!
1M!
1w
0|
1{
0}
1~
1!!
0G!
1H!
0J!
1I!
1X
0V
1*
0(
1f
1p
1n
1l
0r
1j
0h
18
0D
1B
1@
1>
1<
0:
#300000
0!
0O
0u
0v
#302500
1!
1O
1u
1v
1.!
1x
06!
17!
0*!
1+!
0;!
1<!
0A!
0>!
0M!
0w
1y
1|
1}
0!!
1%!
0H!
0I!
1V
0T
1(
0&
0f
0p
0n
0l
0j
08
0B
0@
0>
0<
#305000
0!
0O
0u
0v
#307500
1!
1O
1u
1v
0.!
0x
1-!
07!
18!
0+!
1;!
0@!
1A!
0L!
1>!
1M!
1w
0%!
1&!
0R
1T
1&
0$
#310000
0!
0O
0u
0v
#312500
1!
1O
1u
1v
1.!
1x
08!
1'!
19!
0?!
0:!
1@!
0>!
0M!
0w
0z
0y
0&!
0(!
1R
0P
1$
0"
#315000
0!
0O
0u
0v
#317500
1!
1O
1u
1v
0.!
0x
0-!
0,!
0'!
02!
09!
1?!
1F!
1:!
1K!
1L!
1>!
1M!
1w
0|
0}
0~
1(!
1"!
1G!
1H!
1I!
0^
1P
00
1"
1p
1n
1l
1j
1h
1B
1@
1>
1<
1:
#320000
0!
0O
0u
0v
#322500
1!
1O
1u
1v
1.!
1x
13!
12!
0F!
0E!
0>!
0M!
0w
1y
0{
1|
1}
1~
1!!
1#!
0"!
0G!
0H!
0I!
1J!
1^
0\
10
0.
1f
1r
0p
0n
0l
0j
0h
18
1D
0B
0@
0>
0<
0:
#325000
0!
0O
0u
0v
#327500
1!
1O
1u
1v
0.!
0x
1-!
03!
14!
0D!
1E!
0L!
1>!
1M!
1w
0}
0#!
1$!
1H!
1\
0Z
1.
0,
1j
1<
#330000
0!
0O
0u
0v
#332500
1!
1O
1u
1v
1.!
1x
04!
15!
1)!
0=!
1D!
0>!
0M!
0w
1z
0y
1}
0~
0!!
0$!
1G!
0H!
1Z
0X
1,
0*
0f
0j
1h
08
0<
1:
#335000
0!
0O
0u
0v
#337500
1!
1O
1u
1v
0.!
0x
0-!
1,!
05!
16!
0)!
1*!
0<!
1=!
0K!
1L!
1>!
1M!
1w
0|
1{
0}
1~
1!!
0G!
1H!
0J!
1I!
1X
0V
1*
0(
1f
1p
1n
1l
0r
1j
0h
18
0D
1B
1@
1>
1<
0:
#340000
0!
0O
0u
0v
#342500
1!
1O
1u
1v
1.!
1x
06!
17!
0*!
1+!
0;!
1<!
0A!
0>!
0M!
0w
1y
1|
1}
0!!
1%!
0H!
0I!
1V
0T
1(
0&
0f
0p
0n
0l
0j
08
0B
0@
0>
0<
#345000
0!
0O
0u
0v
#347500
1!
1O
1u
1v
0.!
0x
1-!
07!
18!
0+!
1;!
0@!
1A!
0L!
1>!
1M!
1w
0%!
1&!
0R
1T
1&
0$
#350000
0!
0O
0u
0v
#352500
1!
1O
1u
1v
1.!
1x
08!
1'!
19!
0?!
0:!
1@!
0>!
0M!
0w
0z
0y
0&!
0(!
1R
0P
1$
0"
#355000
0!
0O
0u
0v
#357500
1!
1O
1u
1v
0.!
0x
0-!
0,!
0'!
02!
09!
1?!
1F!
1:!
1K!
1L!
1>!
1M!
1w
0|
0}
0~
1(!
1"!
1G!
1H!
1I!
0^
1P
00
1"
1p
1n
1l
1j
1h
1B
1@
1>
1<
1:
#360000
0!
0O
0u
0v
#362500
1!
1O
1u
1v
1.!
1x
13!
12!
0F!
0E!
0>!
0M!
0w
1y
0{
1|
1}
1~
1!!
1#!
0"!
0G!
0H!
0I!
1J!
1^
0\
10
0.
1f
1r
0p
0n
0l
0j
0h
18
1D
0B
0@
0>
0<
0:
#365000
0!
0O
0u
0v
#367500
1!
1O
1u
1v
0.!
0x
1-!
03!
14!
0D!
1E!
0L!
1>!
1M!
1w
0}
0#!
1$!
1H!
1\
0Z
1.
0,
1j
1<
#370000
0!
0O
0u
0v
#372500
1!
1O
1u
1v
1.!
1x
04!
15!
1)!
0=!
1D!
0>!
0M!
0w
1z
0y
1}
0~
0!!
0$!
1G!
0H!
1Z
0X
1,
0*
0f
0j
1h
08
0<
1:
#375000
0!
0O
0u
0v
#377500
1!
1O
1u
1v
0.!
0x
0-!
1,!
05!
16!
0)!
1*!
0<!
1=!
0K!
1L!
1>!
1M!
1w
0|
1{
0}
1~
1!!
0G!
1H!
0J!
1I!
1X
0V
1*
0(
1f
1p
1n
1l
0r
1j
0h
18
0D
1B
1@
1>
1<
0:
#380000
0!
0O
0u
0v
#382500
1!
1O
1u
1v
1.!
1x
06!
17!
0*!
1+!
0;!
1<!
0A!
0>!
0M!
0w
1y
1|
1}
0!!
1%!
0H!
0I!
1V
0T
1(
0&
0f
0p
0n
0l
0j
08
0B
0@
0>
0<
#385000
0!
0O
0u
0v
#387500
1!
1O
1u
1v
0.!
0x
1-!
07!
18!
0+!
1;!
0@!
1A!
0L!
1>!
1M!
1w
0%!
1&!
0R
1T
1&
0$
#390000
0!
0O
0u
0v
#392500
1!
1O
1u
1v
1.!
1x
08!
1'!
19!
0?!
0:!
1@!
0>!
0M!
0w
0z
0y
0&!
0(!
1R
0P
1$
0"
#395000
0!
0O
0u
0v
#397500
1!
1O
1u
1v
0.!
0x
0-!
0,!
0'!
02!
09!
1?!
1F!
1:!
1K!
1L!
1>!
1M!
1w
0|
0}
0~
1(!
1"!
1G!
1H!
1I!
0^
1P
00
1"
1p
1n
1l
1j
1h
1B
1@
1>
1<
1:
#400000
0!
0O
0u
0v
#402500
1!
1O
1u
1v
1.!
1x
13!
12!
0F!
0E!
0>!
0M!
0w
1y
0{
1|
1}
1~
1!!
1#!
0"!
0G!
0H!
0I!
1J!
1^
0\
10
0.
1f
1r
0p
0n
0l
0j
0h
18
1D
0B
0@
0>
0<
0:
#405000
0!
0O
0u
0v
#407500
1!
1O
1u
1v
0.!
0x
1-!
03!
14!
0D!
1E!
0L!
1>!
1M!
1w
0}
0#!
1$!
1H!
1\
0Z
1.
0,
1j
1<
#410000
0!
0O
0u
0v
#412500
1!
1O
1u
1v
1.!
1x
04!
15!
1)!
0=!
1D!
0>!
0M!
0w
1z
0y
1}
0~
0!!
0$!
1G!
0H!
1Z
0X
1,
0*
0f
0j
1h
08
0<
1:
#415000
0!
0O
0u
0v
#417500
1!
1O
1u
1v
0.!
0x
0-!
1,!
05!
16!
0)!
1*!
0<!
1=!
0K!
1L!
1>!
1M!
1w
0|
1{
0}
1~
1!!
0G!
1H!
0J!
1I!
1X
0V
1*
0(
1f
1p
1n
1l
0r
1j
0h
18
0D
1B
1@
1>
1<
0:
#420000
0!
0O
0u
0v
