BME 393L/Project/dot_scrolling/simulation/qsim/dot_scrolling.msim.vcd
$comment
	File created using the following command:
		vcd file dot_scrolling.msim.vcd -direction
$end
$date
	Fri Mar 04 20:10:37 2022
$end
$version
	ModelSim Version 10.5b
$end
$timescale
	1ps
$end

$scope module dot_scrolling_vhd_vec_tst $end
$var wire 1 ! CLOCK_50_B5B $end
$var wire 1 " col_out [0] $end
$var wire 1 # col_out [1] $end
$var wire 1 $ col_out [2] $end
$var wire 1 % col_out [3] $end
$var wire 1 & col_out [4] $end
$var wire 1 ' col_out [5] $end
$var wire 1 ( col_out [6] $end
$var wire 1 ) col_out [7] $end
$var wire 1 * GPIO [35] $end
$var wire 1 + GPIO [34] $end
$var wire 1 , GPIO [33] $end
$var wire 1 - GPIO [32] $end
$var wire 1 . GPIO [31] $end
$var wire 1 / GPIO [30] $end
$var wire 1 0 GPIO [29] $end
$var wire 1 1 GPIO [28] $end
$var wire 1 2 GPIO [27] $end
$var wire 1 3 GPIO [26] $end
$var wire 1 4 GPIO [25] $end
$var wire 1 5 GPIO [24] $end
$var wire 1 6 GPIO [23] $end
$var wire 1 7 GPIO [22] $end
$var wire 1 8 GPIO [21] $end
$var wire 1 9 GPIO [20] $end
$var wire 1 : GPIO [19] $end
$var wire 1 ; GPIO [18] $end
$var wire 1 < GPIO [17] $end
$var wire 1 = GPIO [16] $end
$var wire 1 > GPIO [15] $end
$var wire 1 ? GPIO [14] $end
$var wire 1 @ GPIO [13] $end
$var wire 1 A GPIO [12] $end
$var wire 1 B GPIO [11] $end
$var wire 1 C GPIO [10] $end
$var wire 1 D GPIO [9] $end
$var wire 1 E GPIO [8] $end
$var wire 1 F GPIO [7] $end
$var wire 1 G GPIO [6] $end
$var wire 1 H GPIO [5] $end
$var wire 1 I GPIO [4] $end
$var wire 1 J GPIO [3] $end
$var wire 1 K GPIO [2] $end
$var wire 1 L GPIO [1] $end
$var wire 1 M GPIO [0] $end
$var wire 1 N row_out [0] $end
$var wire 1 O row_out [1] $end
$var wire 1 P row_out [2] $end
$var wire 1 Q row_out [3] $end
$var wire 1 R row_out [4] $end
$var wire 1 S row_out [5] $end
$var wire 1 T row_out [6] $end
$var wire 1 U row_out [7] $end

$scope module i1 $end
$var wire 1 V gnd $end
$var wire 1 W vcc $end
$var wire 1 X unknown $end
$var wire 1 Y devoe $end
$var wire 1 Z devclrn $end
$var wire 1 [ devpor $end
$var wire 1 \ ww_devoe $end
$var wire 1 ] ww_devclrn $end
$var wire 1 ^ ww_devpor $end
$var wire 1 _ ww_CLOCK_50_B5B $end
$var wire 1 ` ww_GPIO [35] $end
$var wire 1 a ww_GPIO [34] $end
$var wire 1 b ww_GPIO [33] $end
$var wire 1 c ww_GPIO [32] $end
$var wire 1 d ww_GPIO [31] $end
$var wire 1 e ww_GPIO [30] $end
$var wire 1 f ww_GPIO [29] $end
$var wire 1 g ww_GPIO [28] $end
$var wire 1 h ww_GPIO [27] $end
$var wire 1 i ww_GPIO [26] $end
$var wire 1 j ww_GPIO [25] $end
$var wire 1 k ww_GPIO [24] $end
$var wire 1 l ww_GPIO [23] $end
$var wire 1 m ww_GPIO [22] $end
$var wire 1 n ww_GPIO [21] $end
$var wire 1 o ww_GPIO [20] $end
$var wire 1 p ww_GPIO [19] $end
$var wire 1 q ww_GPIO [18] $end
$var wire 1 r ww_GPIO [17] $end
$var wire 1 s ww_GPIO [16] $end
$var wire 1 t ww_GPIO [15] $end
$var wire 1 u ww_GPIO [14] $end
$var wire 1 v ww_GPIO [13] $end
$var wire 1 w ww_GPIO [12] $end
$var wire 1 x ww_GPIO [11] $end
$var wire 1 y ww_GPIO [10] $end
$var wire 1 z ww_GPIO [9] $end
$var wire 1 { ww_GPIO [8] $end
$var wire 1 | ww_GPIO [7] $end
$var wire 1 } ww_GPIO [6] $end
$var wire 1 ~ ww_GPIO [5] $end
$var wire 1 !! ww_GPIO [4] $end
$var wire 1 "! ww_GPIO [3] $end
$var wire 1 #! ww_GPIO [2] $end
$var wire 1 $! ww_GPIO [1] $end
$var wire 1 %! ww_GPIO [0] $end
$var wire 1 &! ww_row_out [0] $end
$var wire 1 '! ww_row_out [1] $end
$var wire 1 (! ww_row_out [2] $end
$var wire 1 )! ww_row_out [3] $end
$var wire 1 *! ww_row_out [4] $end
$var wire 1 +! ww_row_out [5] $end
$var wire 1 ,! ww_row_out [6] $end
$var wire 1 -! ww_row_out [7] $end
$var wire 1 .! ww_col_out [0] $end
$var wire 1 /! ww_col_out [1] $end
$var wire 1 0! ww_col_out [2] $end
$var wire 1 1! ww_col_out [3] $end
$var wire 1 2! ww_col_out [4] $end
$var wire 1 3! ww_col_out [5] $end
$var wire 1 4! ww_col_out [6] $end
$var wire 1 5! ww_col_out [7] $end
$var wire 1 6! \~QUARTUS_CREATED_GND~I_combout\ $end
$var wire 1 7! \CLOCK_50_B5B~input_o\ $end
$var wire 1 8! \CLOCK_50_B5B~inputCLKENA0_outclk\ $end
$var wire 1 9! \row_driver[1]~1_combout\ $end
$var wire 1 :! \scroll_counter[0]~2_combout\ $end
$var wire 1 ;! \scroll_counter[0]~DUPLICATE_q\ $end
$var wire 1 <! \scroll_counter[1]~1_combout\ $end
$var wire 1 =! \scroll_counter[2]~0_combout\ $end
$var wire 1 >! \Equal0~0_combout\ $end
$var wire 1 ?! \row_driver[3]~DUPLICATE_q\ $end
$var wire 1 @! \row_driver[4]~feeder_combout\ $end
$var wire 1 A! \row_driver[4]~DUPLICATE_q\ $end
$var wire 1 B! \row_driver[6]~feeder_combout\ $end
$var wire 1 C! \row_driver[7]~feeder_combout\ $end
$var wire 1 D! \row_driver[0]~0_combout\ $end
$var wire 1 E! \col_driver[1]~1_combout\ $end
$var wire 1 F! \col_driver[1]~DUPLICATE_q\ $end
$var wire 1 G! \col_driver[2]~feeder_combout\ $end
$var wire 1 H! \col_driver[2]~DUPLICATE_q\ $end
$var wire 1 I! \col_driver[3]~feeder_combout\ $end
$var wire 1 J! \col_driver[3]~DUPLICATE_q\ $end
$var wire 1 K! \col_driver[4]~feeder_combout\ $end
$var wire 1 L! \col_driver[5]~feeder_combout\ $end
$var wire 1 M! \col_driver[6]~feeder_combout\ $end
$var wire 1 N! \col_driver[7]~feeder_combout\ $end
$var wire 1 O! \col_driver[0]~0_combout\ $end
$var wire 1 P! \col_driver[4]~DUPLICATE_q\ $end
$var wire 1 Q! \col_driver[6]~DUPLICATE_q\ $end
$var wire 1 R! row_driver [0] $end
$var wire 1 S! row_driver [1] $end
$var wire 1 T! row_driver [2] $end
$var wire 1 U! row_driver [3] $end
$var wire 1 V! row_driver [4] $end
$var wire 1 W! row_driver [5] $end
$var wire 1 X! row_driver [6] $end
$var wire 1 Y! row_driver [7] $end
$var wire 1 Z! col_driver [0] $end
$var wire 1 [! col_driver [1] $end
$var wire 1 \! col_driver [2] $end
$var wire 1 ]! col_driver [3] $end
$var wire 1 ^! col_driver [4] $end
$var wire 1 _! col_driver [5] $end
$var wire 1 `! col_driver [6] $end
$var wire 1 a! col_driver [7] $end
$var wire 1 b! scroll_counter [2] $end
$var wire 1 c! scroll_counter [1] $end
$var wire 1 d! scroll_counter [0] $end
$var wire 1 e! \ALT_INV_scroll_counter[0]~DUPLICATE_q\ $end
$var wire 1 f! \ALT_INV_col_driver[6]~DUPLICATE_q\ $end
$var wire 1 g! \ALT_INV_col_driver[4]~DUPLICATE_q\ $end
$var wire 1 h! \ALT_INV_col_driver[3]~DUPLICATE_q\ $end
$var wire 1 i! \ALT_INV_col_driver[2]~DUPLICATE_q\ $end
$var wire 1 j! \ALT_INV_col_driver[1]~DUPLICATE_q\ $end
$var wire 1 k! \ALT_INV_row_driver[3]~DUPLICATE_q\ $end
$var wire 1 l! ALT_INV_scroll_counter [2] $end
$var wire 1 m! ALT_INV_scroll_counter [1] $end
$var wire 1 n! ALT_INV_scroll_counter [0] $end
$var wire 1 o! ALT_INV_col_driver [7] $end
$var wire 1 p! ALT_INV_col_driver [6] $end
$var wire 1 q! ALT_INV_col_driver [5] $end
$var wire 1 r! ALT_INV_col_driver [4] $end
$var wire 1 s! ALT_INV_col_driver [3] $end
$var wire 1 t! ALT_INV_col_driver [2] $end
$var wire 1 u! ALT_INV_col_driver [1] $end
$var wire 1 v! ALT_INV_col_driver [0] $end
$var wire 1 w! ALT_INV_row_driver [7] $end
$var wire 1 x! ALT_INV_row_driver [6] $end
$var wire 1 y! ALT_INV_row_driver [5] $end
$var wire 1 z! ALT_INV_row_driver [4] $end
$var wire 1 {! ALT_INV_row_driver [3] $end
$var wire 1 |! ALT_INV_row_driver [2] $end
$var wire 1 }! ALT_INV_row_driver [1] $end
$var wire 1 ~! ALT_INV_row_driver [0] $end
$upscope $end
$upscope $end
$enddefinitions $end
#0
$dumpvars
0!
0V
1W
xX
1Y
1Z
1[
1\
1]
1^
0_
x6!
07!
08!
19!
1:!
0;!
0<!
0=!
0>!
0?!
0@!
0A!
0B!
0C!
1D!
1E!
0F!
0G!
0H!
0I!
0J!
0K!
0L!
0M!
0N!
1O!
0P!
0Q!
1e!
1f!
1g!
1h!
1i!
1j!
1k!
1`
0a
1b
0c
1d
0e
1f
0g
1h
0i
1j
0k
1l
0m
0n
0o
0p
0q
0r
0s
0t
0u
0v
0w
0x
0y
0z
0{
0|
0}
0~
0!!
0"!
0#!
1$!
0%!
1&!
0'!
0(!
0)!
0*!
0+!
0,!
0-!
0.!
1/!
10!
11!
12!
13!
14!
15!
0R!
0S!
0T!
0U!
0V!
0W!
0X!
0Y!
0Z!
0[!
0\!
0]!
0^!
0_!
0`!
0a!
0b!
0c!
0d!
1l!
1m!
1n!
1o!
1p!
1q!
1r!
1s!
1t!
1u!
1v!
1w!
1x!
1y!
xz!
x{!
x|!
x}!
1~!
0"
1#
1$
1%
1&
1'
1(
1)
1*
0+
1,
0-
1.
0/
10
01
12
03
14
05
16
07
08
09
0:
0;
0<
0=
0>
0?
0@
0A
0B
0C
0D
0E
0F
0G
0H
0I
0J
0K
1L
0M
1N
0O
0P
0Q
0R
0S
0T
0U
$end
#5000
1!
1_
17!
18!
1d!
1;!
1F!
1Z!
1[!
0u!
0v!
0j!
0e!
0n!
0:!
1<!
1G!
0E!
1n
1.!
0l
0/!
18
1"
06
0#
#10000
0!
0_
07!
08!
#15000
1!
1_
17!
18!
0d!
0;!
1c!
0F!
1H!
0[!
1\!
0t!
1u!
0i!
1j!
0m!
1e!
1n!
1:!
0G!
1I!
00!
1l
1/!
0j
0$
1#
16
04
#20000
0!
0_
07!
08!
#25000
1!
1_
17!
18!
1d!
1;!
0H!
1J!
0\!
1]!
0s!
1t!
0h!
1i!
0e!
0n!
0:!
0<!
1=!
0I!
1K!
10!
1j
0h
01!
0%
1$
14
02
#30000
0!
0_
07!
08!
#35000
1!
1_
17!
18!
0d!
0;!
0c!
1b!
0J!
1^!
0]!
1P!
0g!
1s!
0r!
1h!
0l!
1m!
1e!
1n!
1:!
0K!
1L!
1h
11!
0f
02!
12
00
0&
1%
#40000
0!
0_
07!
08!
#45000
1!
1_
17!
18!
1d!
1;!
0^!
1_!
0P!
1g!
0q!
1r!
0e!
0n!
0:!
1<!
0L!
1M!
0d
03!
1f
12!
10
0.
0'
1&
#50000
0!
0_
07!
08!
#55000
1!
1_
17!
18!
0d!
0;!
1c!
0_!
1`!
1Q!
0f!
0p!
1q!
0m!
1e!
1n!
1:!
0M!
1N!
1d
13!
0b
04!
1.
0,
0(
1'
#60000
0!
0_
07!
08!
#65000
1!
1_
17!
18!
1d!
1;!
0`!
1a!
0Q!
1f!
0o!
1p!
0e!
0n!
0:!
1>!
0<!
0=!
0N!
0O!
0`
05!
1b
14!
1,
0*
0)
1(
#70000
0!
0_
07!
08!
#75000
1!
1_
17!
18!
0d!
0;!
0c!
0b!
1S!
1R!
0a!
0Z!
1v!
1o!
0~!
1l!
1m!
1e!
1n!
1:!
0>!
09!
1O!
1E!
0n
0.!
1"!
1'!
0$!
0&!
1`
15!
1J
08
0"
1O
0L
1*
0N
1)
#80000
0!
0_
07!
08!
#85000
1!
1_
17!
18!
1d!
1;!
1F!
1Z!
1[!
0u!
0v!
0j!
0e!
0n!
0:!
1<!
1G!
0E!
1n
1.!
0l
0/!
18
1"
06
0#
#90000
0!
0_
07!
08!
#95000
1!
1_
17!
18!
0d!
0;!
1c!
0F!
1H!
0[!
1\!
0t!
1u!
0i!
1j!
0m!
1e!
1n!
1:!
0G!
1I!
00!
1l
1/!
0j
0$
1#
16
04
#100000
0!
0_
07!
08!
#105000
1!
1_
17!
18!
1d!
1;!
0H!
1J!
0\!
1]!
0s!
1t!
0h!
1i!
0e!
0n!
0:!
0<!
1=!
0I!
1K!
10!
1j
0h
01!
0%
1$
14
02
#110000
0!
0_
07!
08!
#115000
1!
1_
17!
18!
0d!
0;!
0c!
1b!
0J!
1^!
0]!
1P!
0g!
1s!
0r!
1h!
0l!
1m!
1e!
1n!
1:!
0K!
1L!
1h
11!
0f
02!
12
00
0&
1%
#120000
0!
0_
07!
08!
#125000
1!
1_
17!
18!
1d!
1;!
0^!
1_!
0P!
1g!
0q!
1r!
0e!
0n!
0:!
1<!
0L!
1M!
0d
03!
1f
12!
10
0.
0'
1&
#130000
0!
0_
07!
08!
#135000
1!
1_
17!
18!
0d!
0;!
1c!
0_!
1`!
1Q!
0f!
0p!
1q!
0m!
1e!
1n!
1:!
0M!
1N!
1d
13!
0b
04!
1.
0,
0(
1'
#140000
0!
0_
07!
08!
#145000
1!
1_
17!
18!
1d!
1;!
0`!
1a!
0Q!
1f!
0o!
1p!
0e!
0n!
0:!
1>!
0<!
0=!
0N!
0O!
0`
05!
1b
14!
1,
0*
0)
1(
#150000
0!
0_
07!
08!
#155000
1!
1_
17!
18!
0d!
0;!
0c!
0b!
0S!
1T!
0a!
0Z!
1v!
1o!
1l!
1m!
1e!
1n!
1:!
0>!
1O!
1E!
0n
0.!
1~
1(!
0"!
0'!
1`
15!
0J
1H
08
0"
1P
0O
1*
1)
#160000
0!
0_
07!
08!
#165000
1!
1_
17!
18!
1d!
1;!
1F!
1Z!
1[!
0u!
0v!
0j!
0e!
0n!
0:!
1<!
1G!
0E!
1n
1.!
0l
0/!
18
1"
06
0#
#170000
0!
0_
07!
08!
#175000
1!
1_
17!
18!
0d!
0;!
1c!
0F!
1H!
0[!
1\!
0t!
1u!
0i!
1j!
0m!
1e!
1n!
1:!
0G!
1I!
00!
1l
1/!
0j
0$
1#
16
04
#180000
0!
0_
07!
08!
#185000
1!
1_
17!
18!
1d!
1;!
0H!
1J!
0\!
1]!
0s!
1t!
0h!
1i!
0e!
0n!
0:!
0<!
1=!
0I!
1K!
10!
1j
0h
01!
0%
1$
14
02
#190000
0!
0_
07!
08!
#195000
1!
1_
17!
18!
0d!
0;!
0c!
1b!
0J!
1^!
0]!
1P!
0g!
1s!
0r!
1h!
0l!
1m!
1e!
1n!
1:!
0K!
1L!
1h
11!
0f
02!
12
00
0&
1%
#200000
0!
0_
07!
08!
#205000
1!
1_
17!
18!
1d!
1;!
0^!
1_!
0P!
1g!
0q!
1r!
0e!
0n!
0:!
1<!
0L!
1M!
0d
03!
1f
12!
10
0.
0'
1&
#210000
0!
0_
07!
08!
#215000
1!
1_
17!
18!
0d!
0;!
1c!
0_!
1`!
1Q!
0f!
0p!
1q!
0m!
1e!
1n!
1:!
0M!
1N!
1d
13!
0b
04!
1.
0,
0(
1'
#220000
0!
0_
07!
08!
#225000
1!
1_
17!
18!
1d!
1;!
0`!
1a!
0Q!
1f!
0o!
1p!
0e!
0n!
0:!
1>!
0<!
0=!
0N!
0O!
0`
05!
1b
14!
1,
0*
0)
1(
#230000
0!
0_
07!
08!
#235000
1!
1_
17!
18!
0d!
0;!
0c!
0b!
0T!
1?!
0a!
0Z!
1U!
1v!
1o!
0k!
1l!
1m!
1e!
1n!
1:!
0>!
1@!
1O!
1E!
1)!
0n
0.!
1|
0~
0(!
1`
15!
1Q
0P
0H
1F
08
0"
1*
1)
#240000
0!
0_
07!
08!
#245000
1!
1_
17!
18!
1d!
1;!
1F!
1Z!
1[!
0u!
0v!
0j!
0e!
0n!
0:!
1<!
1G!
0E!
1n
1.!
0l
0/!
18
1"
06
0#
#250000
0!
0_
07!
08!
#255000
1!
1_
17!
18!
0d!
0;!
1c!
0F!
1H!
0[!
1\!
0t!
1u!
0i!
1j!
0m!
1e!
1n!
1:!
0G!
1I!
00!
1l
1/!
0j
0$
1#
16
04
#260000
0!
0_
07!
08!
#265000
1!
1_
17!
18!
1d!
1;!
0H!
1J!
0\!
1]!
0s!
1t!
0h!
1i!
0e!
0n!
0:!
0<!
1=!
0I!
1K!
10!
1j
0h
01!
0%
1$
14
02
#270000
0!
0_
07!
08!
#275000
1!
1_
17!
18!
0d!
0;!
0c!
1b!
0J!
1^!
0]!
1P!
0g!
1s!
0r!
1h!
0l!
1m!
1e!
1n!
1:!
0K!
1L!
1h
11!
0f
02!
12
00
0&
1%
#280000
0!
0_
07!
08!
#285000
1!
1_
17!
18!
1d!
1;!
0^!
1_!
0P!
1g!
0q!
1r!
0e!
0n!
0:!
1<!
0L!
1M!
0d
03!
1f
12!
10
0.
0'
1&
#290000
0!
0_
07!
08!
#295000
1!
1_
17!
18!
0d!
0;!
1c!
0_!
1`!
1Q!
0f!
0p!
1q!
0m!
1e!
1n!
1:!
0M!
1N!
1d
13!
0b
04!
1.
0,
0(
1'
#300000
0!
0_
07!
08!
#305000
1!
1_
17!
18!
1d!
1;!
0`!
1a!
0Q!
1f!
0o!
1p!
0e!
0n!
0:!
1>!
0<!
0=!
0N!
0O!
0`
05!
1b
14!
1,
0*
0)
1(
#310000
0!
0_
07!
08!
#315000
1!
1_
17!
18!
0d!
0;!
0c!
0b!
0?!
1A!
1V!
0a!
0Z!
0U!
1v!
1o!
1k!
1l!
1m!
1e!
1n!
1:!
0>!
0@!
1O!
1E!
0)!
0n
0.!
1z
1*!
0|
1`
15!
1R
0Q
0F
1D
08
0"
1*
1)
#320000
0!
0_
07!
08!
#325000
1!
1_
17!
18!
1d!
1;!
1F!
1Z!
1[!
0u!
0v!
0j!
0e!
0n!
0:!
1<!
1G!
0E!
1n
1.!
0l
0/!
18
1"
06
0#
#330000
0!
0_
07!
08!
#335000
1!
1_
17!
18!
0d!
0;!
1c!
0F!
1H!
0[!
1\!
0t!
1u!
0i!
1j!
0m!
1e!
1n!
1:!
0G!
1I!
00!
1l
1/!
0j
0$
1#
16
04
#340000
0!
0_
07!
08!
#345000
1!
1_
17!
18!
1d!
1;!
0H!
1J!
0\!
1]!
0s!
1t!
0h!
1i!
0e!
0n!
0:!
0<!
1=!
0I!
1K!
10!
1j
0h
01!
0%
1$
14
02
#350000
0!
0_
07!
08!
#355000
1!
1_
17!
18!
0d!
0;!
0c!
1b!
0J!
1^!
0]!
1P!
0g!
1s!
0r!
1h!
0l!
1m!
1e!
1n!
1:!
0K!
1L!
1h
11!
0f
02!
12
00
0&
1%
#360000
0!
0_
07!
08!
#365000
1!
1_
17!
18!
1d!
1;!
0^!
1_!
0P!
1g!
0q!
1r!
0e!
0n!
0:!
1<!
0L!
1M!
0d
03!
1f
12!
10
0.
0'
1&
#370000
0!
0_
07!
08!
#375000
1!
1_
17!
18!
0d!
0;!
1c!
0_!
1`!
1Q!
0f!
0p!
1q!
0m!
1e!
1n!
1:!
0M!
1N!
1d
13!
0b
04!
1.
0,
0(
1'
#380000
0!
0_
07!
08!
#385000
1!
1_
17!
18!
1d!
1;!
0`!
1a!
0Q!
1f!
0o!
1p!
0e!
0n!
0:!
1>!
0<!
0=!
0N!
0O!
0`
05!
1b
14!
1,
0*
0)
1(
#390000
0!
0_
07!
08!
#395000
1!
1_
17!
18!
0d!
0;!
0c!
0b!
0A!
1W!
0V!
0a!
0Z!
1v!
1o!
0y!
1l!
1m!
1e!
1n!
1:!
0>!
1B!
1O!
1E!
0n
0.!
0z
1x
1+!
0*!
1`
15!
0D
1B
08
0"
1S
0R
1*
1)
#400000
0!
0_
07!
08!
#405000
1!
1_
17!
18!
1d!
1;!
1F!
1Z!
1[!
0u!
0v!
0j!
0e!
0n!
0:!
1<!
1G!
0E!
1n
1.!
0l
0/!
18
1"
06
0#
#410000
0!
0_
07!
08!
#415000
1!
1_
17!
18!
0d!
0;!
1c!
0F!
1H!
0[!
1\!
0t!
1u!
0i!
1j!
0m!
1e!
1n!
1:!
0G!
1I!
00!
1l
1/!
0j
0$
1#
16
04
#420000
0!
0_
07!
08!
#425000
1!
1_
17!
18!
1d!
1;!
0H!
1J!
0\!
1]!
0s!
1t!
0h!
1i!
0e!
0n!
0:!
0<!
1=!
0I!
1K!
10!
1j
0h
01!
0%
1$
14
02
#430000
0!
0_
07!
08!
#435000
1!
1_
17!
18!
0d!
0;!
0c!
1b!
0J!
1^!
0]!
1P!
0g!
1s!
0r!
1h!
0l!
1m!
1e!
1n!
1:!
0K!
1L!
1h
11!
0f
02!
12
00
0&
1%
#440000
0!
0_
07!
08!
#445000
1!
1_
17!
18!
1d!
1;!
0^!
1_!
0P!
1g!
0q!
1r!
0e!
0n!
0:!
1<!
0L!
1M!
0d
03!
1f
12!
10
0.
0'
1&
#450000
0!
0_
07!
08!
#455000
1!
1_
17!
18!
0d!
0;!
1c!
0_!
1`!
1Q!
0f!
0p!
1q!
0m!
1e!
1n!
1:!
0M!
1N!
1d
13!
0b
04!
1.
0,
0(
1'
#460000
0!
0_
07!
08!
#465000
1!
1_
17!
18!
1d!
1;!
0`!
1a!
0Q!
1f!
0o!
1p!
0e!
0n!
0:!
1>!
0<!
0=!
0N!
0O!
0`
05!
1b
14!
1,
0*
0)
1(
#470000
0!
0_
07!
08!
#475000
1!
1_
17!
18!
0d!
0;!
0c!
0b!
0W!
1X!
0a!
0Z!
1v!
1o!
0x!
1y!
1l!
1m!
1e!
1n!
1:!
0>!
0B!
1C!
1O!
1E!
0n
0.!
1v
1,!
0x
0+!
1`
15!
0B
1@
08
0"
1T
0S
1*
1)
#480000
0!
0_
07!
08!
#485000
1!
1_
17!
18!
1d!
1;!
1F!
1Z!
1[!
0u!
0v!
0j!
0e!
0n!
0:!
1<!
1G!
0E!
1n
1.!
0l
0/!
18
1"
06
0#
#490000
0!
0_
07!
08!
#495000
1!
1_
17!
18!
0d!
0;!
1c!
0F!
1H!
0[!
1\!
0t!
1u!
0i!
1j!
0m!
1e!
1n!
1:!
0G!
1I!
00!
1l
1/!
0j
0$
1#
16
04
#500000
0!
0_
07!
08!
#505000
1!
1_
17!
18!
1d!
1;!
0H!
1J!
0\!
1]!
0s!
1t!
0h!
1i!
0e!
0n!
0:!
0<!
1=!
0I!
1K!
10!
1j
0h
01!
0%
1$
14
02
#510000
0!
0_
07!
08!
#515000
1!
1_
17!
18!
0d!
0;!
0c!
1b!
0J!
1^!
0]!
1P!
0g!
1s!
0r!
1h!
0l!
1m!
1e!
1n!
1:!
0K!
1L!
1h
11!
0f
02!
12
00
0&
1%
#520000
0!
0_
07!
08!
#525000
1!
1_
17!
18!
1d!
1;!
0^!
1_!
0P!
1g!
0q!
1r!
0e!
0n!
0:!
1<!
0L!
1M!
0d
03!
1f
12!
10
0.
0'
1&
#530000
0!
0_
07!
08!
#535000
1!
1_
17!
18!
0d!
0;!
1c!
0_!
1`!
1Q!
0f!
0p!
1q!
0m!
1e!
1n!
1:!
0M!
1N!
1d
13!
0b
04!
1.
0,
0(
1'
#540000
0!
0_
07!
08!
#545000
1!
1_
17!
18!
1d!
1;!
0`!
1a!
0Q!
1f!
0o!
1p!
0e!
0n!
0:!
1>!
0<!
0=!
0N!
0O!
0`
05!
1b
14!
1,
0*
0)
1(
#550000
0!
0_
07!
08!
#555000
1!
1_
17!
18!
0d!
0;!
0c!
0b!
0X!
1Y!
0a!
0Z!
1v!
1o!
0w!
1x!
1l!
1m!
1e!
1n!
1:!
0>!
0C!
0D!
1O!
1E!
0n
0.!
1t
1-!
0v
0,!
1`
15!
0@
1>
08
0"
1U
0T
1*
1)
#560000
0!
0_
07!
08!
#565000
1!
1_
17!
18!
1d!
1;!
1F!
1Z!
1[!
0u!
0v!
0j!
0e!
0n!
0:!
1<!
1G!
0E!
1n
1.!
0l
0/!
18
1"
06
0#
#570000
0!
0_
07!
08!
#575000
1!
1_
17!
18!
0d!
0;!
1c!
0F!
1H!
0[!
1\!
0t!
1u!
0i!
1j!
0m!
1e!
1n!
1:!
0G!
1I!
00!
1l
1/!
0j
0$
1#
16
04
#580000
0!
0_
07!
08!
#585000
1!
1_
17!
18!
1d!
1;!
0H!
1J!
0\!
1]!
0s!
1t!
0h!
1i!
0e!
0n!
0:!
0<!
1=!
0I!
1K!
10!
1j
0h
01!
0%
1$
14
02
#590000
0!
0_
07!
08!
#595000
1!
1_
17!
18!
0d!
0;!
0c!
1b!
0J!
1^!
0]!
1P!
0g!
1s!
0r!
1h!
0l!
1m!
1e!
1n!
1:!
0K!
1L!
1h
11!
0f
02!
12
00
0&
1%
#600000
0!
0_
07!
08!
#605000
1!
1_
17!
18!
1d!
1;!
0^!
1_!
0P!
1g!
0q!
1r!
0e!
0n!
0:!
1<!
0L!
1M!
0d
03!
1f
12!
10
0.
0'
1&
#610000
0!
0_
07!
08!
#615000
1!
1_
17!
18!
0d!
0;!
1c!
0_!
1`!
1Q!
0f!
0p!
1q!
0m!
1e!
1n!
1:!
0M!
1N!
1d
13!
0b
04!
1.
0,
0(
1'
#620000
0!
0_
07!
08!
#625000
1!
1_
17!
18!
1d!
1;!
0`!
1a!
0Q!
1f!
0o!
1p!
0e!
0n!
0:!
1>!
0<!
0=!
0N!
0O!
0`
05!
1b
14!
1,
0*
0)
1(
#630000
0!
0_
07!
08!
#635000
1!
1_
17!
18!
0d!
0;!
0c!
0b!
0Y!
0R!
0a!
0Z!
1v!
1o!
1~!
1w!
1l!
1m!
1e!
1n!
1:!
0>!
1D!
19!
1O!
1E!
0n
0.!
0t
0-!
1$!
1&!
1`
15!
0>
08
0"
0U
1L
1*
1N
1)
#640000
0!
0_
07!
08!
#645000
1!
1_
17!
18!
1d!
1;!
1F!
1Z!
1[!
0u!
0v!
0j!
0e!
0n!
0:!
1<!
1G!
0E!
1n
1.!
0l
0/!
18
1"
06
0#
#650000
0!
0_
07!
08!
#655000
1!
1_
17!
18!
0d!
0;!
1c!
0F!
1H!
0[!
1\!
0t!
1u!
0i!
1j!
0m!
1e!
1n!
1:!
0G!
1I!
00!
1l
1/!
0j
0$
1#
16
04
#660000
0!
0_
07!
08!
#665000
1!
1_
17!
18!
1d!
1;!
0H!
1J!
0\!
1]!
0s!
1t!
0h!
1i!
0e!
0n!
0:!
0<!
1=!
0I!
1K!
10!
1j
0h
01!
0%
1$
14
02
#670000
0!
0_
07!
08!
#675000
1!
1_
17!
18!
0d!
0;!
0c!
1b!
0J!
1^!
0]!
1P!
0g!
1s!
0r!
1h!
0l!
1m!
1e!
1n!
1:!
0K!
1L!
1h
11!
0f
02!
12
00
0&
1%
#680000
0!
0_
07!
08!
#685000
1!
1_
17!
18!
1d!
1;!
0^!
1_!
0P!
1g!
0q!
1r!
0e!
0n!
0:!
1<!
0L!
1M!
0d
03!
1f
12!
10
0.
0'
1&
#690000
0!
0_
07!
08!
#695000
1!
1_
17!
18!
0d!
0;!
1c!
0_!
1`!
1Q!
0f!
0p!
1q!
0m!
1e!
1n!
1:!
0M!
1N!
1d
13!
0b
04!
1.
0,
0(
1'
#700000
0!
0_
07!
08!
#705000
1!
1_
17!
18!
1d!
1;!
0`!
1a!
0Q!
1f!
0o!
1p!
0e!
0n!
0:!
1>!
0<!
0=!
0N!
0O!
0`
05!
1b
14!
1,
0*
0)
1(
#710000
0!
0_
07!
08!
#715000
1!
1_
17!
18!
0d!
0;!
0c!
0b!
1S!
1R!
0a!
0Z!
1v!
1o!
0~!
1l!
1m!
1e!
1n!
1:!
0>!
09!
1O!
1E!
0n
0.!
1"!
1'!
0$!
0&!
1`
15!
1J
08
0"
1O
0L
1*
0N
1)
#720000
0!
0_
07!
08!
#725000
1!
1_
17!
18!
1d!
1;!
1F!
1Z!
1[!
0u!
0v!
0j!
0e!
0n!
0:!
1<!
1G!
0E!
1n
1.!
0l
0/!
18
1"
06
0#
#730000
0!
0_
07!
08!
#735000
1!
1_
17!
18!
0d!
0;!
1c!
0F!
1H!
0[!
1\!
0t!
1u!
0i!
1j!
0m!
1e!
1n!
1:!
0G!
1I!
00!
1l
1/!
0j
0$
1#
16
04
#740000
0!
0_
07!
08!
#745000
1!
1_
17!
18!
1d!
1;!
0H!
1J!
0\!
1]!
0s!
1t!
0h!
1i!
0e!
0n!
0:!
0<!
1=!
0I!
1K!
10!
1j
0h
01!
0%
1$
14
02
#750000
0!
0_
07!
08!
#755000
1!
1_
17!
18!
0d!
0;!
0c!
1b!
0J!
1^!
0]!
1P!
0g!
1s!
0r!
1h!
0l!
1m!
1e!
1n!
1:!
0K!
1L!
1h
11!
0f
02!
12
00
0&
1%
#760000
0!
0_
07!
08!
#765000
1!
1_
17!
18!
1d!
1;!
0^!
1_!
0P!
1g!
0q!
1r!
0e!
0n!
0:!
1<!
0L!
1M!
0d
03!
1f
12!
10
0.
0'
1&
#770000
0!
0_
07!
08!
#775000
1!
1_
17!
18!
0d!
0;!
1c!
0_!
1`!
1Q!
0f!
0p!
1q!
0m!
1e!
1n!
1:!
0M!
1N!
1d
13!
0b
04!
1.
0,
0(
1'
#780000
0!
0_
07!
08!
#785000
1!
1_
17!
18!
1d!
1;!
0`!
1a!
0Q!
1f!
0o!
1p!
0e!
0n!
0:!
1>!
0<!
0=!
0N!
0O!
0`
05!
1b
14!
1,
0*
0)
1(
#790000
0!
0_
07!
08!
