BME 393L/Lab 1/schematic/simulation/qsim/Simple_circuit_schematic_entry.msim.vcd
$comment
	File created using the following command:
		vcd file Simple_circuit_schematic_entry.msim.vcd -direction
$end
$date
	Tue Jan 18 12:28:55 2022
$end
$version
	ModelSim Version 10.5b
$end
$timescale
	1ps
$end

$scope module Simple_circuit_schematic_entry_vlg_vec_tst $end
$var reg 4 ! SW [3:0] $end
$var wire 1 " LEDG [2] $end
$var wire 1 # LEDG [1] $end
$var wire 1 $ LEDG [0] $end

$scope module i1 $end
$var wire 1 % gnd $end
$var wire 1 & vcc $end
$var wire 1 ' unknown $end
$var tri1 1 ( devclrn $end
$var tri1 1 ) devpor $end
$var tri1 1 * devoe $end
$var wire 1 + ~QUARTUS_CREATED_GND~I_combout $end
$var wire 1 , SW[2]~input_o $end
$var wire 1 - SW[3]~input_o $end
$var wire 1 . SW[0]~input_o $end
$var wire 1 / SW[1]~input_o $end
$var wire 1 0 inst6~combout $end
$var wire 1 1 inst5~combout $end
$var wire 1 2 inst~combout $end
$upscope $end
$upscope $end
$enddefinitions $end
#0
$dumpvars
b0 !
0$
0#
0"
0%
1&
x'
1(
1)
1*
0+
0,
0-
0.
0/
00
01
02
$end
#5000
b1 !
1.
12
1$
#10000
b11 !
b10 !
0.
1/
11
02
0$
1#
#15000
b110 !
b111 !
1.
1,
01
10
1"
0#
#20000
b1111 !
b1101 !
b1100 !
0.
0/
1-
11
00
12
1$
0"
1#
#25000
b1101 !
1.
02
01
10
1"
0#
0$
#30000
b1001 !
b1011 !
b1010 !
0.
1/
0,
#35000
b1011 !
1.
12
1$
#40000
b11 !
b1 !
b0 !
0.
0/
0-
00
02
0$
0"
#45000
b100 !
b101 !
1.
1,
11
1#
#50000
b111 !
b110 !
0.
1/
12
1$
#55000
b111 !
1.
02
01
10
1"
0#
0$
#60000
b1111 !
b1011 !
b1001 !
b1000 !
0.
0/
0,
1-
11
00
0"
1#
#65000
b1001 !
1.
12
1$
#70000
b1011 !
b1010 !
0.
1/
01
10
02
0$
1"
0#
#75000
b1110 !
b1111 !
1.
1,
11
1#
#80000
b111 !
b101 !
b100 !
0.
0/
0-
01
00
12
1$
0"
0#
#85000
b101 !
1.
02
11
1#
0$
#90000
b1 !
b11 !
b10 !
0.
1/
0,
#95000
b11 !
1.
12
1$
#100000
b1011 !
b1001 !
b1000 !
0.
0/
1-
02
0$
#105000
b1100 !
b1101 !
1.
1,
01
10
1"
0#
#110000
b1111 !
b1110 !
0.
1/
12
1$
#115000
b1111 !
1.
02
11
1#
0$
#120000
b111 !
b11 !
b1 !
b0 !
0.
0/
0,
0-
01
00
0"
0#
#125000
b1 !
1.
12
1$
#130000
b11 !
b10 !
0.
1/
11
02
0$
1#
#135000
b110 !
b111 !
1.
1,
01
10
1"
0#
#140000
b1111 !
b1101 !
b1100 !
0.
0/
1-
11
00
12
1$
0"
1#
#145000
b1101 !
1.
02
01
10
1"
0#
0$
#150000
b1001 !
b1011 !
b1010 !
0.
1/
0,
#155000
b1011 !
1.
12
1$
#160000
b11 !
b1 !
b0 !
0.
0/
0-
00
02
0$
0"
#165000
b100 !
b101 !
1.
1,
11
1#
#170000
b111 !
b110 !
0.
1/
12
1$
#175000
b111 !
1.
02
01
10
1"
0#
0$
#180000
b1111 !
b1011 !
b1001 !
b1000 !
0.
0/
0,
1-
11
00
0"
1#
#185000
b1001 !
1.
12
1$
#190000
b1011 !
b1010 !
0.
1/
01
10
02
0$
1"
0#
#195000
b1110 !
b1111 !
1.
1,
11
1#
#200000
b111 !
b101 !
b100 !
0.
0/
0-
01
00
12
1$
0"
0#
#205000
b101 !
1.
02
11
1#
0$
#210000
b1 !
b11 !
b10 !
0.
1/
0,
#215000
b11 !
1.
12
1$
#220000
b1011 !
b1001 !
b1000 !
0.
0/
1-
02
0$
#225000
b1100 !
b1101 !
1.
1,
01
10
1"
0#
#230000
b1111 !
b1110 !
0.
1/
12
1$
#235000
b1111 !
1.
02
11
1#
0$
#240000
b111 !
b11 !
b1 !
b0 !
0.
0/
0,
0-
01
00
0"
0#
#245000
b1 !
1.
12
1$
#250000
b11 !
b10 !
0.
1/
11
02
0$
1#
#255000
b110 !
b111 !
1.
1,
01
10
1"
0#
#260000
b1111 !
b1101 !
b1100 !
0.
0/
1-
11
00
12
1$
0"
1#
#265000
b1101 !
1.
02
01
10
1"
0#
0$
#270000
b1001 !
b1011 !
b1010 !
0.
1/
0,
#275000
b1011 !
1.
12
1$
#280000
b11 !
b1 !
b0 !
0.
0/
0-
00
02
0$
0"
#285000
b100 !
b101 !
1.
1,
11
1#
#290000
b111 !
b110 !
0.
1/
12
1$
#295000
b111 !
1.
02
01
10
1"
0#
0$
#300000
b1111 !
b1011 !
b1001 !
b1000 !
0.
0/
0,
1-
11
00
0"
1#
#305000
b1001 !
1.
12
1$
#310000
b1011 !
b1010 !
0.
1/
01
10
02
0$
1"
0#
#315000
b1110 !
b1111 !
1.
1,
11
1#
#320000
b111 !
b101 !
b100 !
0.
0/
0-
01
00
12
1$
0"
0#
#325000
b101 !
1.
02
11
1#
0$
#330000
b1 !
b11 !
b10 !
0.
1/
0,
#335000
b11 !
1.
12
1$
#340000
b1011 !
b1001 !
b1000 !
0.
0/
1-
02
0$
#345000
b1100 !
b1101 !
1.
1,
01
10
1"
0#
#350000
b1111 !
b1110 !
0.
1/
12
1$
#355000
b1111 !
1.
02
11
1#
0$
#360000
b111 !
b11 !
b1 !
b0 !
0.
0/
0,
0-
01
00
0"
0#
#365000
b1 !
1.
12
1$
#370000
b11 !
b10 !
0.
1/
11
02
0$
1#
#375000
b110 !
b111 !
1.
1,
01
10
1"
0#
#380000
b1111 !
b1101 !
b1100 !
0.
0/
1-
11
00
12
1$
0"
1#
#385000
b1101 !
1.
02
01
10
1"
0#
0$
#390000
b1001 !
b1011 !
b1010 !
0.
1/
0,
#395000
b1011 !
1.
12
1$
#400000
b11 !
b1 !
b0 !
0.
0/
0-
00
02
0$
0"
#405000
b100 !
b101 !
1.
1,
11
1#
#410000
b111 !
b110 !
0.
1/
12
1$
#415000
b111 !
1.
02
01
10
1"
0#
0$
#420000
b1111 !
b1011 !
b1001 !
b1000 !
0.
0/
0,
1-
11
00
0"
1#
#425000
b1001 !
1.
12
1$
#430000
b1011 !
b1010 !
0.
1/
01
10
02
0$
1"
0#
#435000
b1110 !
b1111 !
1.
1,
11
1#
#440000
b111 !
b101 !
b100 !
0.
0/
0-
01
00
12
1$
0"
0#
#445000
b101 !
1.
02
11
1#
0$
#450000
b1 !
b11 !
b10 !
0.
1/
0,
#455000
b11 !
1.
12
1$
#460000
b1011 !
b1001 !
b1000 !
0.
0/
1-
02
0$
#465000
b1100 !
b1101 !
1.
1,
01
10
1"
0#
#470000
b1111 !
b1110 !
0.
1/
12
1$
#475000
b1111 !
1.
02
11
1#
0$
#480000
b111 !
b11 !
b1 !
b0 !
0.
0/
0,
0-
01
00
0"
0#
#485000
b1 !
1.
12
1$
#490000
b11 !
b10 !
0.
1/
11
02
0$
1#
#495000
b110 !
b111 !
1.
1,
01
10
1"
0#
#500000
b1111 !
b1101 !
b1100 !
0.
0/
1-
11
00
12
1$
0"
1#
#505000
b1101 !
1.
02
01
10
1"
0#
0$
#510000
b1001 !
b1011 !
b1010 !
0.
1/
0,
#515000
b1011 !
1.
12
1$
#520000
b11 !
b1 !
b0 !
0.
0/
0-
00
02
0$
0"
#525000
b100 !
b101 !
1.
1,
11
1#
#530000
b111 !
b110 !
0.
1/
12
1$
#535000
b111 !
1.
02
01
10
1"
0#
0$
#540000
b1111 !
b1011 !
b1001 !
b1000 !
0.
0/
0,
1-
11
00
0"
1#
#545000
b1001 !
1.
12
1$
#550000
b1011 !
b1010 !
0.
1/
01
10
02
0$
1"
0#
#555000
b1110 !
b1111 !
1.
1,
11
1#
#560000
b111 !
b101 !
b100 !
0.
0/
0-
01
00
12
1$
0"
0#
#565000
b101 !
1.
02
11
1#
0$
#570000
b1 !
b11 !
b10 !
0.
1/
0,
#575000
b11 !
1.
12
1$
#580000
b1011 !
b1001 !
b1000 !
0.
0/
1-
02
0$
#585000
b1100 !
b1101 !
1.
1,
01
10
1"
0#
#590000
b1111 !
b1110 !
0.
1/
12
1$
#595000
b1111 !
1.
02
11
1#
0$
#600000
b111 !
b11 !
b1 !
b0 !
0.
0/
0,
0-
01
00
0"
0#
#605000
b1 !
1.
12
1$
#610000
b11 !
b10 !
0.
1/
11
02
0$
1#
#615000
b110 !
b111 !
1.
1,
01
10
1"
0#
#620000
b1111 !
b1101 !
b1100 !
0.
0/
1-
11
00
12
1$
0"
1#
#625000
b1101 !
1.
02
01
10
1"
0#
0$
#630000
b1001 !
b1011 !
b1010 !
0.
1/
0,
#635000
b1011 !
1.
12
1$
#640000
b11 !
b1 !
b0 !
0.
0/
0-
00
02
0$
0"
#645000
b100 !
b101 !
1.
1,
11
1#
#650000
b111 !
b110 !
0.
1/
12
1$
#655000
b111 !
1.
02
01
10
1"
0#
0$
#660000
b1111 !
b1011 !
b1001 !
b1000 !
0.
0/
0,
1-
11
00
0"
1#
#665000
b1001 !
1.
12
1$
#670000
b1011 !
b1010 !
0.
1/
01
10
02
0$
1"
0#
#675000
b1110 !
b1111 !
1.
1,
11
1#
#680000
b111 !
b101 !
b100 !
0.
0/
0-
01
00
12
1$
0"
0#
#685000
b101 !
1.
02
11
1#
0$
#690000
b1 !
b11 !
b10 !
0.
1/
0,
#695000
b11 !
1.
12
1$
#700000
b1011 !
b1001 !
b1000 !
0.
0/
1-
02
0$
#705000
b1100 !
b1101 !
1.
1,
01
10
1"
0#
#710000
b1111 !
b1110 !
0.
1/
12
1$
#715000
b1111 !
1.
02
11
1#
0$
#720000
b111 !
b11 !
b1 !
b0 !
0.
0/
0,
0-
01
00
0"
0#
#725000
b1 !
1.
12
1$
#730000
b11 !
b10 !
0.
1/
11
02
0$
1#
#735000
b110 !
b111 !
1.
1,
01
10
1"
0#
#740000
b1111 !
b1101 !
b1100 !
0.
0/
1-
11
00
12
1$
0"
1#
#745000
b1101 !
1.
02
01
10
1"
0#
0$
#750000
b1001 !
b1011 !
b1010 !
0.
1/
0,
#755000
b1011 !
1.
12
1$
#760000
b11 !
b1 !
b0 !
0.
0/
0-
00
02
0$
0"
#765000
b100 !
b101 !
1.
1,
11
1#
#770000
b111 !
b110 !
0.
1/
12
1$
#775000
b111 !
1.
02
01
10
1"
0#
0$
#780000
b1111 !
b1011 !
b1001 !
b1000 !
0.
0/
0,
1-
11
00
0"
1#
#785000
b1001 !
1.
12
1$
#790000
b1011 !
b1010 !
0.
1/
01
10
02
0$
1"
0#
#795000
b1110 !
b1111 !
1.
1,
11
1#
#800000
b111 !
b101 !
b100 !
0.
0/
0-
01
00
12
1$
0"
0#
#805000
b101 !
1.
02
11
1#
0$
#810000
b1 !
b11 !
b10 !
0.
1/
0,
#815000
b11 !
1.
12
1$
#820000
b1011 !
b1001 !
b1000 !
0.
0/
1-
02
0$
#825000
b1100 !
b1101 !
1.
1,
01
10
1"
0#
#830000
b1111 !
b1110 !
0.
1/
12
1$
#835000
b1111 !
1.
02
11
1#
0$
#840000
b111 !
b11 !
b1 !
b0 !
0.
0/
0,
0-
01
00
0"
0#
#845000
b1 !
1.
12
1$
#850000
b11 !
b10 !
0.
1/
11
02
0$
1#
#855000
b110 !
b111 !
1.
1,
01
10
1"
0#
#860000
b1111 !
b1101 !
b1100 !
0.
0/
1-
11
00
12
1$
0"
1#
#865000
b1101 !
1.
02
01
10
1"
0#
0$
#870000
b1001 !
b1011 !
b1010 !
0.
1/
0,
#875000
b1011 !
1.
12
1$
#880000
b11 !
b1 !
b0 !
0.
0/
0-
00
02
0$
0"
#885000
b100 !
b101 !
1.
1,
11
1#
#890000
b111 !
b110 !
0.
1/
12
1$
#895000
b111 !
1.
02
01
10
1"
0#
0$
#900000
b1111 !
b1011 !
b1001 !
b1000 !
0.
0/
0,
1-
11
00
0"
1#
#905000
b1001 !
1.
12
1$
#910000
b1011 !
b1010 !
0.
1/
01
10
02
0$
1"
0#
#915000
b1110 !
b1111 !
1.
1,
11
1#
#920000
b111 !
b101 !
b100 !
0.
0/
0-
01
00
12
1$
0"
0#
#925000
b101 !
1.
02
11
1#
0$
#930000
b1 !
b11 !
b10 !
0.
1/
0,
#935000
b11 !
1.
12
1$
#940000
b1011 !
b1001 !
b1000 !
0.
0/
1-
02
0$
#945000
b1100 !
b1101 !
1.
1,
01
10
1"
0#
#950000
b1111 !
b1110 !
0.
1/
12
1$
#955000
b1111 !
1.
02
11
1#
0$
#960000
b111 !
b11 !
b1 !
b0 !
0.
0/
0,
0-
01
00
0"
0#
#965000
b1 !
1.
12
1$
#970000
b11 !
b10 !
0.
1/
11
02
0$
1#
#975000
b110 !
b111 !
1.
1,
01
10
1"
0#
#980000
b1111 !
b1101 !
b1100 !
0.
0/
1-
11
00
12
1$
0"
1#
#985000
b1101 !
1.
02
01
10
1"
0#
0$
#990000
b1001 !
b1011 !
b1010 !
0.
1/
0,
#995000
b1011 !
1.
12
1$
