BME 393L/Lab 3/four_bit/simulation/qsim/four_bit.msim.vcd
$comment
	File created using the following command:
		vcd file four_bit.msim.vcd -direction
$end
$date
	Sat Jan 29 17:17:29 2022
$end
$version
	ModelSim Version 10.5b
$end
$timescale
	1ps
$end

$scope module four_bit_vhd_vec_tst $end
$var wire 1 ! LEDG [4] $end
$var wire 1 " LEDG [3] $end
$var wire 1 # LEDG [2] $end
$var wire 1 $ LEDG [1] $end
$var wire 1 % LEDG [0] $end
$var wire 1 & SW [9] $end
$var wire 1 ' SW [8] $end
$var wire 1 ( SW [7] $end
$var wire 1 ) SW [6] $end
$var wire 1 * SW [5] $end
$var wire 1 + SW [4] $end
$var wire 1 , SW [3] $end
$var wire 1 - SW [2] $end
$var wire 1 . SW [1] $end
$var wire 1 / SW [0] $end

$scope module i1 $end
$var wire 1 0 gnd $end
$var wire 1 1 vcc $end
$var wire 1 2 unknown $end
$var wire 1 3 devoe $end
$var wire 1 4 devclrn $end
$var wire 1 5 devpor $end
$var wire 1 6 ww_devoe $end
$var wire 1 7 ww_devclrn $end
$var wire 1 8 ww_devpor $end
$var wire 1 9 ww_SW [9] $end
$var wire 1 : ww_SW [8] $end
$var wire 1 ; ww_SW [7] $end
$var wire 1 < ww_SW [6] $end
$var wire 1 = ww_SW [5] $end
$var wire 1 > ww_SW [4] $end
$var wire 1 ? ww_SW [3] $end
$var wire 1 @ ww_SW [2] $end
$var wire 1 A ww_SW [1] $end
$var wire 1 B ww_SW [0] $end
$var wire 1 C ww_LEDG [4] $end
$var wire 1 D ww_LEDG [3] $end
$var wire 1 E ww_LEDG [2] $end
$var wire 1 F ww_LEDG [1] $end
$var wire 1 G ww_LEDG [0] $end
$var wire 1 H \SW[4]~input_o\ $end
$var wire 1 I \SW[5]~input_o\ $end
$var wire 1 J \~QUARTUS_CREATED_GND~I_combout\ $end
$var wire 1 K \SW[0]~input_o\ $end
$var wire 1 L \SW[6]~input_o\ $end
$var wire 1 M \Add0~1_sumout\ $end
$var wire 1 N \SW[1]~input_o\ $end
$var wire 1 O \SW[7]~input_o\ $end
$var wire 1 P \Add0~2\ $end
$var wire 1 Q \Add0~5_sumout\ $end
$var wire 1 R \SW[8]~input_o\ $end
$var wire 1 S \SW[2]~input_o\ $end
$var wire 1 T \Add0~6\ $end
$var wire 1 U \Add0~9_sumout\ $end
$var wire 1 V \SW[9]~input_o\ $end
$var wire 1 W \SW[3]~input_o\ $end
$var wire 1 X \Add0~10\ $end
$var wire 1 Y \Add0~13_sumout\ $end
$var wire 1 Z \Add0~14\ $end
$var wire 1 [ \Add0~17_sumout\ $end
$var wire 1 \ \ALT_INV_SW[3]~input_o\ $end
$var wire 1 ] \ALT_INV_SW[9]~input_o\ $end
$var wire 1 ^ \ALT_INV_SW[2]~input_o\ $end
$var wire 1 _ \ALT_INV_SW[8]~input_o\ $end
$var wire 1 ` \ALT_INV_SW[1]~input_o\ $end
$var wire 1 a \ALT_INV_SW[7]~input_o\ $end
$var wire 1 b \ALT_INV_SW[0]~input_o\ $end
$var wire 1 c \ALT_INV_SW[6]~input_o\ $end
$upscope $end
$upscope $end
$enddefinitions $end
#0
$dumpvars
00
11
x2
13
14
15
16
17
18
xH
xI
xJ
0K
0L
0M
0N
0O
0P
0Q
0R
0S
0T
0U
0V
0W
0X
0Y
0Z
0[
1\
1]
1^
1_
1`
1a
1b
1c
0&
0'
0(
0)
x*
x+
0,
0-
0.
0/
09
0:
0;
0<
x=
x>
0?
0@
0A
0B
0C
0D
0E
0F
0G
0!
0"
0#
0$
0%
$end
#2500
1,
1?
1W
0\
1Y
1D
1"
#5000
0,
1-
1@
0?
0W
1S
0^
1\
0Y
1U
1E
0D
1#
0"
#7500
1,
1?
1W
0\
1Y
1D
1"
#10000
0,
0-
1.
1A
0@
0?
0W
0S
1N
0`
1^
1\
0Y
0U
1Q
1F
0E
0D
1$
0#
0"
#12500
1,
1?
1W
0\
1Y
1D
1"
#15000
0,
1-
1@
0?
0W
1S
0^
1\
0Y
1U
1E
0D
1#
0"
#17500
1,
1?
1W
0\
1Y
1D
1"
#20000
0,
0-
0.
1/
1B
0A
0@
0?
0W
0S
0N
1K
0b
1`
1^
1\
0Y
0U
0Q
1M
1G
0F
0E
0D
1%
0$
0#
0"
#22500
1,
1?
1W
0\
1Y
1D
1"
#25000
0,
1-
1@
0?
0W
1S
0^
1\
0Y
1U
1E
0D
1#
0"
#27500
1,
1?
1W
0\
1Y
1D
1"
#30000
0,
0-
1.
1A
0@
0?
0W
0S
1N
0`
1^
1\
0Y
0U
1Q
1F
0E
0D
1$
0#
0"
#32500
1,
1?
1W
0\
1Y
1D
1"
#35000
0,
1-
1@
0?
0W
1S
0^
1\
0Y
1U
1E
0D
1#
0"
#37500
1,
1?
1W
0\
1Y
1D
1"
#40000
0,
0-
0.
0/
1&
0B
0A
0@
0?
19
1V
0W
0S
0N
0K
1b
1`
1^
1\
0]
0U
0Q
0M
0G
0F
0E
0%
0$
0#
#42500
1,
1?
1W
0\
0Y
1Z
1[
0D
0"
1C
1!
#45000
0,
1-
1@
0?
0W
1S
0^
1\
1Y
0Z
1U
0[
1E
1D
1#
1"
0C
0!
#47500
1,
1?
1W
0\
0Y
1Z
1[
0D
0"
1C
1!
#50000
0,
0-
1.
1A
0@
0?
0W
0S
1N
0`
1^
1\
1Y
0Z
0U
1Q
0[
1F
0E
1D
1$
0#
1"
0C
0!
#52500
1,
1?
1W
0\
0Y
1Z
1[
0D
0"
1C
1!
#55000
0,
1-
1@
0?
0W
1S
0^
1\
1Y
0Z
1U
0[
1E
1D
1#
1"
0C
0!
#57500
1,
1?
1W
0\
0Y
1Z
1[
0D
0"
1C
1!
#60000
0,
0-
0.
1/
1B
0A
0@
0?
0W
0S
0N
1K
0b
1`
1^
1\
1Y
0Z
0U
0Q
1M
0[
1G
0F
0E
1D
1%
0$
0#
1"
0C
0!
#62500
1,
1?
1W
0\
0Y
1Z
1[
0D
0"
1C
1!
#65000
0,
1-
1@
0?
0W
1S
0^
1\
1Y
0Z
1U
0[
1E
1D
1#
1"
0C
0!
#67500
1,
1?
1W
0\
0Y
1Z
1[
0D
0"
1C
1!
#70000
0,
0-
1.
1A
0@
0?
0W
0S
1N
0`
1^
1\
1Y
0Z
0U
1Q
0[
1F
0E
1D
1$
0#
1"
0C
0!
#72500
1,
1?
1W
0\
0Y
1Z
1[
0D
0"
1C
1!
#75000
0,
1-
1@
0?
0W
1S
0^
1\
1Y
0Z
1U
0[
1E
1D
1#
1"
0C
0!
#77500
1,
1?
1W
0\
0Y
1Z
1[
0D
0"
1C
1!
#80000
0,
0-
0.
0/
0&
1'
0B
0A
0@
0?
1:
09
0V
1R
0W
0S
0N
0K
1b
1`
1^
1\
0_
1]
0Z
0Q
0M
0[
0G
0F
0%
0$
0C
0!
#82500
1,
1?
1W
0\
1Y
1D
1"
#85000
0,
1-
1@
0?
0W
1S
0^
1\
0Y
0U
1X
1Y
0E
0D
0#
0"
1D
1"
#87500
1,
1?
1W
0\
0Y
1Z
1[
0D
0"
1C
1!
#90000
0,
0-
1.
1A
0@
0?
0W
0S
1N
0`
1^
1\
1Y
0Z
1U
0X
1Q
0Y
0[
1F
1E
1D
1$
1#
1"
0C
0D
0"
0!
#92500
1,
1?
1W
0\
1Y
1D
1"
#95000
0,
1-
1@
0?
0W
1S
0^
1\
0Y
0U
1X
1Y
0E
0D
0#
0"
1D
1"
#97500
1,
1?
1W
0\
0Y
1Z
1[
0D
0"
1C
1!
#100000
0,
0-
0.
1/
1B
0A
0@
0?
0W
0S
0N
1K
0b
1`
1^
1\
1Y
0Z
1U
0X
0Q
1M
0Y
0[
1G
0F
1E
1D
1%
0$
1#
1"
0C
0D
0"
0!
#102500
1,
1?
1W
0\
1Y
1D
1"
#105000
0,
1-
1@
0?
0W
1S
0^
1\
0Y
0U
1X
1Y
0E
0D
0#
0"
1D
1"
#107500
1,
1?
1W
0\
0Y
1Z
1[
0D
0"
1C
1!
#110000
0,
0-
1.
1A
0@
0?
0W
0S
1N
0`
1^
1\
1Y
0Z
1U
0X
1Q
0Y
0[
1F
1E
1D
1$
1#
1"
0C
0D
0"
0!
#112500
1,
1?
1W
0\
1Y
1D
1"
#115000
0,
1-
1@
0?
0W
1S
0^
1\
0Y
0U
1X
1Y
0E
0D
0#
0"
1D
1"
#117500
1,
1?
1W
0\
0Y
1Z
1[
0D
0"
1C
1!
#120000
0,
0-
0.
0/
1&
0B
0A
0@
0?
19
1V
0W
0S
0N
0K
1b
1`
1^
1\
0]
1U
0X
0Q
0M
1Y
0Z
0[
0G
0F
1E
0%
0$
1#
1D
1"
0C
0!
#122500
1,
1?
1W
0\
0Y
1Z
1[
0D
0"
1C
1!
#125000
0,
1-
1@
0?
0W
1S
0^
1\
1Y
0Z
0U
1X
0Y
1Z
0[
1[
0E
1D
0#
1"
0C
0D
0"
0!
1C
1!
#127500
1,
1?
1W
0\
1Y
1D
1"
#130000
0,
0-
1.
1A
0@
0?
0W
0S
1N
0`
1^
1\
0Y
1U
0X
1Q
1Y
0Z
0[
1F
1E
0D
1$
1#
0"
1D
1"
0C
0!
#132500
1,
1?
1W
0\
0Y
1Z
1[
0D
0"
1C
1!
#135000
0,
1-
1@
0?
0W
1S
0^
1\
1Y
0Z
0U
1X
0Y
1Z
0[
1[
0E
1D
0#
1"
0C
0D
0"
0!
1C
1!
#137500
1,
1?
1W
0\
1Y
1D
1"
#140000
0,
0-
0.
1/
1B
0A
0@
0?
0W
0S
0N
1K
0b
1`
1^
1\
0Y
1U
0X
0Q
1M
1Y
0Z
0[
1G
0F
1E
0D
1%
0$
1#
0"
1D
1"
0C
0!
#142500
1,
1?
1W
0\
0Y
1Z
1[
0D
0"
1C
1!
#145000
0,
1-
1@
0?
0W
1S
0^
1\
1Y
0Z
0U
1X
0Y
1Z
0[
1[
0E
1D
0#
1"
0C
0D
0"
0!
1C
1!
#147500
1,
1?
1W
0\
1Y
1D
1"
#150000
0,
0-
1.
1A
0@
0?
0W
0S
1N
0`
1^
1\
0Y
1U
0X
1Q
1Y
0Z
0[
1F
1E
0D
1$
1#
0"
1D
1"
0C
0!
#152500
1,
1?
1W
0\
0Y
1Z
1[
0D
0"
1C
1!
#155000
0,
1-
1@
0?
0W
1S
0^
1\
1Y
0Z
0U
1X
0Y
1Z
0[
1[
0E
1D
0#
1"
0C
0D
0"
0!
1C
1!
#157500
1,
1?
1W
0\
1Y
1D
1"
#160000
0,
0-
0.
0/
0&
0'
1(
0B
0A
0@
0?
1;
0:
09
0V
0R
1O
0W
0S
0N
0K
1b
1`
1^
1\
0a
1_
1]
0Z
0X
0M
0Y
0[
0G
0%
0C
0D
0"
0!
#162500
1,
1?
1W
0\
1Y
1D
1"
#165000
0,
1-
1@
0?
0W
1S
0^
1\
0Y
1U
1E
0D
1#
0"
#167500
1,
1?
1W
0\
1Y
1D
1"
#170000
0,
0-
1.
1A
0@
0?
0W
0S
1N
0`
1^
1\
0Y
0U
0Q
1T
1U
0F
0E
0D
0$
0#
0"
1E
1#
#172500
1,
1?
1W
0\
1Y
1D
1"
#175000
0,
1-
1@
0?
0W
1S
0^
1\
0Y
0U
1X
1Y
0E
0D
0#
0"
1D
1"
#177500
1,
1?
1W
0\
0Y
1Z
1[
0D
0"
1C
1!
#180000
0,
0-
0.
1/
1B
0A
0@
0?
0W
0S
0N
1K
0b
1`
1^
1\
1Y
0Z
1U
0X
1Q
0T
1M
0U
0Y
0[
1G
1F
1E
1D
1%
1$
1#
1"
0C
0D
0E
0#
0"
0!
#182500
1,
1?
1W
0\
1Y
1D
1"
#185000
0,
1-
1@
0?
0W
1S
0^
1\
0Y
1U
1E
0D
1#
0"
#187500
1,
1?
1W
0\
1Y
1D
1"
#190000
0,
0-
1.
1A
0@
0?
0W
0S
1N
0`
1^
1\
0Y
0U
0Q
1T
1U
0F
0E
0D
0$
0#
0"
1E
1#
#192500
1,
1?
1W
0\
1Y
1D
1"
#195000
0,
1-
1@
0?
0W
1S
0^
1\
0Y
0U
1X
1Y
0E
0D
0#
0"
1D
1"
#197500
1,
1?
1W
0\
0Y
1Z
1[
0D
0"
1C
1!
#200000
0,
0-
0.
0/
1&
0B
0A
0@
0?
19
1V
0W
0S
0N
0K
1b
1`
1^
1\
0]
1U
0X
1Q
0T
0M
0U
1Y
0Z
0[
0G
1F
1E
0%
1$
1#
1D
0E
0#
1"
0C
0!
#202500
1,
1?
1W
0\
0Y
1Z
1[
0D
0"
1C
1!
#205000
0,
1-
1@
0?
0W
1S
0^
1\
1Y
0Z
1U
0[
1E
1D
1#
1"
0C
0!
#207500
1,
1?
1W
0\
0Y
1Z
1[
0D
0"
1C
1!
#210000
0,
0-
1.
1A
0@
0?
0W
0S
1N
0`
1^
1\
1Y
0Z
0U
0Q
1T
1U
0[
0F
0E
1D
0$
0#
1"
0C
1E
1#
0!
#212500
1,
1?
1W
0\
0Y
1Z
1[
0D
0"
1C
1!
#215000
0,
1-
1@
0?
0W
1S
0^
1\
1Y
0Z
0U
1X
0Y
1Z
0[
1[
0E
1D
0#
1"
0C
0D
0"
0!
1C
1!
#217500
1,
1?
1W
0\
1Y
1D
1"
#220000
0,
0-
0.
1/
1B
0A
0@
0?
0W
0S
0N
1K
0b
1`
1^
1\
0Y
1U
0X
1Q
0T
1M
0U
1Y
0Z
0[
1G
1F
1E
0D
1%
1$
1#
0"
1D
0E
0#
1"
0C
0!
#222500
1,
1?
1W
0\
0Y
1Z
1[
0D
0"
1C
1!
#225000
0,
1-
1@
0?
0W
1S
0^
1\
1Y
0Z
1U
0[
1E
1D
1#
1"
0C
0!
#227500
1,
1?
1W
0\
0Y
1Z
1[
0D
0"
1C
1!
#230000
0,
0-
1.
1A
0@
0?
0W
0S
1N
0`
1^
1\
1Y
0Z
0U
0Q
1T
1U
0[
0F
0E
1D
0$
0#
1"
0C
1E
1#
0!
#232500
1,
1?
1W
0\
0Y
1Z
1[
0D
0"
1C
1!
#235000
0,
1-
1@
0?
0W
1S
0^
1\
1Y
0Z
0U
1X
0Y
1Z
0[
1[
0E
1D
0#
1"
0C
0D
0"
0!
1C
1!
#237500
1,
1?
1W
0\
1Y
1D
1"
#240000
0,
0-
0.
0/
0&
1'
0B
0A
0@
0?
1:
09
0V
1R
0W
0S
0N
0K
1b
1`
1^
1\
0_
1]
0Z
1Q
0T
0M
1U
0X
0[
0Y
0G
1F
0%
1$
0C
1E
1#
0!
0D
0"
#242500
1,
1?
1W
0\
1Y
1D
1"
#245000
0,
1-
1@
0?
0W
1S
0^
1\
0Y
0U
1X
1Y
0E
0D
0#
0"
1D
1"
#247500
1,
1?
1W
0\
0Y
1Z
1[
0D
0"
1C
1!
#250000
0,
0-
1.
1A
0@
0?
0W
0S
1N
0`
1^
1\
1Y
0Z
1U
0X
0Q
1T
0U
1X
0Y
0[
1Y
0F
1E
1D
0$
1#
1"
0C
0D
0E
0#
0"
0!
1D
1"
#252500
1,
1?
1W
0\
0Y
1Z
1[
0D
0"
1C
1!
#255000
0,
1-
1@
0?
0W
1S
0^
1\
1Y
0Z
1U
0[
1E
1D
1#
1"
0C
0!
#257500
1,
1?
1W
0\
0Y
1Z
1[
0D
0"
1C
1!
#260000
0,
0-
0.
1/
1B
0A
0@
0?
0W
0S
0N
1K
0b
1`
1^
1\
1Y
0Z
0U
1Q
0T
1M
1U
0X
0[
0Y
1G
1F
0E
1D
1%
1$
0#
1"
0C
1E
1#
0!
0D
0"
#262500
1,
1?
1W
0\
1Y
1D
1"
#265000
0,
1-
1@
0?
0W
1S
0^
1\
0Y
0U
1X
1Y
0E
0D
0#
0"
1D
1"
#267500
1,
1?
1W
0\
0Y
1Z
1[
0D
0"
1C
1!
#270000
0,
0-
1.
1A
0@
0?
0W
0S
1N
0`
1^
1\
1Y
0Z
1U
0X
0Q
1T
0U
1X
0Y
0[
1Y
0F
1E
1D
0$
1#
1"
0C
0D
0E
0#
0"
0!
1D
1"
#272500
1,
1?
1W
0\
0Y
1Z
1[
0D
0"
1C
1!
#275000
0,
1-
1@
0?
0W
1S
0^
1\
1Y
0Z
1U
0[
1E
1D
1#
1"
0C
0!
#277500
1,
1?
1W
0\
0Y
1Z
1[
0D
0"
1C
1!
#280000
0,
0-
0.
0/
1&
0B
0A
0@
0?
19
1V
0W
0S
0N
0K
1b
1`
1^
1\
0]
0U
1Q
0T
0M
1U
0X
1Y
0Z
0G
1F
0E
0[
0%
1$
0#
1E
1#
1D
1"
0C
0!
#282500
1,
1?
1W
0\
0Y
1Z
1[
0D
0"
1C
1!
#285000
0,
1-
1@
0?
0W
1S
0^
1\
1Y
0Z
0U
1X
0Y
1Z
0[
1[
0E
1D
0#
1"
0C
0D
0"
0!
1C
1!
#287500
1,
1?
1W
0\
1Y
1D
1"
#290000
0,
0-
1.
1A
0@
0?
0W
0S
1N
0`
1^
1\
0Y
1U
0X
0Q
1T
0U
1X
1Y
0Z
0[
0Y
1Z
0F
1E
0D
1[
0$
1#
0"
1D
0E
0#
1"
0D
0C
0"
0!
1C
1!
#292500
1,
1?
1W
0\
1Y
1D
1"
#295000
0,
1-
1@
0?
0W
1S
0^
1\
0Y
1U
1E
0D
1#
0"
#297500
1,
1?
1W
0\
1Y
1D
1"
#300000
0,
0-
0.
1/
1B
0A
0@
0?
0W
0S
0N
1K
0b
1`
1^
1\
0Y
0U
1Q
0T
1M
1U
0X
1Y
0Z
1G
1F
0E
0D
0[
1%
1$
0#
0"
1E
1#
1D
1"
0C
0!
#302500
1,
1?
1W
0\
0Y
1Z
1[
0D
0"
1C
1!
#305000
0,
1-
1@
0?
0W
1S
0^
1\
1Y
0Z
0U
1X
0Y
1Z
0[
1[
0E
1D
0#
1"
0C
0D
0"
0!
1C
1!
#307500
1,
1?
1W
0\
1Y
1D
1"
#310000
0,
0-
1.
1A
0@
0?
0W
0S
1N
0`
1^
1\
0Y
1U
0X
0Q
1T
0U
1X
1Y
0Z
0[
0Y
1Z
0F
1E
0D
1[
0$
1#
0"
1D
0E
0#
1"
0D
0C
0"
0!
1C
1!
#312500
1,
1?
1W
0\
1Y
1D
1"
#315000
0,
1-
1@
0?
0W
1S
0^
1\
0Y
1U
1E
0D
1#
0"
#317500
1,
1?
1W
0\
1Y
1D
1"
#320000
0,
0-
0.
0/
0&
0'
0(
1)
0B
0A
0@
0?
1<
0;
0:
09
0V
0R
0O
1L
0W
0S
0N
0K
1b
1`
1^
1\
0c
1a
1_
1]
0Z
0X
0T
0U
0Y
0[
0C
0D
0E
0#
0"
0!
#322500
1,
1?
1W
0\
1Y
1D
1"
#325000
0,
1-
1@
0?
0W
1S
0^
1\
0Y
1U
1E
0D
1#
0"
#327500
1,
1?
1W
0\
1Y
1D
1"
#330000
0,
0-
1.
1A
0@
0?
0W
0S
1N
0`
1^
1\
0Y
0U
1Q
1F
0E
0D
1$
0#
0"
#332500
1,
1?
1W
0\
1Y
1D
1"
#335000
0,
1-
1@
0?
0W
1S
0^
1\
0Y
1U
1E
0D
1#
0"
#337500
1,
1?
1W
0\
1Y
1D
1"
#340000
0,
0-
0.
1/
1B
0A
0@
0?
0W
0S
0N
1K
0b
1`
1^
1\
0Y
0U
0Q
0M
1P
1Q
0G
0F
0E
0D
0%
0$
0#
0"
1F
1$
#342500
1,
1?
1W
0\
1Y
1D
1"
#345000
0,
1-
1@
0?
0W
1S
0^
1\
0Y
1U
1E
0D
1#
0"
#347500
1,
1?
1W
0\
1Y
1D
1"
#350000
0,
0-
1.
1A
0@
0?
0W
0S
1N
0`
1^
1\
0Y
0U
0Q
1T
1U
0F
0E
0D
0$
0#
0"
1E
1#
#352500
1,
1?
1W
0\
1Y
1D
1"
#355000
0,
1-
1@
0?
0W
1S
0^
1\
0Y
0U
1X
1Y
0E
0D
0#
0"
1D
1"
#357500
1,
1?
1W
0\
0Y
1Z
1[
0D
0"
1C
1!
#360000
0,
0-
0.
0/
1&
0B
0A
0@
0?
19
1V
0W
0S
0N
0K
1b
1`
1^
1\
0]
1U
0X
1Q
0T
1M
0P
0Q
0U
1Y
0Z
0[
1G
1F
1E
1%
1$
1#
1D
0E
0F
0$
0#
1"
0C
0!
#362500
1,
1?
1W
0\
0Y
1Z
1[
0D
0"
1C
1!
#365000
0,
1-
1@
0?
0W
1S
0^
1\
1Y
0Z
1U
0[
1E
1D
1#
1"
0C
0!
#367500
1,
1?
1W
0\
0Y
1Z
1[
0D
0"
1C
1!
#370000
0,
0-
1.
1A
0@
0?
0W
0S
1N
0`
1^
1\
1Y
0Z
0U
1Q
0[
1F
0E
1D
1$
0#
1"
0C
0!
#372500
1,
1?
1W
0\
0Y
1Z
1[
0D
0"
1C
1!
#375000
0,
1-
1@
0?
0W
1S
0^
1\
1Y
0Z
1U
0[
1E
1D
1#
1"
0C
0!
#377500
1,
1?
1W
0\
0Y
1Z
1[
0D
0"
1C
1!
#380000
0,
0-
0.
1/
1B
0A
0@
0?
0W
0S
0N
1K
0b
1`
1^
1\
1Y
0Z
0U
0Q
0M
1P
1Q
0[
0G
0F
0E
1D
0%
0$
0#
1"
0C
1F
1$
0!
#382500
1,
1?
1W
0\
0Y
1Z
1[
0D
0"
1C
1!
#385000
0,
1-
1@
0?
0W
1S
0^
1\
1Y
0Z
1U
0[
1E
1D
1#
1"
0C
0!
#387500
1,
1?
1W
0\
0Y
1Z
1[
0D
0"
1C
1!
#390000
0,
0-
1.
1A
0@
0?
0W
0S
1N
0`
1^
1\
1Y
0Z
0U
0Q
1T
1U
0[
0F
0E
1D
0$
0#
1"
0C
1E
1#
0!
#392500
1,
1?
1W
0\
0Y
1Z
1[
0D
0"
1C
1!
#395000
0,
1-
1@
0?
0W
1S
0^
1\
1Y
0Z
0U
1X
0Y
1Z
0[
1[
0E
1D
0#
1"
0C
0D
0"
0!
1C
1!
#397500
1,
1?
1W
0\
1Y
1D
1"
#400000
0,
0-
0.
0/
0&
1'
0B
0A
0@
0?
1:
09
0V
1R
0W
0S
0N
0K
1b
1`
1^
1\
0_
1]
0Z
1Q
0T
1M
0P
0Q
1U
0X
0[
0Y
1G
1F
1%
1$
0C
1E
0F
0$
1#
0!
0D
0"
#402500
1,
1?
1W
0\
1Y
1D
1"
#405000
0,
1-
1@
0?
0W
1S
0^
1\
0Y
0U
1X
1Y
0E
0D
0#
0"
1D
1"
#407500
1,
1?
1W
0\
0Y
1Z
1[
0D
0"
1C
1!
#410000
0,
0-
1.
1A
0@
0?
0W
0S
1N
0`
1^
1\
1Y
0Z
1U
0X
1Q
0Y
0[
1F
1E
1D
1$
1#
1"
0C
0D
0"
0!
#412500
1,
1?
1W
0\
1Y
1D
1"
#415000
0,
1-
1@
0?
0W
1S
0^
1\
0Y
0U
1X
1Y
0E
0D
0#
0"
1D
1"
#417500
1,
1?
1W
0\
0Y
1Z
1[
0D
0"
1C
1!
#420000
0,
0-
0.
1/
1B
0A
0@
0?
0W
0S
0N
1K
0b
1`
1^
1\
1Y
0Z
1U
0X
0Q
0M
1P
1Q
0Y
0[
0G
0F
1E
1D
0%
0$
1#
1"
0C
0D
1F
1$
0"
0!
#422500
1,
1?
1W
0\
1Y
1D
1"
#425000
0,
1-
1@
0?
0W
1S
0^
1\
0Y
0U
1X
1Y
0E
0D
0#
0"
1D
1"
#427500
1,
1?
1W
0\
0Y
1Z
1[
0D
0"
1C
1!
#430000
0,
0-
1.
1A
0@
0?
0W
0S
1N
0`
1^
1\
1Y
0Z
1U
0X
0Q
1T
0U
1X
0Y
0[
1Y
0F
1E
1D
0$
1#
1"
0C
0D
0E
0#
0"
0!
1D
1"
#432500
1,
1?
1W
0\
0Y
1Z
1[
0D
0"
1C
1!
#435000
0,
1-
1@
0?
0W
1S
0^
1\
1Y
0Z
1U
0[
1E
1D
1#
1"
0C
0!
#437500
1,
1?
1W
0\
0Y
1Z
1[
0D
0"
1C
1!
#440000
0,
0-
0.
0/
1&
0B
0A
0@
0?
19
1V
0W
0S
0N
0K
1b
1`
1^
1\
0]
0U
1Q
0T
1M
0P
0Q
1U
0X
1Y
0Z
1G
1F
0E
0[
1%
1$
0#
1E
0F
0$
1#
1D
1"
0C
0!
#442500
1,
1?
1W
0\
0Y
1Z
1[
0D
0"
1C
1!
#445000
0,
1-
1@
0?
0W
1S
0^
1\
1Y
0Z
0U
1X
0Y
1Z
0[
1[
0E
1D
0#
1"
0C
0D
0"
0!
1C
1!
#447500
1,
1?
1W
0\
1Y
1D
1"
#450000
0,
0-
1.
1A
0@
0?
0W
0S
1N
0`
1^
1\
0Y
1U
0X
1Q
1Y
0Z
0[
1F
1E
0D
1$
1#
0"
1D
1"
0C
0!
#452500
1,
1?
1W
0\
0Y
1Z
1[
0D
0"
1C
1!
#455000
0,
1-
1@
0?
0W
1S
0^
1\
1Y
0Z
0U
1X
0Y
1Z
0[
1[
0E
1D
0#
1"
0C
0D
0"
0!
1C
1!
#457500
1,
1?
1W
0\
1Y
1D
1"
#460000
0,
0-
0.
1/
1B
0A
0@
0?
0W
0S
0N
1K
0b
1`
1^
1\
0Y
1U
0X
0Q
0M
1P
1Q
1Y
0Z
0[
0G
0F
1E
0D
0%
0$
1#
0"
1D
1F
1$
1"
0C
0!
#462500
1,
1?
1W
0\
0Y
1Z
1[
0D
0"
1C
1!
#465000
0,
1-
1@
0?
0W
1S
0^
1\
1Y
0Z
0U
1X
0Y
1Z
0[
1[
0E
1D
0#
1"
0C
0D
0"
0!
1C
1!
#467500
1,
1?
1W
0\
1Y
1D
1"
#470000
0,
0-
1.
1A
0@
0?
0W
0S
1N
0`
1^
1\
0Y
1U
0X
0Q
1T
0U
1X
1Y
0Z
0[
0Y
1Z
0F
1E
0D
1[
0$
1#
0"
1D
0E
0#
1"
0D
0C
0"
0!
1C
1!
#472500
1,
1?
1W
0\
1Y
1D
1"
#475000
0,
1-
1@
0?
0W
1S
0^
1\
0Y
1U
1E
0D
1#
0"
#477500
1,
1?
1W
0\
1Y
1D
1"
#480000
0,
0-
0.
0/
0&
0'
1(
0B
0A
0@
0?
1;
0:
09
0V
0R
1O
0W
0S
0N
0K
1b
1`
1^
1\
0a
1_
1]
0Z
0X
1M
0P
1Q
0T
0Y
0[
0U
1G
1%
0C
0D
1F
1$
0"
0!
0E
0#
#482500
1,
1?
1W
0\
1Y
1D
1"
#485000
0,
1-
1@
0?
0W
1S
0^
1\
0Y
1U
1E
0D
1#
0"
#487500
1,
1?
1W
0\
1Y
1D
1"
#490000
0,
0-
1.
1A
0@
0?
0W
0S
1N
0`
1^
1\
0Y
0U
0Q
1T
1U
0F
0E
0D
0$
0#
0"
1E
1#
#492500
1,
1?
1W
0\
1Y
1D
1"
#495000
0,
1-
1@
0?
0W
1S
0^
1\
0Y
0U
1X
1Y
0E
0D
0#
0"
1D
1"
#497500
1,
1?
1W
0\
0Y
1Z
1[
0D
0"
1C
1!
#500000
0,
0-
0.
1/
1B
0A
0@
0?
0W
0S
0N
1K
0b
1`
1^
1\
1Y
0Z
1U
0X
1Q
0T
0M
1P
0Q
1T
0U
0Y
0[
1U
0G
1F
1E
1D
0%
1$
1#
1"
0C
0D
0E
0F
0$
0#
0"
0!
1E
1#
#502500
1,
1?
1W
0\
1Y
1D
1"
#505000
0,
1-
1@
0?
0W
1S
0^
1\
0Y
0U
1X
1Y
0E
0D
0#
0"
1D
1"
#507500
1,
1?
1W
0\
0Y
1Z
1[
0D
0"
1C
1!
#510000
0,
0-
1.
1A
0@
0?
0W
0S
1N
0`
1^
1\
1Y
0Z
1U
0X
1Q
0Y
0[
1F
1E
1D
1$
1#
1"
0C
0D
0"
0!
#512500
1,
1?
1W
0\
1Y
1D
1"
#515000
0,
1-
1@
0?
0W
1S
0^
1\
0Y
0U
1X
1Y
0E
0D
0#
0"
1D
1"
#517500
1,
1?
1W
0\
0Y
1Z
1[
0D
0"
1C
1!
#520000
0,
0-
0.
0/
1&
0B
0A
0@
0?
19
1V
0W
0S
0N
0K
1b
1`
1^
1\
0]
1U
0X
0Q
1M
0P
1Q
0T
1Y
0Z
0[
0U
1G
0F
1E
1%
0$
1#
1D
1F
1$
1"
0E
0C
0#
0!
#522500
1,
1?
1W
0\
0Y
1Z
1[
0D
0"
1C
1!
#525000
0,
1-
1@
0?
0W
1S
0^
1\
1Y
0Z
1U
0[
1E
1D
1#
1"
0C
0!
#527500
1,
1?
1W
0\
0Y
1Z
1[
0D
0"
1C
1!
#530000
0,
0-
1.
1A
0@
0?
0W
0S
1N
0`
1^
1\
1Y
0Z
0U
0Q
1T
1U
0[
0F
0E
1D
0$
0#
1"
0C
1E
1#
0!
#532500
1,
1?
1W
0\
0Y
1Z
1[
0D
0"
1C
1!
#535000
0,
1-
1@
0?
0W
1S
0^
1\
1Y
0Z
0U
1X
0Y
1Z
0[
1[
0E
1D
0#
1"
0C
0D
0"
0!
1C
1!
#537500
1,
1?
1W
0\
1Y
1D
1"
#540000
0,
0-
0.
1/
1B
0A
0@
0?
0W
0S
0N
1K
0b
1`
1^
1\
0Y
1U
0X
1Q
0T
0M
1P
0Q
1T
0U
1Y
0Z
0[
1U
0G
1F
1E
0D
0%
1$
1#
0"
1D
0E
0F
0$
0#
1"
1E
0C
1#
0!
#542500
1,
1?
1W
0\
0Y
1Z
1[
0D
0"
1C
1!
#545000
0,
1-
1@
0?
0W
1S
0^
1\
1Y
0Z
0U
1X
0Y
1Z
0[
1[
0E
1D
0#
1"
0C
0D
0"
0!
1C
1!
#547500
1,
1?
1W
0\
1Y
1D
1"
#550000
0,
0-
1.
1A
0@
0?
0W
0S
1N
0`
1^
1\
0Y
1U
0X
1Q
1Y
0Z
0[
1F
1E
0D
1$
1#
0"
1D
1"
0C
0!
#552500
1,
1?
1W
0\
0Y
1Z
1[
0D
0"
1C
1!
