BME 393L/Lab 4/4_4_traffic_light/simulation/qsim/traffic_light.msim.vcd
$comment
	File created using the following command:
		vcd file traffic_light.msim.vcd -direction
$end
$date
	Sun Feb 27 18:33:03 2022
$end
$version
	ModelSim Version 10.5b
$end
$timescale
	1ps
$end

$scope module traffic_light_vhd_vec_tst $end
$var wire 1 ! CLOCK_50_B5B $end
$var wire 1 " hex0 [6] $end
$var wire 1 # hex0 [5] $end
$var wire 1 $ hex0 [4] $end
$var wire 1 % hex0 [3] $end
$var wire 1 & hex0 [2] $end
$var wire 1 ' hex0 [1] $end
$var wire 1 ( hex0 [0] $end
$var wire 1 ) hex3 [6] $end
$var wire 1 * hex3 [5] $end
$var wire 1 + hex3 [4] $end
$var wire 1 , hex3 [3] $end
$var wire 1 - hex3 [2] $end
$var wire 1 . hex3 [1] $end
$var wire 1 / hex3 [0] $end
$var wire 1 0 KEY [3] $end
$var wire 1 1 KEY [2] $end
$var wire 1 2 KEY [1] $end
$var wire 1 3 KEY [0] $end
$var wire 1 4 LEDG [9] $end
$var wire 1 5 LEDG [8] $end
$var wire 1 6 LEDG [7] $end
$var wire 1 7 LEDG [6] $end
$var wire 1 8 LEDG [5] $end
$var wire 1 9 LEDG [4] $end
$var wire 1 : LEDG [3] $end
$var wire 1 ; LEDG [2] $end
$var wire 1 < LEDG [1] $end
$var wire 1 = LEDG [0] $end
$var wire 1 > LEDR [9] $end
$var wire 1 ? LEDR [8] $end
$var wire 1 @ LEDR [7] $end
$var wire 1 A LEDR [6] $end
$var wire 1 B LEDR [5] $end
$var wire 1 C LEDR [4] $end
$var wire 1 D LEDR [3] $end
$var wire 1 E LEDR [2] $end
$var wire 1 F LEDR [1] $end
$var wire 1 G LEDR [0] $end

$scope module i1 $end
$var wire 1 H gnd $end
$var wire 1 I vcc $end
$var wire 1 J unknown $end
$var wire 1 K devoe $end
$var wire 1 L devclrn $end
$var wire 1 M devpor $end
$var wire 1 N ww_devoe $end
$var wire 1 O ww_devclrn $end
$var wire 1 P ww_devpor $end
$var wire 1 Q ww_CLOCK_50_B5B $end
$var wire 1 R ww_KEY [3] $end
$var wire 1 S ww_KEY [2] $end
$var wire 1 T ww_KEY [1] $end
$var wire 1 U ww_KEY [0] $end
$var wire 1 V ww_LEDG [9] $end
$var wire 1 W ww_LEDG [8] $end
$var wire 1 X ww_LEDG [7] $end
$var wire 1 Y ww_LEDG [6] $end
$var wire 1 Z ww_LEDG [5] $end
$var wire 1 [ ww_LEDG [4] $end
$var wire 1 \ ww_LEDG [3] $end
$var wire 1 ] ww_LEDG [2] $end
$var wire 1 ^ ww_LEDG [1] $end
$var wire 1 _ ww_LEDG [0] $end
$var wire 1 ` ww_LEDR [9] $end
$var wire 1 a ww_LEDR [8] $end
$var wire 1 b ww_LEDR [7] $end
$var wire 1 c ww_LEDR [6] $end
$var wire 1 d ww_LEDR [5] $end
$var wire 1 e ww_LEDR [4] $end
$var wire 1 f ww_LEDR [3] $end
$var wire 1 g ww_LEDR [2] $end
$var wire 1 h ww_LEDR [1] $end
$var wire 1 i ww_LEDR [0] $end
$var wire 1 j ww_hex3 [6] $end
$var wire 1 k ww_hex3 [5] $end
$var wire 1 l ww_hex3 [4] $end
$var wire 1 m ww_hex3 [3] $end
$var wire 1 n ww_hex3 [2] $end
$var wire 1 o ww_hex3 [1] $end
$var wire 1 p ww_hex3 [0] $end
$var wire 1 q ww_hex0 [6] $end
$var wire 1 r ww_hex0 [5] $end
$var wire 1 s ww_hex0 [4] $end
$var wire 1 t ww_hex0 [3] $end
$var wire 1 u ww_hex0 [2] $end
$var wire 1 v ww_hex0 [1] $end
$var wire 1 w ww_hex0 [0] $end
$var wire 1 x \KEY[1]~input_o\ $end
$var wire 1 y \KEY[2]~input_o\ $end
$var wire 1 z \KEY[3]~input_o\ $end
$var wire 1 { \~QUARTUS_CREATED_GND~I_combout\ $end
$var wire 1 | \CLOCK_50_B5B~input_o\ $end
$var wire 1 } \CLOCK_50_B5B~inputCLKENA0_outclk\ $end
$var wire 1 ~ \Add1~25_sumout\ $end
$var wire 1 !! \KEY[0]~input_o\ $end
$var wire 1 "! \Add1~26\ $end
$var wire 1 #! \Add1~45_sumout\ $end
$var wire 1 $! \Add1~46\ $end
$var wire 1 %! \Add1~41_sumout\ $end
$var wire 1 &! \Add1~42\ $end
$var wire 1 '! \Add1~37_sumout\ $end
$var wire 1 (! \Add1~38\ $end
$var wire 1 )! \Add1~33_sumout\ $end
$var wire 1 *! \Add1~34\ $end
$var wire 1 +! \Add1~29_sumout\ $end
$var wire 1 ,! \Add1~30\ $end
$var wire 1 -! \Add1~97_sumout\ $end
$var wire 1 .! \Add1~98\ $end
$var wire 1 /! \Add1~93_sumout\ $end
$var wire 1 0! \Add1~94\ $end
$var wire 1 1! \Add1~89_sumout\ $end
$var wire 1 2! \Add1~90\ $end
$var wire 1 3! \Add1~85_sumout\ $end
$var wire 1 4! \Add1~86\ $end
$var wire 1 5! \Add1~81_sumout\ $end
$var wire 1 6! \Add1~82\ $end
$var wire 1 7! \Add1~77_sumout\ $end
$var wire 1 8! \Equal0~3_combout\ $end
$var wire 1 9! \Add1~78\ $end
$var wire 1 :! \Add1~69_sumout\ $end
$var wire 1 ;! \Add1~70\ $end
$var wire 1 <! \Add1~65_sumout\ $end
$var wire 1 =! \Add1~66\ $end
$var wire 1 >! \Add1~61_sumout\ $end
$var wire 1 ?! \Add1~62\ $end
$var wire 1 @! \Add1~57_sumout\ $end
$var wire 1 A! \Add1~58\ $end
$var wire 1 B! \Add1~53_sumout\ $end
$var wire 1 C! \Add1~54\ $end
$var wire 1 D! \Add1~1_sumout\ $end
$var wire 1 E! \Add1~2\ $end
$var wire 1 F! \Add1~73_sumout\ $end
$var wire 1 G! \Add1~74\ $end
$var wire 1 H! \Add1~21_sumout\ $end
$var wire 1 I! \Add1~22\ $end
$var wire 1 J! \Add1~17_sumout\ $end
$var wire 1 K! \Add1~18\ $end
$var wire 1 L! \Add1~13_sumout\ $end
$var wire 1 M! \Add1~14\ $end
$var wire 1 N! \Add1~9_sumout\ $end
$var wire 1 O! \Add1~10\ $end
$var wire 1 P! \Add1~5_sumout\ $end
$var wire 1 Q! \Add1~6\ $end
$var wire 1 R! \Add1~49_sumout\ $end
$var wire 1 S! \Equal0~1_combout\ $end
$var wire 1 T! \Equal0~2_combout\ $end
$var wire 1 U! \Equal0~0_combout\ $end
$var wire 1 V! \Equal0~4_combout\ $end
$var wire 1 W! \seconds_20[1]~3_combout\ $end
$var wire 1 X! \seconds_20[2]~2_combout\ $end
$var wire 1 Y! \Add0~0_combout\ $end
$var wire 1 Z! \seconds_20[3]~1_combout\ $end
$var wire 1 [! \seconds_20[4]~0_combout\ $end
$var wire 1 \! \Equal5~0_combout\ $end
$var wire 1 ]! \seconds_20[0]~4_combout\ $end
$var wire 1 ^! \seconds~0_combout\ $end
$var wire 1 _! \state[1]~1_combout\ $end
$var wire 1 `! \state[1]~DUPLICATE_q\ $end
$var wire 1 a! \seconds~4_combout\ $end
$var wire 1 b! \seconds~5_combout\ $end
$var wire 1 c! \seconds[0]~1_combout\ $end
$var wire 1 d! \seconds[0]~2_combout\ $end
$var wire 1 e! \seconds~3_combout\ $end
$var wire 1 f! \state[0]~0_combout\ $end
$var wire 1 g! \state[0]~3_combout\ $end
$var wire 1 h! \state[0]~DUPLICATE_q\ $end
$var wire 1 i! \Equal4~0_combout\ $end
$var wire 1 j! \state[2]~2_combout\ $end
$var wire 1 k! \Equal2~0_combout\ $end
$var wire 1 l! \Mux7~0_combout\ $end
$var wire 1 m! \Equal1~0_combout\ $end
$var wire 1 n! \Mux9~0_combout\ $end
$var wire 1 o! \EWR~0_combout\ $end
$var wire 1 p! \EWG~q\ $end
$var wire 1 q! \Mux7~1_combout\ $end
$var wire 1 r! \NSG~q\ $end
$var wire 1 s! \Mux8~0_combout\ $end
$var wire 1 t! \Mux8~1_combout\ $end
$var wire 1 u! \Mux8~2_combout\ $end
$var wire 1 v! \NSR~q\ $end
$var wire 1 w! \Mux10~0_combout\ $end
$var wire 1 x! \Mux10~1_combout\ $end
$var wire 1 y! \EWR~q\ $end
$var wire 1 z! \hex3_inst|Mux6~0_combout\ $end
$var wire 1 {! \hex3_inst|Mux5~0_combout\ $end
$var wire 1 |! \hex3_inst|Mux4~0_combout\ $end
$var wire 1 }! \hex3_inst|Mux3~0_combout\ $end
$var wire 1 ~! \hex3_inst|Mux2~0_combout\ $end
$var wire 1 !" \hex3_inst|Mux1~0_combout\ $end
$var wire 1 "" \hex3_inst|Mux0~0_combout\ $end
$var wire 1 #" \hex0_inst|Mux6~0_combout\ $end
$var wire 1 $" \hex0_inst|Mux5~0_combout\ $end
$var wire 1 %" \hex0_inst|Mux4~0_combout\ $end
$var wire 1 &" \hex0_inst|Mux3~0_combout\ $end
$var wire 1 '" \hex0_inst|Mux2~0_combout\ $end
$var wire 1 (" \hex0_inst|Mux1~0_combout\ $end
$var wire 1 )" \hex0_inst|Mux0~0_combout\ $end
$var wire 1 *" counter [24] $end
$var wire 1 +" counter [23] $end
$var wire 1 ," counter [22] $end
$var wire 1 -" counter [21] $end
$var wire 1 ." counter [20] $end
$var wire 1 /" counter [19] $end
$var wire 1 0" counter [18] $end
$var wire 1 1" counter [17] $end
$var wire 1 2" counter [16] $end
$var wire 1 3" counter [15] $end
$var wire 1 4" counter [14] $end
$var wire 1 5" counter [13] $end
$var wire 1 6" counter [12] $end
$var wire 1 7" counter [11] $end
$var wire 1 8" counter [10] $end
$var wire 1 9" counter [9] $end
$var wire 1 :" counter [8] $end
$var wire 1 ;" counter [7] $end
$var wire 1 <" counter [6] $end
$var wire 1 =" counter [5] $end
$var wire 1 >" counter [4] $end
$var wire 1 ?" counter [3] $end
$var wire 1 @" counter [2] $end
$var wire 1 A" counter [1] $end
$var wire 1 B" counter [0] $end
$var wire 1 C" state [2] $end
$var wire 1 D" state [1] $end
$var wire 1 E" state [0] $end
$var wire 1 F" seconds [3] $end
$var wire 1 G" seconds [2] $end
$var wire 1 H" seconds [1] $end
$var wire 1 I" seconds [0] $end
$var wire 1 J" seconds_20 [4] $end
$var wire 1 K" seconds_20 [3] $end
$var wire 1 L" seconds_20 [2] $end
$var wire 1 M" seconds_20 [1] $end
$var wire 1 N" seconds_20 [0] $end
$var wire 1 O" \ALT_INV_state[0]~DUPLICATE_q\ $end
$var wire 1 P" \ALT_INV_state[1]~DUPLICATE_q\ $end
$var wire 1 Q" \ALT_INV_KEY[0]~input_o\ $end
$var wire 1 R" \ALT_INV_Add0~0_combout\ $end
$var wire 1 S" \ALT_INV_seconds[0]~1_combout\ $end
$var wire 1 T" \ALT_INV_Equal5~0_combout\ $end
$var wire 1 U" ALT_INV_seconds_20 [4] $end
$var wire 1 V" ALT_INV_seconds_20 [3] $end
$var wire 1 W" ALT_INV_seconds_20 [2] $end
$var wire 1 X" ALT_INV_seconds_20 [1] $end
$var wire 1 Y" ALT_INV_seconds_20 [0] $end
$var wire 1 Z" \ALT_INV_state[0]~0_combout\ $end
$var wire 1 [" \ALT_INV_Equal0~4_combout\ $end
$var wire 1 \" \ALT_INV_Mux10~0_combout\ $end
$var wire 1 ]" \ALT_INV_Mux8~1_combout\ $end
$var wire 1 ^" \ALT_INV_Mux8~0_combout\ $end
$var wire 1 _" \ALT_INV_Equal4~0_combout\ $end
$var wire 1 `" \ALT_INV_Equal0~3_combout\ $end
$var wire 1 a" \ALT_INV_Equal0~2_combout\ $end
$var wire 1 b" \ALT_INV_Equal0~1_combout\ $end
$var wire 1 c" \ALT_INV_Equal0~0_combout\ $end
$var wire 1 d" \ALT_INV_Equal1~0_combout\ $end
$var wire 1 e" \ALT_INV_Equal2~0_combout\ $end
$var wire 1 f" \ALT_INV_Mux7~0_combout\ $end
$var wire 1 g" \hex0_inst|ALT_INV_Mux0~0_combout\ $end
$var wire 1 h" ALT_INV_seconds [3] $end
$var wire 1 i" ALT_INV_seconds [2] $end
$var wire 1 j" ALT_INV_seconds [1] $end
$var wire 1 k" ALT_INV_seconds [0] $end
$var wire 1 l" ALT_INV_state [2] $end
$var wire 1 m" ALT_INV_state [1] $end
$var wire 1 n" ALT_INV_state [0] $end
$var wire 1 o" \ALT_INV_EWR~q\ $end
$var wire 1 p" \ALT_INV_NSR~q\ $end
$var wire 1 q" \ALT_INV_NSG~q\ $end
$var wire 1 r" \ALT_INV_EWG~q\ $end
$var wire 1 s" ALT_INV_counter [24] $end
$var wire 1 t" ALT_INV_counter [23] $end
$var wire 1 u" ALT_INV_counter [22] $end
$var wire 1 v" ALT_INV_counter [21] $end
$var wire 1 w" ALT_INV_counter [20] $end
$var wire 1 x" ALT_INV_counter [19] $end
$var wire 1 y" ALT_INV_counter [18] $end
$var wire 1 z" ALT_INV_counter [17] $end
$var wire 1 {" ALT_INV_counter [16] $end
$var wire 1 |" ALT_INV_counter [15] $end
$var wire 1 }" ALT_INV_counter [14] $end
$var wire 1 ~" ALT_INV_counter [13] $end
$var wire 1 !# ALT_INV_counter [12] $end
$var wire 1 "# ALT_INV_counter [11] $end
$var wire 1 ## ALT_INV_counter [10] $end
$var wire 1 $# ALT_INV_counter [9] $end
$var wire 1 %# ALT_INV_counter [8] $end
$var wire 1 &# ALT_INV_counter [7] $end
$var wire 1 '# ALT_INV_counter [6] $end
$var wire 1 (# ALT_INV_counter [5] $end
$var wire 1 )# ALT_INV_counter [4] $end
$var wire 1 *# ALT_INV_counter [3] $end
$var wire 1 +# ALT_INV_counter [2] $end
$var wire 1 ,# ALT_INV_counter [1] $end
$var wire 1 -# ALT_INV_counter [0] $end
$upscope $end
$upscope $end
$enddefinitions $end
#0
$dumpvars
0!
0H
1I
xJ
1K
1L
1M
1N
1O
1P
0Q
xx
xy
xz
x{
0|
0}
1~
0!!
0"!
0#!
0$!
0%!
0&!
0'!
0(!
0)!
0*!
0+!
0,!
0-!
0.!
0/!
00!
01!
02!
03!
04!
05!
06!
07!
18!
09!
0:!
0;!
0<!
0=!
0>!
0?!
0@!
0A!
0B!
0C!
0D!
0E!
0F!
0G!
0H!
0I!
0J!
0K!
0L!
0M!
0N!
0O!
0P!
0Q!
0R!
1S!
1T!
1U!
1V!
0W!
0X!
0Y!
0Z!
0[!
0\!
1]!
0^!
0_!
0`!
0a!
0b!
0c!
0d!
0e!
0f!
0g!
0h!
0i!
0j!
0k!
0l!
0m!
0n!
1o!
0p!
1q!
0r!
1s!
1t!
0u!
0v!
1w!
1x!
0y!
0z!
0{!
0|!
0}!
0~!
0!"
1""
0#"
0$"
0%"
0&"
0'"
0("
0)"
1O"
1P"
1Q"
1R"
1S"
1T"
1Z"
0["
0\"
0]"
0^"
1_"
0`"
0a"
0b"
0c"
1d"
1e"
1f"
1g"
1o"
1p"
1q"
1r"
x0
x1
x2
03
xR
xS
xT
0U
0V
0W
0X
0Y
0Z
0[
0\
0]
0^
0_
0`
0a
0b
0c
0d
0e
0f
0g
0h
0i
1j
0k
0l
0m
0n
0o
0p
1q
0r
0s
0t
0u
0v
0w
0*"
0+"
0,"
0-"
0."
0/"
00"
01"
02"
03"
04"
05"
06"
07"
08"
09"
0:"
0;"
0<"
0="
0>"
0?"
0@"
0A"
0B"
0C"
0D"
0E"
0F"
0G"
0H"
0I"
0J"
0K"
0L"
0M"
0N"
1U"
1V"
1W"
1X"
1Y"
1h"
1i"
1j"
1k"
1l"
1m"
1n"
1s"
1t"
1u"
1v"
1w"
1x"
1y"
1z"
1{"
1|"
1}"
1~"
1!#
1"#
1##
1$#
1%#
1&#
1'#
1(#
1)#
1*#
1+#
1,#
1-#
1"
0#
0$
0%
0&
0'
0(
1)
0*
0+
0,
0-
0.
0/
04
05
06
07
08
09
0:
0;
0<
0=
0>
0?
0@
0A
0B
0C
0D
0E
0F
0G
$end
#500
1!
1Q
1|
1}
1N"
1r!
1y!
0o"
0q"
0Y"
1W!
0]!
0q!
1e
1X
1C
16
#1000
0!
0Q
0|
0}
#1500
1!
1Q
1|
1}
1M"
0N"
0r!
1q"
1Y"
0X"
1]!
1q!
0X
06
#2000
0!
0Q
0|
0}
#2500
1!
1Q
1|
1}
1N"
1r!
0q"
0Y"
0W!
1X!
0]!
0q!
1X
16
#3000
0!
0Q
0|
0}
#3500
1!
1Q
1|
1}
0M"
1L"
0N"
0r!
1q"
1Y"
0W"
1X"
1]!
1q!
0X
06
#4000
0!
0Q
0|
0}
#4500
1!
1Q
1|
1}
1N"
1r!
0q"
0Y"
1W!
0]!
0q!
1X
16
#5000
0!
0Q
0|
0}
#5500
1!
1Q
1|
1}
1M"
0N"
0r!
1q"
1Y"
0X"
1]!
1q!
0X
06
#6000
0!
0Q
0|
0}
#6500
1!
1Q
1|
1}
1N"
1r!
0q"
0Y"
0W!
0X!
1Y!
0]!
0q!
0R"
1X
1Z!
16
#7000
0!
0Q
0|
0}
#7500
1!
1Q
1|
1}
0M"
0L"
1K"
0N"
0r!
1q"
1Y"
0V"
1W"
1X"
0Z!
1[!
0Y!
1]!
1q!
1R"
0X
1Z!
0[!
06
#8000
0!
0Q
0|
0}
#8500
1!
1Q
1|
1}
1N"
1r!
0q"
0Y"
1W!
0]!
0q!
1X
16
#9000
0!
0Q
0|
0}
#9500
1!
1Q
1|
1}
1M"
0N"
0r!
1q"
1Y"
0X"
1]!
1q!
0X
06
#10000
0!
0Q
0|
0}
#10500
1!
1Q
1|
1}
1N"
1r!
0q"
0Y"
0W!
1X!
0]!
0q!
1X
16
#11000
0!
0Q
0|
0}
#11500
1!
1Q
1|
1}
0M"
1L"
0N"
0r!
1q"
1Y"
0W"
1X"
1]!
1q!
0X
06
#12000
0!
0Q
0|
0}
#12500
1!
1Q
1|
1}
1N"
1r!
0q"
0Y"
1W!
0]!
0q!
1X
16
#13000
0!
0Q
0|
0}
#13500
1!
1Q
1|
1}
1M"
0N"
0r!
1q"
1Y"
0X"
1]!
1q!
0X
06
#14000
0!
0Q
0|
0}
#14500
1!
1Q
1|
1}
1N"
1r!
0q"
0Y"
0W!
0X!
1Y!
0]!
0q!
0R"
1X
0Z!
1[!
16
#15000
0!
0Q
0|
0}
#15500
1!
1Q
1|
1}
0M"
0L"
0K"
1J"
0N"
0r!
1q"
1Y"
0U"
1V"
1W"
1X"
1Z!
0Y!
1]!
1q!
1R"
0X
0Z!
06
#16000
0!
0Q
0|
0}
#16500
1!
1Q
1|
1}
1N"
1r!
0q"
0Y"
1W!
0]!
0q!
1X
16
#17000
0!
0Q
0|
0}
#17500
1!
1Q
1|
1}
1M"
0N"
0r!
1q"
1Y"
0X"
1]!
1q!
0X
06
#18000
0!
0Q
0|
0}
#18500
1!
1Q
1|
1}
1N"
1r!
0q"
0Y"
0W!
1X!
1\!
0]!
1^!
0q!
0T"
1X
0X!
0[!
1d!
16
#19000
0!
0Q
0|
0}
#19500
1!
1Q
1|
1}
0M"
0J"
0N"
1I"
0r!
1q"
0k"
1Y"
1U"
1X"
0\!
1]!
0^!
1e!
1i!
1#"
1&"
1'"
1("
1q!
0_"
1T"
0X
0d!
0e!
06
1r
1s
1t
1w
1(
1%
1$
1#
#20000
0!
0Q
0|
0}
#20500
1!
1Q
1|
1}
1N"
1r!
0q"
0Y"
1W!
0]!
0q!
1X
16
#21000
0!
0Q
0|
0}
#21500
1!
1Q
1|
1}
1M"
0N"
0r!
1q"
1Y"
0X"
1]!
1q!
0X
06
#22000
0!
0Q
0|
0}
#22500
1!
1Q
1|
1}
1N"
1r!
0q"
0Y"
0W!
1X!
0]!
0q!
1X
16
#23000
0!
0Q
0|
0}
#23500
1!
1Q
1|
1}
0M"
1L"
0N"
0r!
1q"
1Y"
0W"
1X"
1]!
1q!
0X
06
#24000
0!
0Q
0|
0}
#24500
1!
1Q
1|
1}
1N"
1r!
0q"
0Y"
1W!
0]!
0q!
1X
16
#25000
0!
0Q
0|
0}
#25500
1!
1Q
1|
1}
1M"
0N"
0r!
1q"
1Y"
0X"
1]!
1q!
0X
06
#26000
0!
0Q
0|
0}
#26500
1!
1Q
1|
1}
1N"
1r!
0q"
0Y"
0W!
0X!
1Y!
0]!
0q!
0R"
1X
1Z!
16
#27000
0!
0Q
0|
0}
#27500
1!
1Q
1|
1}
0M"
0L"
1K"
0N"
0r!
1q"
1Y"
0V"
1W"
1X"
0Z!
1[!
0Y!
1]!
1q!
1R"
0X
1Z!
0[!
06
#28000
0!
0Q
0|
0}
#28500
1!
1Q
1|
1}
1N"
1r!
0q"
0Y"
1W!
0]!
0q!
1X
16
#29000
0!
0Q
0|
0}
#29500
1!
1Q
1|
1}
1M"
0N"
0r!
1q"
1Y"
0X"
1]!
1q!
0X
06
#30000
0!
0Q
0|
0}
#30500
1!
1Q
1|
1}
1N"
1r!
0q"
0Y"
0W!
1X!
0]!
0q!
1X
16
#31000
0!
0Q
0|
0}
#31500
1!
1Q
1|
1}
0M"
1L"
0N"
0r!
1q"
1Y"
0W"
1X"
1]!
1q!
0X
06
#32000
0!
0Q
0|
0}
#32500
1!
1Q
1|
1}
1N"
1r!
0q"
0Y"
1W!
0]!
0q!
1X
16
#33000
0!
0Q
0|
0}
#33500
1!
1Q
1|
1}
1M"
0N"
0r!
1q"
1Y"
0X"
1]!
1q!
0X
06
#34000
0!
0Q
0|
0}
#34500
1!
1Q
1|
1}
1N"
1r!
0q"
0Y"
0W!
0X!
1Y!
0]!
0q!
0R"
1X
0Z!
1[!
16
#35000
0!
0Q
0|
0}
#35500
1!
1Q
1|
1}
0M"
0L"
0K"
1J"
0N"
0r!
1q"
1Y"
0U"
1V"
1W"
1X"
1Z!
0Y!
1]!
1q!
1R"
0X
0Z!
06
#36000
0!
0Q
0|
0}
#36500
1!
1Q
1|
1}
1N"
1r!
0q"
0Y"
1W!
0]!
0q!
1X
16
#37000
0!
0Q
0|
0}
#37500
1!
1Q
1|
1}
1M"
0N"
0r!
1q"
1Y"
0X"
1]!
1q!
0X
06
#38000
0!
0Q
0|
0}
#38500
1!
1Q
1|
1}
1N"
1r!
0q"
0Y"
0W!
1X!
1\!
0]!
0q!
0T"
1X
0X!
0[!
1d!
1e!
16
#39000
0!
0Q
0|
0}
#39500
1!
1Q
1|
1}
0M"
0J"
0N"
0I"
1H"
0r!
1q"
0j"
1k"
1Y"
1U"
1X"
0\!
1]!
1c!
1f!
0i!
1m!
0#"
1%"
0&"
0'"
1)"
1q!
0g"
0d"
1_"
0Z"
0S"
1T"
0X
0e!
1g!
06
0q!
0s
0t
1u
0w
0q
0(
1&
0%
0$
0"
#40000
0!
0Q
0|
0}
#40500
1!
1Q
1|
1}
1N"
0H"
1E"
1h!
0O"
0n"
1j"
0Y"
1W!
0]!
0m!
0%"
0("
0)"
0g!
1q!
0s!
1z!
1}!
1~!
1!"
1_!
0c!
0f!
1Z"
1S"
1^"
1g"
1d"
0d!
0_!
1g!
1k
1l
1m
1p
0r
0u
1q
1/
1,
1+
1*
0&
0#
1"
#41000
0!
0Q
0|
0}
#41500
1!
1Q
1|
1}
1M"
0N"
1r!
0q"
1Y"
0X"
1]!
1X
16
#42000
0!
0Q
0|
0}
#42500
1!
1Q
1|
1}
1N"
0Y"
0W!
1X!
0]!
#43000
0!
0Q
0|
0}
#43500
1!
1Q
1|
1}
0M"
1L"
0N"
1Y"
0W"
1X"
1]!
#44000
0!
0Q
0|
0}
#44500
1!
1Q
1|
1}
1N"
0Y"
1W!
0]!
#45000
0!
0Q
0|
0}
#45500
1!
1Q
1|
1}
1M"
0N"
1Y"
0X"
1]!
#46000
0!
0Q
0|
0}
#46500
1!
1Q
1|
1}
1N"
0Y"
0W!
0X!
1Y!
0]!
0R"
1Z!
#47000
0!
0Q
0|
0}
#47500
1!
1Q
1|
1}
0M"
0L"
1K"
0N"
1Y"
0V"
1W"
1X"
0Z!
1[!
0Y!
1]!
1R"
1Z!
0[!
#48000
0!
0Q
0|
0}
#48500
1!
1Q
1|
1}
1N"
0Y"
1W!
0]!
#49000
0!
0Q
0|
0}
#49500
1!
1Q
1|
1}
1M"
0N"
1Y"
0X"
1]!
#50000
0!
0Q
0|
0}
#50500
1!
1Q
1|
1}
1N"
0Y"
0W!
1X!
0]!
#51000
0!
0Q
0|
0}
#51500
1!
1Q
1|
1}
0M"
1L"
0N"
1Y"
0W"
1X"
1]!
#52000
0!
0Q
0|
0}
#52500
1!
1Q
1|
1}
1N"
0Y"
1W!
0]!
#53000
0!
0Q
0|
0}
#53500
1!
1Q
1|
1}
1M"
0N"
1Y"
0X"
1]!
#54000
0!
0Q
0|
0}
#54500
1!
1Q
1|
1}
1N"
0Y"
0W!
0X!
1Y!
0]!
0R"
0Z!
1[!
#55000
0!
0Q
0|
0}
#55500
1!
1Q
1|
1}
0M"
0L"
0K"
1J"
0N"
1Y"
0U"
1V"
1W"
1X"
1Z!
0Y!
1]!
1R"
0Z!
#56000
0!
0Q
0|
0}
#56500
1!
1Q
1|
1}
1N"
0Y"
1W!
0]!
#57000
0!
0Q
0|
0}
#57500
1!
1Q
1|
1}
1M"
0N"
1Y"
0X"
1]!
#58000
0!
0Q
0|
0}
#58500
1!
1Q
1|
1}
1N"
0Y"
0W!
1X!
1\!
0]!
1^!
0T"
0X!
0[!
1d!
#59000
0!
0Q
0|
0}
#59500
1!
1Q
1|
1}
0M"
0J"
0N"
1I"
0k"
1Y"
1U"
1X"
0\!
1]!
0^!
1e!
1i!
1#"
1&"
1'"
1("
0_"
1T"
0d!
0e!
0t!
1]"
1r
1s
1t
1w
1(
1%
1$
1#
#60000
0!
0Q
0|
0}
#60500
1!
1Q
1|
1}
1N"
0Y"
1W!
0]!
#61000
0!
0Q
0|
0}
#61500
1!
1Q
1|
1}
1M"
0N"
1Y"
0X"
1]!
#62000
0!
0Q
0|
0}
#62500
1!
1Q
1|
1}
1N"
0Y"
0W!
1X!
0]!
#63000
0!
0Q
0|
0}
#63500
1!
1Q
1|
1}
0M"
1L"
0N"
1Y"
0W"
1X"
1]!
#64000
0!
0Q
0|
0}
#64500
1!
1Q
1|
1}
1N"
0Y"
1W!
0]!
#65000
0!
0Q
0|
0}
#65500
1!
1Q
1|
1}
1M"
0N"
1Y"
0X"
1]!
#66000
0!
0Q
0|
0}
#66500
1!
1Q
1|
1}
1N"
0Y"
0W!
0X!
1Y!
0]!
0R"
1Z!
#67000
0!
0Q
0|
0}
#67500
1!
1Q
1|
1}
0M"
0L"
1K"
0N"
1Y"
0V"
1W"
1X"
0Z!
1[!
0Y!
1]!
1R"
1Z!
0[!
#68000
0!
0Q
0|
0}
#68500
1!
1Q
1|
1}
1N"
0Y"
1W!
0]!
#69000
0!
0Q
0|
0}
#69500
1!
1Q
1|
1}
1M"
0N"
1Y"
0X"
1]!
#70000
0!
0Q
0|
0}
#70500
1!
1Q
1|
1}
1N"
0Y"
0W!
1X!
0]!
#71000
0!
0Q
0|
0}
#71500
1!
1Q
1|
1}
0M"
1L"
0N"
1Y"
0W"
1X"
1]!
#72000
0!
0Q
0|
0}
#72500
1!
1Q
1|
1}
1N"
0Y"
1W!
0]!
#73000
0!
0Q
0|
0}
#73500
1!
1Q
1|
1}
1M"
0N"
1Y"
0X"
1]!
#74000
0!
0Q
0|
0}
#74500
1!
1Q
1|
1}
1N"
0Y"
0W!
0X!
1Y!
0]!
0R"
0Z!
1[!
#75000
0!
0Q
0|
0}
#75500
1!
1Q
1|
1}
0M"
0L"
0K"
1J"
0N"
1Y"
0U"
1V"
1W"
1X"
1Z!
0Y!
1]!
1R"
0Z!
#76000
0!
0Q
0|
0}
#76500
1!
1Q
1|
1}
1N"
0Y"
1W!
0]!
#77000
0!
0Q
0|
0}
#77500
1!
1Q
1|
1}
1M"
0N"
1Y"
0X"
1]!
#78000
0!
0Q
0|
0}
#78500
1!
1Q
1|
1}
1N"
0Y"
0W!
1X!
1\!
0]!
0T"
0X!
0[!
1d!
1e!
#79000
0!
0Q
0|
0}
#79500
1!
1Q
1|
1}
0M"
0J"
0N"
0I"
1H"
0j"
1k"
1Y"
1U"
1X"
0\!
1]!
0i!
1m!
0#"
1%"
0&"
0'"
1)"
0g"
0d"
1_"
1T"
0d!
0e!
1t!
0]"
0s
0t
1u
0w
0q
0(
1&
0%
0$
0"
#80000
0!
0Q
0|
0}
#80500
1!
1Q
1|
1}
1N"
0Y"
1W!
0]!
#81000
0!
0Q
0|
0}
#81500
1!
1Q
1|
1}
1M"
0N"
1Y"
0X"
1]!
#82000
0!
0Q
0|
0}
#82500
1!
1Q
1|
1}
1N"
0Y"
0W!
1X!
0]!
#83000
0!
0Q
0|
0}
#83500
1!
1Q
1|
1}
0M"
1L"
0N"
1Y"
0W"
1X"
1]!
#84000
0!
0Q
0|
0}
#84500
1!
1Q
1|
1}
1N"
0Y"
1W!
0]!
#85000
0!
0Q
0|
0}
#85500
1!
1Q
1|
1}
1M"
0N"
1Y"
0X"
1]!
#86000
0!
0Q
0|
0}
#86500
1!
1Q
1|
1}
1N"
0Y"
0W!
0X!
1Y!
0]!
0R"
1Z!
#87000
0!
0Q
0|
0}
#87500
1!
1Q
1|
1}
0M"
0L"
1K"
0N"
1Y"
0V"
1W"
1X"
0Z!
1[!
0Y!
1]!
1R"
1Z!
0[!
#88000
0!
0Q
0|
0}
#88500
1!
1Q
1|
1}
1N"
0Y"
1W!
0]!
#89000
0!
0Q
0|
0}
#89500
1!
1Q
1|
1}
1M"
0N"
1Y"
0X"
1]!
#90000
0!
0Q
0|
0}
#90500
1!
1Q
1|
1}
1N"
0Y"
0W!
1X!
0]!
#91000
0!
0Q
0|
0}
#91500
1!
1Q
1|
1}
0M"
1L"
0N"
1Y"
0W"
1X"
1]!
#92000
0!
0Q
0|
0}
#92500
1!
1Q
1|
1}
1N"
0Y"
1W!
0]!
#93000
0!
0Q
0|
0}
