BME 393L/Lab 4/random_gen/simulation/qsim/random_gen.msim.vcd
$comment
	File created using the following command:
		vcd file random_gen.msim.vcd -direction
$end
$date
	Fri Feb 25 23:54:13 2022
$end
$version
	ModelSim Version 10.5b
$end
$timescale
	1ps
$end

$scope module random_gen_vhd_vec_tst $end
$var wire 1 ! CLOCK_50_B5B $end
$var wire 1 " hex0 [6] $end
$var wire 1 # hex0 [5] $end
$var wire 1 $ hex0 [4] $end
$var wire 1 % hex0 [3] $end
$var wire 1 & hex0 [2] $end
$var wire 1 ' hex0 [1] $end
$var wire 1 ( hex0 [0] $end
$var wire 1 ) hex1 [6] $end
$var wire 1 * hex1 [5] $end
$var wire 1 + hex1 [4] $end
$var wire 1 , hex1 [3] $end
$var wire 1 - hex1 [2] $end
$var wire 1 . hex1 [1] $end
$var wire 1 / hex1 [0] $end
$var wire 1 0 hex2 [6] $end
$var wire 1 1 hex2 [5] $end
$var wire 1 2 hex2 [4] $end
$var wire 1 3 hex2 [3] $end
$var wire 1 4 hex2 [2] $end
$var wire 1 5 hex2 [1] $end
$var wire 1 6 hex2 [0] $end
$var wire 1 7 hex3 [6] $end
$var wire 1 8 hex3 [5] $end
$var wire 1 9 hex3 [4] $end
$var wire 1 : hex3 [3] $end
$var wire 1 ; hex3 [2] $end
$var wire 1 < hex3 [1] $end
$var wire 1 = hex3 [0] $end
$var wire 1 > KEY [3] $end
$var wire 1 ? KEY [2] $end
$var wire 1 @ KEY [1] $end
$var wire 1 A KEY [0] $end

$scope module i1 $end
$var wire 1 B gnd $end
$var wire 1 C vcc $end
$var wire 1 D unknown $end
$var wire 1 E devoe $end
$var wire 1 F devclrn $end
$var wire 1 G devpor $end
$var wire 1 H ww_devoe $end
$var wire 1 I ww_devclrn $end
$var wire 1 J ww_devpor $end
$var wire 1 K ww_CLOCK_50_B5B $end
$var wire 1 L ww_KEY [3] $end
$var wire 1 M ww_KEY [2] $end
$var wire 1 N ww_KEY [1] $end
$var wire 1 O ww_KEY [0] $end
$var wire 1 P ww_hex3 [6] $end
$var wire 1 Q ww_hex3 [5] $end
$var wire 1 R ww_hex3 [4] $end
$var wire 1 S ww_hex3 [3] $end
$var wire 1 T ww_hex3 [2] $end
$var wire 1 U ww_hex3 [1] $end
$var wire 1 V ww_hex3 [0] $end
$var wire 1 W ww_hex2 [6] $end
$var wire 1 X ww_hex2 [5] $end
$var wire 1 Y ww_hex2 [4] $end
$var wire 1 Z ww_hex2 [3] $end
$var wire 1 [ ww_hex2 [2] $end
$var wire 1 \ ww_hex2 [1] $end
$var wire 1 ] ww_hex2 [0] $end
$var wire 1 ^ ww_hex1 [6] $end
$var wire 1 _ ww_hex1 [5] $end
$var wire 1 ` ww_hex1 [4] $end
$var wire 1 a ww_hex1 [3] $end
$var wire 1 b ww_hex1 [2] $end
$var wire 1 c ww_hex1 [1] $end
$var wire 1 d ww_hex1 [0] $end
$var wire 1 e ww_hex0 [6] $end
$var wire 1 f ww_hex0 [5] $end
$var wire 1 g ww_hex0 [4] $end
$var wire 1 h ww_hex0 [3] $end
$var wire 1 i ww_hex0 [2] $end
$var wire 1 j ww_hex0 [1] $end
$var wire 1 k ww_hex0 [0] $end
$var wire 1 l \KEY[1]~input_o\ $end
$var wire 1 m \KEY[2]~input_o\ $end
$var wire 1 n \KEY[3]~input_o\ $end
$var wire 1 o \~QUARTUS_CREATED_GND~I_combout\ $end
$var wire 1 p \KEY[0]~input_o\ $end
$var wire 1 q \KEY[0]~inputCLKENA0_outclk\ $end
$var wire 1 r \on1~feeder_combout\ $end
$var wire 1 s \on1~q\ $end
$var wire 1 t \on2~feeder_combout\ $end
$var wire 1 u \on2~q\ $end
$var wire 1 v \CLOCK_50_B5B~input_o\ $end
$var wire 1 w \CLOCK_50_B5B~inputCLKENA0_outclk\ $end
$var wire 1 x \rndm[0]~0_combout\ $end
$var wire 1 y \rndm[0]~feeder_combout\ $end
$var wire 1 z \Add0~17_sumout\ $end
$var wire 1 { \rndm[1]~feeder_combout\ $end
$var wire 1 | \Add0~18\ $end
$var wire 1 } \Add0~21_sumout\ $end
$var wire 1 ~ \rndm[2]~feeder_combout\ $end
$var wire 1 !! \Add0~22\ $end
$var wire 1 "! \Add0~25_sumout\ $end
$var wire 1 #! \Add0~26\ $end
$var wire 1 $! \Add0~1_sumout\ $end
$var wire 1 %! \rndm[4]~feeder_combout\ $end
$var wire 1 &! \Add0~2\ $end
$var wire 1 '! \Add0~5_sumout\ $end
$var wire 1 (! \Add0~6\ $end
$var wire 1 )! \Add0~9_sumout\ $end
$var wire 1 *! \Add0~10\ $end
$var wire 1 +! \Add0~13_sumout\ $end
$var wire 1 ,! \rndm[7]~feeder_combout\ $end
$var wire 1 -! \random1[5]~feeder_combout\ $end
$var wire 1 .! \rndm[4]~DUPLICATE_q\ $end
$var wire 1 /! \hex3_inst|Mux6~0_combout\ $end
$var wire 1 0! \hex3_inst|Mux5~0_combout\ $end
$var wire 1 1! \hex3_inst|Mux4~0_combout\ $end
$var wire 1 2! \hex3_inst|Mux3~0_combout\ $end
$var wire 1 3! \hex3_inst|Mux2~0_combout\ $end
$var wire 1 4! \hex3_inst|Mux1~0_combout\ $end
$var wire 1 5! \hex3_inst|Mux0~0_combout\ $end
$var wire 1 6! \hex2_inst|Mux6~0_combout\ $end
$var wire 1 7! \random2[1]~DUPLICATE_q\ $end
$var wire 1 8! \hex2_inst|Mux5~0_combout\ $end
$var wire 1 9! \hex2_inst|Mux4~0_combout\ $end
$var wire 1 :! \hex2_inst|Mux3~0_combout\ $end
$var wire 1 ;! \hex2_inst|Mux2~0_combout\ $end
$var wire 1 <! \hex2_inst|Mux1~0_combout\ $end
$var wire 1 =! \hex2_inst|Mux0~0_combout\ $end
$var wire 1 >! \on1~DUPLICATE_q\ $end
$var wire 1 ?! \hex1_inst|Mux6~0_combout\ $end
$var wire 1 @! \hex1_inst|Mux5~0_combout\ $end
$var wire 1 A! \hex1_inst|Mux4~0_combout\ $end
$var wire 1 B! \hex1_inst|Mux3~0_combout\ $end
$var wire 1 C! \hex1_inst|Mux2~0_combout\ $end
$var wire 1 D! \hex1_inst|Mux1~0_combout\ $end
$var wire 1 E! \hex1_inst|Mux0~0_combout\ $end
$var wire 1 F! \hex0_inst|Mux6~0_combout\ $end
$var wire 1 G! \hex0_inst|Mux5~0_combout\ $end
$var wire 1 H! \hex0_inst|Mux4~0_combout\ $end
$var wire 1 I! \hex0_inst|Mux3~0_combout\ $end
$var wire 1 J! \hex0_inst|Mux2~0_combout\ $end
$var wire 1 K! \hex0_inst|Mux1~0_combout\ $end
$var wire 1 L! \hex0_inst|Mux0~0_combout\ $end
$var wire 1 M! random2 [7] $end
$var wire 1 N! random2 [6] $end
$var wire 1 O! random2 [5] $end
$var wire 1 P! random2 [4] $end
$var wire 1 Q! random2 [3] $end
$var wire 1 R! random2 [2] $end
$var wire 1 S! random2 [1] $end
$var wire 1 T! random2 [0] $end
$var wire 1 U! random1 [7] $end
$var wire 1 V! random1 [6] $end
$var wire 1 W! random1 [5] $end
$var wire 1 X! random1 [4] $end
$var wire 1 Y! random1 [3] $end
$var wire 1 Z! random1 [2] $end
$var wire 1 [! random1 [1] $end
$var wire 1 \! random1 [0] $end
$var wire 1 ]! rndm [7] $end
$var wire 1 ^! rndm [6] $end
$var wire 1 _! rndm [5] $end
$var wire 1 `! rndm [4] $end
$var wire 1 a! rndm [3] $end
$var wire 1 b! rndm [2] $end
$var wire 1 c! rndm [1] $end
$var wire 1 d! rndm [0] $end
$var wire 1 e! ALT_INV_rndm [7] $end
$var wire 1 f! ALT_INV_rndm [6] $end
$var wire 1 g! ALT_INV_rndm [5] $end
$var wire 1 h! ALT_INV_rndm [4] $end
$var wire 1 i! ALT_INV_rndm [3] $end
$var wire 1 j! ALT_INV_rndm [2] $end
$var wire 1 k! ALT_INV_rndm [1] $end
$var wire 1 l! ALT_INV_rndm [0] $end
$var wire 1 m! ALT_INV_random1 [7] $end
$var wire 1 n! ALT_INV_random1 [6] $end
$var wire 1 o! ALT_INV_random1 [5] $end
$var wire 1 p! ALT_INV_random1 [4] $end
$var wire 1 q! ALT_INV_random1 [3] $end
$var wire 1 r! ALT_INV_random1 [2] $end
$var wire 1 s! ALT_INV_random1 [1] $end
$var wire 1 t! ALT_INV_random1 [0] $end
$var wire 1 u! \ALT_INV_on1~q\ $end
$var wire 1 v! ALT_INV_random2 [7] $end
$var wire 1 w! ALT_INV_random2 [6] $end
$var wire 1 x! ALT_INV_random2 [5] $end
$var wire 1 y! ALT_INV_random2 [4] $end
$var wire 1 z! ALT_INV_random2 [3] $end
$var wire 1 {! ALT_INV_random2 [2] $end
$var wire 1 |! ALT_INV_random2 [1] $end
$var wire 1 }! ALT_INV_random2 [0] $end
$var wire 1 ~! \ALT_INV_on2~q\ $end
$var wire 1 !" \ALT_INV_Add0~21_sumout\ $end
$var wire 1 "" \ALT_INV_Add0~17_sumout\ $end
$var wire 1 #" \ALT_INV_Add0~13_sumout\ $end
$var wire 1 $" \ALT_INV_Add0~1_sumout\ $end
$var wire 1 %" \ALT_INV_on1~DUPLICATE_q\ $end
$var wire 1 &" \ALT_INV_random2[1]~DUPLICATE_q\ $end
$var wire 1 '" \ALT_INV_rndm[0]~0_combout\ $end
$upscope $end
$upscope $end
$enddefinitions $end
#0
$dumpvars
0!
0B
1C
xD
1E
1F
1G
1H
1I
1J
0K
xl
xm
xn
xo
0p
0q
1r
0s
0t
0u
0v
0w
1x
1y
0z
0{
0|
0}
0~
0!!
0"!
0#!
0$!
0%!
0&!
0'!
0(!
0)!
0*!
0+!
0,!
0-!
0.!
1/!
10!
11!
12!
13!
14!
15!
16!
07!
18!
19!
1:!
1;!
1<!
1=!
0>!
1?!
1@!
1A!
1B!
1C!
1D!
1E!
1F!
1G!
1H!
1I!
1J!
1K!
1L!
1u!
1~!
1!"
1""
1#"
1$"
1%"
1&"
0'"
1)
1*
1+
1,
1-
1.
1/
10
11
12
13
14
15
16
17
18
19
1:
1;
1<
1=
x>
x?
x@
0A
xL
xM
xN
0O
1P
1Q
1R
1S
1T
1U
1V
1W
1X
1Y
1Z
1[
1\
1]
1^
1_
1`
1a
1b
1c
1d
1e
1f
1g
1h
1i
1j
1k
0M!
0N!
0O!
0P!
0Q!
0R!
0S!
0T!
0U!
0V!
0W!
0X!
0Y!
0Z!
0[!
0\!
0]!
0^!
0_!
0`!
0a!
0b!
0c!
0d!
1e!
1f!
1g!
1h!
1i!
1j!
1k!
1l!
1m!
1n!
1o!
1p!
1q!
1r!
1s!
1t!
1v!
1w!
1x!
1y!
1z!
1{!
1|!
1}!
1"
1#
1$
1%
1&
1'
1(
$end
#5000
1!
1K
1v
1w
1d!
0l!
0x
1z
0""
1'"
0y
1{
#10000
0!
0K
0v
0w
#15000
1!
1K
1v
1w
0d!
1c!
0k!
1l!
1x
0'"
1y
#20000
0!
0K
0v
0w
#25000
1!
1K
1v
1w
1d!
0l!
0x
0z
1|
1""
1'"
1}
0y
0{
0!"
1~
#30000
0!
0K
0v
0w
#35000
1!
1K
1v
1w
0d!
0c!
1b!
0j!
1k!
1l!
1x
0|
0}
1!!
1!"
0'"
1"!
1}
0!!
1y
0~
0!"
0"!
1~
#40000
0!
0K
0v
0w
#45000
1!
1K
1v
1w
1d!
0l!
0x
1z
0""
1'"
0y
1{
#50000
0!
0K
0v
0w
#55000
1!
1K
1v
1w
0d!
1c!
0k!
1l!
1x
0'"
1y
#60000
0!
0K
0v
0w
#65000
1!
1K
1v
1w
1d!
0l!
0x
0z
1|
1""
1'"
0}
1!!
0y
0{
1!"
1"!
0~
#70000
0!
0K
0v
0w
#75000
1!
1K
1v
1w
0d!
0c!
0b!
1a!
0i!
1j!
1k!
1l!
1x
0|
1}
0!!
0"!
1#!
0!"
0'"
1$!
1"!
0#!
0}
1y
1~
1!"
0$"
0$!
1%!
0~
1$"
0%!
#80000
0!
1A
0K
1O
1p
0v
0w
1q
1s
1Y!
1>!
0%"
0q!
0u!
1t
0?!
0@!
0A!
0B!
0C!
0D!
0F!
0G!
0H!
0I!
0J!
0K!
0L!
0e
0f
0g
0h
0i
0j
0k
0_
0`
0a
0b
0c
0d
0(
0'
0&
0%
0$
0#
0"
0/
0.
0-
0,
0+
0*
#85000
1!
1K
1v
1w
1d!
0l!
0x
1z
0""
1'"
0y
1{
#90000
0!
0K
0v
0w
#95000
1!
1K
1v
1w
0d!
1c!
0k!
1l!
1x
0'"
1y
#100000
0!
0K
0v
0w
#105000
1!
1K
1v
1w
1d!
0l!
0x
0z
1|
1""
1'"
1}
0y
0{
0!"
1~
#110000
0!
0K
0v
0w
#115000
1!
1K
1v
1w
0d!
0c!
1b!
0j!
1k!
1l!
1x
0|
0}
1!!
1!"
0'"
0"!
1#!
1}
0!!
1y
0~
0!"
1"!
0#!
1$!
1~
0$"
0$!
1%!
1$"
0%!
#120000
0!
0K
0v
0w
#125000
1!
1K
1v
1w
1d!
0l!
0x
1z
0""
1'"
0y
1{
#130000
0!
0K
0v
0w
#135000
1!
1K
1v
1w
0d!
1c!
0k!
1l!
1x
0'"
1y
#140000
0!
0K
0v
0w
#145000
1!
1K
1v
1w
1d!
0l!
0x
0z
1|
1""
1'"
0}
1!!
0y
0{
1!"
0"!
1#!
0~
1$!
0$"
1%!
#150000
0!
0K
0v
0w
#155000
1!
1K
1v
1w
0d!
0c!
0b!
0a!
1`!
1.!
0h!
1i!
1j!
1k!
1l!
1x
0|
1}
0!!
1"!
0#!
0$!
1&!
1$"
0!"
0'"
1'!
1$!
0&!
0"!
0}
1y
1~
0%!
1!"
0$"
0'!
1%!
0~
#160000
0!
0A
0K
0O
0p
0v
0w
0q
#165000
1!
1K
1v
1w
1d!
0l!
0x
1z
0""
1'"
0y
1{
#170000
0!
0K
0v
0w
#175000
1!
1K
1v
1w
0d!
1c!
0k!
1l!
1x
0'"
1y
#180000
0!
0K
0v
0w
#185000
1!
1K
1v
1w
1d!
0l!
0x
0z
1|
1""
1'"
1}
0y
0{
0!"
1~
#190000
0!
0K
0v
0w
#195000
1!
1K
1v
1w
0d!
0c!
1b!
0j!
1k!
1l!
1x
0|
0}
1!!
1!"
0'"
1"!
1}
0!!
1y
0~
0!"
0"!
1~
#200000
0!
0K
0v
0w
#205000
1!
1K
1v
1w
1d!
0l!
0x
1z
0""
1'"
0y
1{
#210000
0!
0K
0v
0w
#215000
1!
1K
1v
1w
0d!
1c!
0k!
1l!
1x
0'"
1y
#220000
0!
0K
0v
0w
#225000
1!
1K
1v
1w
1d!
0l!
0x
0z
1|
1""
1'"
0}
1!!
0y
0{
1!"
1"!
0~
#230000
0!
0K
0v
0w
#235000
1!
1K
1v
1w
0d!
0c!
0b!
1a!
0i!
1j!
1k!
1l!
1x
0|
1}
0!!
0"!
1#!
0!"
0'"
0$!
1&!
1"!
0#!
0}
1y
1~
1!"
1$"
1$!
0&!
1'!
0%!
0~
0$"
0'!
1%!
#240000
0!
1A
0K
1O
1p
0v
0w
1q
1u
1X!
1Q!
0z!
0p!
0~!
0/!
00!
01!
02!
03!
04!
1?!
1B!
1C!
1D!
06!
08!
09!
0:!
0;!
0<!
0=!
0W
0X
0Y
0Z
0[
0\
0]
1_
1`
1a
1d
0Q
0R
0S
0T
0U
0V
06
05
04
03
02
01
00
1/
1,
1+
1*
0=
0<
0;
0:
09
08
#245000
1!
1K
1v
1w
1d!
0l!
0x
1z
0""
1'"
0y
1{
#250000
0!
0K
0v
0w
#255000
1!
1K
1v
1w
0d!
1c!
0k!
1l!
1x
0'"
1y
#260000
0!
0K
0v
0w
#265000
1!
1K
1v
1w
1d!
0l!
0x
0z
1|
1""
1'"
1}
0y
0{
0!"
1~
#270000
0!
0K
0v
0w
#275000
1!
1K
1v
1w
0d!
0c!
1b!
0j!
1k!
1l!
1x
0|
0}
1!!
1!"
0'"
0"!
1#!
1}
0!!
1y
0~
0!"
1"!
0#!
0$!
1&!
1~
1$"
1'!
1$!
0&!
0%!
0$"
0'!
1%!
#280000
0!
0K
0v
0w
#285000
1!
1K
1v
1w
1d!
0l!
0x
1z
0""
1'"
0y
1{
#290000
0!
0K
0v
0w
#295000
1!
1K
1v
1w
0d!
1c!
0k!
1l!
1x
0'"
1y
#300000
0!
0K
0v
0w
#305000
1!
1K
1v
1w
1d!
0l!
0x
0z
1|
1""
1'"
0}
1!!
0y
0{
1!"
0"!
1#!
0~
0$!
1&!
1$"
1'!
0%!
#310000
0!
0K
0v
0w
#315000
1!
1K
1v
1w
0d!
0c!
0b!
0a!
0`!
1_!
0.!
0g!
1h!
1i!
1j!
1k!
1l!
1x
0|
1}
0!!
1"!
0#!
1$!
0&!
0'!
1(!
1-!
0$"
0!"
0'"
1)!
1'!
0(!
0$!
0"!
0}
1y
1~
1%!
1!"
1$"
0)!
0%!
0~
#320000
0!
0A
0K
0O
0p
0v
0w
0q
#325000
1!
1K
1v
1w
1d!
0l!
0x
1z
0""
1'"
0y
1{
#330000
0!
0K
0v
0w
#335000
1!
1K
1v
1w
0d!
1c!
0k!
1l!
1x
0'"
1y
#340000
0!
0K
0v
0w
#345000
1!
1K
1v
1w
1d!
0l!
0x
0z
1|
1""
1'"
1}
0y
0{
0!"
1~
#350000
0!
0K
0v
0w
#355000
1!
1K
1v
1w
0d!
0c!
1b!
0j!
1k!
1l!
1x
0|
0}
1!!
1!"
0'"
1"!
1}
0!!
1y
0~
0!"
0"!
1~
#360000
0!
0K
0v
0w
#365000
1!
1K
1v
1w
1d!
0l!
0x
1z
0""
1'"
0y
1{
#370000
0!
0K
0v
0w
#375000
1!
1K
1v
1w
0d!
1c!
0k!
1l!
1x
0'"
1y
#380000
0!
0K
0v
0w
#385000
1!
1K
1v
1w
1d!
0l!
0x
0z
1|
1""
1'"
0}
1!!
0y
0{
1!"
1"!
0~
#390000
0!
0K
0v
0w
#395000
1!
1K
1v
1w
0d!
0c!
0b!
1a!
0i!
1j!
1k!
1l!
1x
0|
1}
0!!
0"!
1#!
0!"
0'"
1$!
1"!
0#!
0}
1y
1~
1!"
0$"
0$!
1%!
0~
1$"
0%!
#400000
0!
1A
0K
1O
1p
0v
0w
1q
1W!
0X!
1P!
0y!
1p!
0o!
0?!
1A!
0B!
0C!
0E!
1/!
12!
13!
14!
1Q
1R
1S
1V
0^
0`
0a
1b
0d
1=
1:
19
18
0/
1-
0,
0+
0)
#405000
1!
1K
1v
1w
1d!
0l!
0x
1z
0""
1'"
0y
1{
#410000
0!
0K
0v
0w
#415000
1!
1K
1v
1w
0d!
1c!
0k!
1l!
1x
0'"
1y
#420000
0!
0K
0v
0w
#425000
1!
1K
1v
1w
1d!
0l!
0x
0z
1|
1""
1'"
1}
0y
0{
0!"
1~
#430000
0!
0K
0v
0w
#435000
1!
1K
1v
1w
0d!
0c!
1b!
0j!
1k!
1l!
1x
0|
0}
1!!
1!"
0'"
0"!
1#!
1}
0!!
1y
0~
0!"
1"!
0#!
1$!
1~
0$"
0$!
1%!
1$"
0%!
#440000
0!
0K
0v
0w
#445000
1!
1K
1v
1w
1d!
0l!
0x
1z
0""
1'"
0y
1{
#450000
0!
0K
0v
0w
#455000
1!
1K
1v
1w
0d!
1c!
0k!
1l!
1x
0'"
1y
#460000
0!
0K
0v
0w
#465000
1!
1K
1v
1w
1d!
0l!
0x
0z
1|
1""
1'"
0}
1!!
0y
0{
1!"
0"!
1#!
0~
1$!
0$"
1%!
#470000
0!
0K
0v
0w
#475000
1!
1K
1v
1w
0d!
0c!
0b!
0a!
1`!
1.!
0h!
1i!
1j!
1k!
1l!
1x
0|
1}
0!!
1"!
0#!
0$!
1&!
1$"
0!"
0'"
0'!
1(!
1$!
0&!
0"!
0}
1y
1~
0%!
1!"
0$"
1'!
0(!
1)!
1%!
0~
0)!
#480000
0!
0A
0K
0O
0p
0v
0w
0q
#485000
1!
1K
1v
1w
1d!
0l!
0x
1z
0""
1'"
0y
1{
#490000
0!
0K
0v
0w
#495000
1!
1K
1v
1w
0d!
1c!
0k!
1l!
1x
0'"
1y
#500000
0!
0K
0v
0w
#505000
1!
1K
1v
1w
1d!
0l!
0x
0z
1|
1""
1'"
1}
0y
0{
0!"
1~
#510000
0!
0K
0v
0w
#515000
1!
1K
1v
1w
0d!
0c!
1b!
0j!
1k!
1l!
1x
0|
0}
1!!
1!"
0'"
1"!
1}
0!!
1y
0~
0!"
0"!
1~
#520000
0!
0K
0v
0w
#525000
1!
1K
1v
1w
1d!
0l!
0x
1z
0""
1'"
0y
1{
#530000
0!
0K
0v
0w
#535000
1!
1K
1v
1w
0d!
1c!
0k!
1l!
1x
0'"
1y
#540000
0!
0K
0v
0w
#545000
1!
1K
1v
1w
1d!
0l!
0x
0z
1|
1""
1'"
0}
1!!
0y
0{
1!"
1"!
0~
#550000
0!
0K
0v
0w
#555000
1!
1K
1v
1w
0d!
0c!
0b!
1a!
0i!
1j!
1k!
1l!
1x
0|
1}
0!!
0"!
1#!
0!"
0'"
0$!
1&!
1"!
0#!
0}
1y
1~
1!"
1$"
1$!
0&!
0'!
1(!
0%!
0~
0$"
1)!
1'!
0(!
1%!
0)!
#560000
0!
1A
0K
1O
1p
0v
0w
1q
1O!
1X!
0P!
1y!
0p!
0x!
0A!
1C!
0/!
11!
02!
03!
05!
0P
0R
0S
1T
0V
1`
0b
0=
1;
0:
09
07
0-
1+
#565000
1!
1K
1v
1w
1d!
0l!
0x
1z
0""
1'"
0y
1{
#570000
0!
0K
0v
0w
#575000
1!
1K
1v
1w
0d!
1c!
0k!
1l!
1x
0'"
1y
#580000
0!
0K
0v
0w
#585000
1!
1K
1v
1w
1d!
0l!
0x
0z
1|
1""
1'"
1}
0y
0{
0!"
1~
#590000
0!
0K
0v
0w
#595000
1!
1K
1v
1w
0d!
0c!
1b!
0j!
1k!
1l!
1x
0|
0}
1!!
1!"
0'"
0"!
1#!
1}
0!!
1y
0~
0!"
1"!
0#!
0$!
1&!
1~
1$"
0'!
1(!
1$!
0&!
0%!
0$"
1'!
0(!
1)!
1%!
0)!
#600000
0!
0K
0v
0w
#605000
1!
1K
1v
1w
1d!
0l!
0x
1z
0""
1'"
0y
1{
#610000
0!
0K
0v
0w
#615000
1!
1K
1v
1w
0d!
1c!
0k!
1l!
1x
0'"
1y
#620000
0!
0K
0v
0w
#625000
1!
1K
1v
1w
1d!
0l!
0x
0z
1|
1""
1'"
0}
1!!
0y
0{
1!"
0"!
1#!
0~
0$!
1&!
1$"
0'!
1(!
0%!
1)!
#630000
0!
0K
0v
0w
#635000
1!
1K
1v
1w
0d!
0c!
0b!
0a!
0`!
0_!
1^!
0.!
0f!
1g!
1h!
1i!
1j!
1k!
1l!
1x
0|
1}
0!!
1"!
0#!
1$!
0&!
1'!
0(!
0-!
0)!
1*!
0$"
0!"
0'"
1+!
1)!
0*!
0'!
0$!
0"!
0}
1y
1~
1%!
1!"
1$"
0#"
0+!
1,!
0%!
0~
1#"
0,!
#640000
0!
0A
0K
0O
0p
0v
0w
0q
#645000
1!
1K
1v
1w
1d!
0l!
0x
1z
0""
1'"
0y
1{
#650000
0!
0K
0v
0w
#655000
1!
1K
1v
1w
0d!
1c!
0k!
1l!
1x
0'"
1y
#660000
0!
0K
0v
0w
#665000
1!
1K
1v
1w
1d!
0l!
0x
0z
1|
1""
1'"
1}
0y
0{
0!"
1~
#670000
0!
0K
0v
0w
#675000
1!
1K
1v
1w
0d!
0c!
1b!
0j!
1k!
1l!
1x
0|
0}
1!!
1!"
0'"
1"!
1}
0!!
1y
0~
0!"
0"!
1~
#680000
0!
0K
0v
0w
#685000
1!
1K
1v
1w
1d!
0l!
0x
1z
0""
1'"
0y
1{
#690000
0!
0K
0v
0w
#695000
1!
1K
1v
1w
0d!
1c!
0k!
1l!
1x
0'"
1y
#700000
0!
0K
0v
0w
#705000
1!
1K
1v
1w
1d!
0l!
0x
0z
1|
1""
1'"
0}
1!!
0y
0{
1!"
1"!
0~
#710000
0!
0K
0v
0w
#715000
1!
1K
1v
1w
0d!
0c!
0b!
1a!
0i!
1j!
1k!
1l!
1x
0|
1}
0!!
0"!
1#!
0!"
0'"
1$!
1"!
0#!
0}
1y
1~
1!"
0$"
0$!
1%!
0~
1$"
0%!
#720000
0!
1A
0K
1O
1p
0v
0w
1q
1V!
0W!
0X!
1P!
0y!
1p!
1o!
0n!
1?!
1B!
0D!
01!
13!
1R
0T
0_
1a
1d
0;
19
1/
1,
0*
#725000
1!
1K
1v
1w
1d!
0l!
0x
1z
0""
1'"
0y
1{
#730000
0!
0K
0v
0w
#735000
1!
1K
1v
1w
0d!
1c!
0k!
1l!
1x
0'"
1y
#740000
0!
0K
0v
0w
#745000
1!
1K
1v
1w
1d!
0l!
0x
0z
1|
1""
1'"
1}
0y
0{
0!"
1~
#750000
0!
0K
0v
0w
#755000
1!
1K
1v
1w
0d!
0c!
1b!
0j!
1k!
1l!
1x
0|
0}
1!!
1!"
0'"
0"!
1#!
1}
0!!
1y
0~
0!"
1"!
0#!
1$!
1~
0$"
0$!
1%!
1$"
0%!
#760000
0!
0K
0v
0w
#765000
1!
1K
1v
1w
1d!
0l!
0x
1z
0""
1'"
0y
1{
#770000
0!
0K
0v
0w
#775000
1!
1K
1v
1w
0d!
1c!
0k!
1l!
1x
0'"
1y
#780000
0!
0K
0v
0w
#785000
1!
1K
1v
1w
1d!
0l!
0x
0z
1|
1""
1'"
0}
1!!
0y
0{
1!"
0"!
1#!
0~
1$!
0$"
1%!
#790000
0!
0K
0v
0w
#795000
1!
1K
1v
1w
0d!
0c!
0b!
0a!
1`!
1.!
0h!
1i!
1j!
1k!
1l!
1x
0|
1}
0!!
1"!
0#!
0$!
1&!
1$"
0!"
0'"
1'!
1$!
0&!
0"!
0}
1y
1~
0%!
1!"
0$"
0'!
1%!
0~
#800000
0!
0A
0K
0O
0p
0v
0w
0q
#805000
1!
1K
1v
1w
1d!
0l!
0x
1z
0""
1'"
0y
1{
#810000
0!
0K
0v
0w
#815000
1!
1K
1v
1w
0d!
1c!
0k!
1l!
1x
0'"
1y
#820000
0!
0K
0v
0w
#825000
1!
1K
1v
1w
1d!
0l!
0x
0z
1|
1""
1'"
1}
0y
0{
0!"
1~
#830000
0!
0K
0v
0w
#835000
1!
1K
1v
1w
0d!
0c!
1b!
0j!
1k!
1l!
1x
0|
0}
1!!
1!"
0'"
1"!
1}
0!!
1y
0~
0!"
0"!
1~
#840000
0!
0K
0v
0w
#845000
1!
1K
1v
1w
1d!
0l!
0x
1z
0""
1'"
0y
1{
#850000
0!
0K
0v
0w
#855000
1!
1K
1v
1w
0d!
1c!
0k!
1l!
1x
0'"
1y
#860000
0!
0K
0v
0w
#865000
1!
1K
1v
1w
1d!
0l!
0x
0z
1|
1""
1'"
0}
1!!
0y
0{
1!"
1"!
0~
#870000
0!
0K
0v
0w
#875000
1!
1K
1v
1w
0d!
0c!
0b!
1a!
0i!
1j!
1k!
1l!
1x
0|
1}
0!!
0"!
1#!
0!"
0'"
0$!
1&!
1"!
0#!
0}
1y
1~
1!"
1$"
1$!
0&!
1'!
0%!
0~
0$"
0'!
1%!
#880000
0!
1A
0K
1O
1p
0v
0w
1q
1N!
0O!
1X!
0P!
1y!
0p!
1x!
0w!
0?!
1@!
0B!
1/!
12!
04!
0Q
1S
1V
0a
1c
0d
1=
1:
08
0/
1.
0,
#885000
1!
1K
1v
1w
1d!
0l!
0x
1z
0""
1'"
0y
1{
#890000
0!
0K
0v
0w
#895000
1!
1K
1v
1w
0d!
1c!
0k!
1l!
1x
0'"
1y
#900000
0!
0K
0v
0w
#905000
1!
1K
1v
1w
1d!
0l!
0x
0z
1|
1""
1'"
1}
0y
0{
0!"
1~
#910000
0!
0K
0v
0w
#915000
1!
1K
1v
1w
0d!
0c!
1b!
0j!
1k!
1l!
1x
0|
0}
1!!
1!"
0'"
0"!
1#!
1}
0!!
1y
0~
0!"
1"!
0#!
0$!
1&!
1~
1$"
1'!
1$!
0&!
0%!
0$"
0'!
1%!
#920000
0!
0K
0v
0w
#925000
1!
1K
1v
1w
1d!
0l!
0x
1z
0""
1'"
0y
1{
#930000
0!
0K
0v
0w
#935000
1!
1K
1v
1w
0d!
1c!
0k!
1l!
1x
0'"
1y
#940000
0!
0K
0v
0w
#945000
1!
1K
1v
1w
1d!
0l!
0x
0z
1|
1""
1'"
0}
1!!
0y
0{
1!"
0"!
1#!
0~
0$!
1&!
1$"
1'!
0%!
#950000
0!
0K
0v
0w
#955000
1!
1K
1v
1w
0d!
0c!
0b!
0a!
0`!
1_!
0.!
0g!
1h!
1i!
1j!
1k!
1l!
1x
0|
1}
0!!
1"!
0#!
1$!
0&!
0'!
1(!
1-!
0$"
0!"
0'"
0)!
1*!
1'!
0(!
0$!
0"!
0}
1y
1~
1%!
1!"
1$"
1)!
0*!
1+!
0%!
0~
0#"
0+!
1,!
1#"
0,!
#960000
0!
0A
0K
0O
0p
0v
0w
0q
#965000
1!
1K
1v
1w
1d!
0l!
0x
1z
0""
1'"
0y
1{
#970000
0!
0K
0v
0w
#975000
1!
1K
1v
1w
0d!
1c!
0k!
1l!
1x
0'"
1y
#980000
0!
0K
0v
0w
#985000
1!
1K
1v
1w
1d!
0l!
0x
0z
1|
1""
1'"
1}
0y
0{
0!"
1~
#990000
0!
0K
0v
0w
#995000
1!
1K
1v
1w
0d!
0c!
1b!
0j!
1k!
1l!
1x
0|
0}
1!!
1!"
0'"
1"!
1}
0!!
1y
0~
0!"
0"!
1~
